EDI_CH144_20161007
TableName	Actflag	Created	Changed	LK144ID	EffectiveDate	SerialNumber	OldSecID144A	NewSecID144a	OldSecIDRegS	NewSecIDRegS	OldSecIDUnrestricted	NewSecIDUnrestricted	OldLinkOutstandingAmount	NewLinkOutstandingAmount	OldLinkOutstandingAmountDate	NewLinkOutstandingAmountDate	EventType	RelEventID	CH144ID
CH144	I	2016/03/03	2016/03/03	247	2015/04/30	1	3911084	3911084	4035075	4035075			200.00000	1.00638	2012/04/15	2015/04/30	BOCHG	1331657	2
CH144	I	2016/03/09	2016/03/09	12	2016/03/03	1	3251368	3251368	3251509	3251509			954.53400	455.58400	2016/02/17	2016/03/03	BOCHG	1335603	6
CH144	I	2016/03/09	2016/03/09	97	2014/12/31	1	4266395	4266395	3471266	3471266			500.00000	2360.00000	2006/10/10	2014/12/31	BOCHG	1332505	7
CH144	I	2016/03/09	2016/03/09	98	2015/09/30	1	4220767	4220767	4343932	4343932			400.00000	399.00000	2014/03/18	2015/09/30	BOCHG	1335764	8
CH144	I	2016/03/10	2016/03/10	196	2016/03/03	1	2864404	2864404	2135207	2135207			1000.00000	852.39000	2010/10/07	2016/03/03	BOCHG	1332013	9
CH144	I	2016/03/14	2016/03/14	253	2016/03/10	1	3875852	3875852	3875235	3875235			1000.00000	733.11000	2012/07/26	2016/03/10	BOCHG	1338290	10
CH144	I	2016/03/15	2016/03/15	253	2016/03/11	1	3875852	3875852	3875235	3875235			733.11000	729.50000	2016/03/10	2016/03/11	BOCHG	1339356	11
CH144	I	2016/03/16	2016/03/16	176	2016/03/07	1	4605576	4605576	4605578	4605578			350.00000	0.02000	2015/09/16	2016/03/07	BOCHG	1339564	12
CH144	I	2016/03/22	2016/03/22	183	2016/03/03	1	4263197	4263197	4276905	4276905			375.00000	226.37118	2013/09/23	2016/03/03	BOCHG	1343793	14
CH144	I	2016/03/22	2016/03/22	183	2016/03/16	1	4263197	4263197	4276905	4276905			226.37118	92.81218	2016/03/03	2016/03/16	BOCHG	1343802	15
CH144	I	2016/03/23	2016/03/23	12	2016/03/10	1	3251368	3251368	3251509	3251509			455.58400	457.84800	2016/03/03	2016/03/10	BOCHG	1344186	16
CH144	I	2016/03/24	2016/03/24	10	2016/03/22	1	489634	489634	489651	489651			400.00000	204.05700	2007/01/26	2016/03/22	BOCHG	1344137	18
CH144	I	2016/03/28	2016/03/28	133	2015/02/01	1	4313682	4313682	4313685	4313685			750.00000	1050.00000	2014/07/24	2015/02/01	BOCHG	1347128	19
CH144	I	2016/04/01	2016/04/01	254	2016/03/29	1	2401482	2401482	2383600	2383600			1750.00000	1815.36600	2011/01/26	2016/03/29	BOCHG	1350531	20
CH144	I	2016/04/01	2016/04/01	28	2016/03/28	1	4426586	4426586	4426595	4426595			1500.00000	13.27500	2015/01/23	2016/03/28	BOCHG	1351376	21
CH144	I	2016/04/02	2016/04/04	26	2016/03/28	1	4426570	4426570	4426577	4426577			1500.00000	45.03300	2015/01/23	2016/03/28	BOCHG	1351515	22
CH144	I	2016/04/02	2016/04/04	27	2016/03/28	1	4360745	4360745	4360741	4360741			1000.00000	2.66700	2014/10/15	2016/03/28	BOCHG	1351498	23
CH144	I	2016/04/02	2016/04/04	29	2016/03/28	1	4427880	4427880	4427875	4427875			3000.00000	7.13900	2015/01/23	2016/03/28	BOCHG	1351506	24
CH144	I	2016/04/07	2016/04/07	254	2016/04/01	1	2401482	2401482	2383600	2383600			1815.36600	1820.36600	2016/03/29	2016/04/01	BOCHG	1353666	25
CH144	I	2016/04/08	2016/04/08	39	2016/04/08	1	2170455	2170455	2026670	2026670			150.00000	71.43700	2010/07/20	2016/04/08	BOCHG	1354755	27
CH144	I	2016/04/08	2016/04/08	40	2016/04/08	1	638234	638234	638238	638238			150.00000	74.55400	2007/02/02	2016/04/08	BOCHG	1354760	28
CH144	I	2016/04/09	2016/04/11	254	2016/04/04	1	2401482	2401482	2383600	2383600			1820.36600	1823.36600	2016/04/01	2016/04/04	BOCHG	1355355	29
CH144	I	2016/04/11	2016/04/11	254	2016/04/05	1	2401482	2401482	2383600	2383600			1823.36600	1822.44600	2016/04/04	2016/04/05	BOCHG	1355427	30
CH144	I	2016/04/13	2016/04/13	253	2016/04/06	1	3875852	3875852	3875235	3875235			729.50000	730.90300	2016/03/11	2016/04/06	BOCHG	1356806	34
CH144	I	2016/04/14	2016/04/14	254	2016/04/08	1	2401482	2401482	2383600	2383600			1822.44600	1830.24600	2016/04/05	2016/04/08	BOCHG	1358103	35
CH144	I	2016/04/16	2016/04/18	17	2016/04/11	1	4560716	4560716	4560723	4560723			750.00000	846.49700	2015/07/23	2016/04/11	BOCHG	1359659	37
CH144	I	2016/04/18	2016/04/18	215	2016/04/15	1	2226218	2226218	2219175	2219175			79.15600	49.15600	2016/02/26	2016/04/15	BOCHG	1359799	39
CH144	I	2016/04/20	2016/04/20	166	2016/04/13	1	4602574	4602574	4602903	4602903			1000.00000	72.87900	2015/09/15	2016/04/13	BOCHG	1361774	42
CH144	I	2016/04/20	2016/04/20	599	2013/05/17	1	3794471	3794471	3801660	3801660			485.00000	436.50000	2012/05/24	2013/05/17	BOCHG	1362046	44
CH144	I	2016/04/20	2016/04/20	599	2013/05/28	1	3794471	3794471	3801660	3801660			436.50000	388.00000	2013/05/17	2013/05/28	BOCHG	1362057	45
CH144	I	2016/04/20	2016/04/20	599	2013/07/12	1	3794471	3794471	3801660	3801660			388.00000	350.91200	2013/05/28	2013/07/12	BOCHG	1362061	46
CH144	I	2016/04/21	2016/04/21	446	2016/04/14	1	832828	832828	627371	627371			1750.00000	1292.78000	2007/07/02	2016/04/14	BOCHG	1362565	47
CH144	I	2016/04/21	2016/04/21	596	2016/04/12	1	1769845	1769845	1765297	1765297			500.00000	420.27800	2010/02/02	2016/04/12	BOCHG	1362627	50
CH144	I	2016/04/21	2016/04/21	605	2016/04/12	1	697454	697454	691135	691135			1100.00000	1026.79500	2007/10/10	2016/04/12	BOCHG	1362633	51
CH144	I	2016/04/22	2016/04/22	254	2016/04/15	1	2401482	2401482	2383600	2383600			1830.24600	1830.52100	2016/04/08	2016/04/15	BOCHG	1363281	52
CH144	I	2016/04/22	2016/04/22	673	2014/06/02	1	541146	541146	445052	445052			356.17900	356.17900	2015/10/01	2014/06/02	BOCHG	1363304	53
CH144	I	2016/04/22	2016/04/22	689	2016/04/14	1	3229302	3229302	3227762	3227762			1500.00000	1291.75800	2011/11/01	2016/04/14	BOCHG	1363439	57
CH144	I	2016/04/22	2016/04/22	287	2016/04/21	1	4721056	4721056	4722081	4722081			1750.00000	2250.00000	2016/03/15	2016/04/21	BOCHG	1363525	58
CH144	I	2016/04/25	2016/04/25	709	2016/04/15	1	3232961	3232961	3228694	3228694			1500.00000	1279.23500	2011/11/01	2016/04/15	BOCHG	1364447	61
CH144	I	2016/04/25	2016/04/25	551	2016/04/15	1	2212361	2212361	2212354	2212354			1000.00000	877.42100	2010/11/09	2016/04/15	BOCHG	1364642	62
CH144	I	2016/04/26	2016/04/26	672	2016/04/18	1	3940065	3940065	3939843	3939843			1425.00000	1234.19900	2013/06/10	2016/04/18	BOCHG	1365121	64
CH144	I	2016/04/26	2016/04/26	588	2016/04/18	1	4221372	4221372	4218685	4218685			2000.00000	1656.55100	2014/03/17	2016/04/18	BOCHG	1365173	71
CH144	I	2016/04/26	2016/04/26	541	2016/04/18	1	1896081	1896081	1896082	1896082			1371.43700	1365.35600	2015/12/10	2016/04/18	BOCHG	1365181	72
CH144	I	2016/04/27	2016/04/27	798	2016/04/19	1	3522305	3522305	3503292	3503292			1500.00000	1727.68000	2012/02/02	2016/04/19	BOCHG	1365844	74
CH144	I	2016/04/27	2016/04/27	709	2016/04/19	1	3232961	3232961	3228694	3228694			1279.23500	1276.73500	2016/04/15	2016/04/19	BOCHG	1365868	77
CH144	I	2016/04/27	2016/04/27	750	2016/04/19	1	2212827	2212827	2212829	2212829			1130.27400	1151.32000	2015/12/10	2016/04/19	BOCHG	1365950	79
CH144	I	2016/04/27	2016/04/27	446	2016/04/20	1	832828	832828	627371	627371			1292.78000	1290.78000	2016/04/14	2016/04/20	BOCHG	1365957	80
CH144	I	2016/04/27	2016/04/27	750	2016/04/20	1	2212827	2212827	2212829	2212829			1151.32000	1149.82000	2016/04/19	2016/04/20	BOCHG	1366073	81
CH144	I	2016/04/27	2016/04/27	856	2012/08/22	1	3305092	3305092	3330548	3330548			800.00000	1.75000	2011/12/06	2012/08/22	BOCHG	1366163	82
CH144	I	2016/04/28	2016/04/28	772	2016/04/20	1	3912285	3912285	3911879	3911879			634.05100	591.69900	2016/03/23	2016/04/20	BOCHG	1366702	83
CH144	I	2016/04/28	2016/04/28	596	2016/04/18	1	1769845	1769845	1765297	1765297			420.27800	420.47800	2016/04/12	2016/04/18	BOCHG	1366742	84
CH144	I	2016/04/28	2016/04/28	600	2016/04/20	1	4442143	4442143	4441505	4441505			1250.00000	951.19400	2015/02/11	2016/04/20	BOCHG	1366740	85
CH144	I	2016/04/28	2016/04/28	470	2016/04/19	1	4464234	4464234	4464539	4464539			500.00000	264.50400	2015/03/17	2016/04/19	BOCHG	1366786	91
CH144	I	2016/04/28	2016/04/28	672	2016/04/21	1	3940065	3940065	3939843	3939843			1234.19900	1231.99900	2016/04/18	2016/04/21	BOCHG	1366810	92
CH144	I	2016/04/28	2016/04/28	470	2016/04/21	1	4464234	4464234	4464539	4464539			264.50400	264.00400	2016/04/19	2016/04/21	BOCHG	1366896	93
CH144	I	2016/04/28	2016/04/28	702	2016/04/28	1	831762	831762	825837	825837			353.43300	323.82500	2015/12/18	2016/04/28	BOCHG	1366641	97
CH144	I	2016/04/28	2016/04/28	912	2013/11/19	1	3974304	3974304	3973450	3973450			1275.00000	0.14000	2013/02/01	2013/11/19	BOCHG	1367107	98
CH144	I	2016/04/29	2016/04/29	693	2016/04/21	1	1637105	1637105	1628550	1628550			1500.00000	1419.48000	2007/07/02	2016/04/21	BOCHG	1367804	100
CH144	I	2016/04/29	2016/04/29	701	2016/04/21	1	2171941	2171941	2159993	2159993			1500.00000	1470.98700	2010/10/21	2016/04/21	BOCHG	1367806	101
CH144	I	2016/04/29	2016/04/29	875	2016/04/21	1	3960896	3960896	3960894	3960894			2000.00000	1536.07800	2013/01/11	2016/04/21	BOCHG	1367811	102
CH144	I	2016/04/29	2016/04/29	166	2016/04/21	1	4602574	4602574	4602903	4602903			72.87900	70.32900	2016/04/13	2016/04/21	BOCHG	1367829	104
CH144	I	2016/04/29	2016/04/29	531	2016/04/19	1	4258232	4258232	4190474	4190474			750.00000	656.06000	2014/05/06	2016/04/19	BOCHG	1365873	106
CH144	I	2016/04/29	2016/04/29	737	2016/04/19	1	3875502	3875502	3875495	3875495			350.00000	348.59500	2012/07/25	2016/04/19	BOCHG	1365871	107
CH144	I	2016/04/29	2016/04/29	470	2016/04/22	1	4464234	4464234	4464539	4464539			264.00400	262.93400	2016/04/21	2016/04/22	BOCHG	1368039	108
CH144	I	2016/05/02	2016/05/02	706	2016/04/25	1	3232967	3232967	3228699	3228699			750.00000	660.32100	2011/11/01	2016/04/25	BOCHG	1369343	114
CH144	I	2016/05/02	2016/05/02	696	2016/04/25	1	3355807	3355807	3328408	3328408			750.00000	719.07300	2011/12/13	2016/04/25	BOCHG	1369345	115
CH144	I	2016/05/02	2016/05/02	596	2016/04/25	1	1769845	1769845	1765297	1765297			420.47800	420.37800	2016/04/18	2016/04/25	BOCHG	1369420	117
CH144	I	2016/05/02	2016/05/02	892	2016/04/25	1	4223994	4223994	4223069	4223069			3000.00000	3308.20000	2014/03/20	2016/04/25	BOCHG	1369348	118
CH144	I	2016/05/02	2016/05/02	875	2016/04/25	1	3960896	3960896	3960894	3960894			1536.07800	1531.67800	2016/04/21	2016/04/25	BOCHG	1369462	120
CH144	I	2016/05/02	2016/05/02	875	2016/04/26	1	3960896	3960896	3960894	3960894			1531.67800	1530.45300	2016/04/25	2016/04/26	BOCHG	1369656	123
CH144	I	2016/05/02	2016/05/02	166	2016/04/26	1	4602574	4602574	4602903	4602903			70.32900	69.83900	2016/04/21	2016/04/26	BOCHG	1369749	125
CH144	I	2016/05/04	2016/05/04	1018	2016/04/27	1	4126255	4126255	4125654	4125654			750.00000	477.12500	2013/10/21	2016/04/27	BOCHG	1370905	131
CH144	I	2016/05/04	2016/05/04	875	2016/04/27	1	3960896	3960896	3960894	3960894			1530.45300	1530.65300	2016/04/26	2016/04/27	BOCHG	1370909	132
CH144	I	2016/05/04	2016/05/04	886	2016/04/26	1	4185984	4185984	4185980	4185980			5000.00000	5078.37500	2014/01/30	2016/04/26	BOCHG	1370183	138
CH144	I	2016/05/04	2016/05/04	600	2016/04/27	1	4442143	4442143	4441505	4441505			951.19400	946.19400	2016/04/20	2016/04/27	BOCHG	1370290	139
CH144	I	2016/05/04	2016/05/04	772	2016/04/25	1	3912285	3912285	3911879	3911879			591.69900	592.39900	2016/04/20	2016/04/25	BOCHG	1370956	140
CH144	I	2016/05/04	2016/05/04	798	2016/04/28	1	3522305	3522305	3503292	3503292			1727.68000	1730.73000	2016/04/19	2016/04/28	BOCHG	1370988	142
CH144	I	2016/05/04	2016/05/04	666	2016/04/28	1	3923623	3923623	3919182	3919182			1000.00000	986.73400	2012/10/24	2016/04/28	BOCHG	1371189	147
CH144	I	2016/05/05	2016/05/05	871	2016/04/28	1	4041060	4041060	4041054	4041054			500.00000	403.82500	2013/05/22	2016/04/28	BOCHG	1371564	149
CH144	I	2016/05/05	2016/05/05	706	2016/04/26	1	3232967	3232967	3228699	3228699			660.32100	662.55600	2016/04/25	2016/04/26	BOCHG	1371570	150
CH144	I	2016/05/05	2016/05/05	672	2016/04/28	1	3940065	3940065	3939843	3939843			1231.99900	1231.49900	2016/04/21	2016/04/28	BOCHG	1371574	151
CH144	I	2016/05/05	2016/05/05	196	2016/04/28	1	2864404	2864404	2135207	2135207			852.39000	609.38800	2016/03/03	2016/04/28	BOCHG	1371591	153
CH144	I	2016/05/05	2016/05/05	875	2016/04/28	1	3960896	3960896	3960894	3960894			1530.65300	1532.28300	2016/04/27	2016/04/28	BOCHG	1371599	155
CH144	I	2016/05/05	2016/05/05	696	2016/04/27	1	3355807	3355807	3328408	3328408			719.07300	719.37300	2016/04/25	2016/04/27	BOCHG	1371822	158
CH144	I	2016/05/06	2016/05/06	470	2016/04/29	1	4464234	4464234	4464539	4464539			262.93400	262.33400	2016/04/22	2016/04/29	BOCHG	1372376	160
CH144	I	2016/05/06	2016/05/06	684	2016/04/29	1	1587836	1587836	1585953	1585953			500.00000	441.67500	2009/09/14	2016/04/29	BOCHG	1372383	162
CH144	I	2016/05/06	2016/05/06	798	2016/04/29	1	3522305	3522305	3503292	3503292			1730.73000	627.83000	2016/04/28	2016/04/29	BOCHG	1372394	165
CH144	I	2016/05/06	2016/05/06	496	2016/04/29	1	320716	320716	170740	170740			1200.00000	920.27300	2004/04/28	2016/04/29	BOCHG	1372452	166
CH144	I	2016/05/06	2016/05/06	672	2016/05/02	1	3940065	3940065	3939843	3939843			1231.49900	1231.20200	2016/04/28	2016/05/02	BOCHG	1372545	170
CH144	I	2016/05/06	2016/05/06	875	2016/05/02	1	3960896	3960896	3960894	3960894			1532.28300	1531.30500	2016/04/28	2016/05/02	BOCHG	1372551	171
CH144	I	2016/05/07	2016/05/09	750	2016/05/02	1	2212827	2212827	2212829	2212829			1149.82000	1145.84400	2016/04/20	2016/05/02	BOCHG	1372812	174
CH144	I	2016/05/07	2016/05/09	22	2016/05/02	1	4521999	4521999	4525360	4525360			1750.00000	1938.41000	2016/01/18	2016/05/02	BOCHG	1372845	176
CH144	I	2016/05/07	2016/05/09	949	2016/05/02	1	4021618	4021618	4021614	4021614			1500.00000	1313.54000	2013/04/24	2016/05/02	BOCHG	1372934	179
CH144	I	2016/05/07	2016/05/09	1003	2016/05/02	1	4180530	4180530	4178139	4178139			1750.00000	1721.24000	2014/01/15	2016/05/02	BOCHG	1372938	180
CH144	I	2016/05/09	2016/05/09	871	2016/05/03	1	4041060	4041060	4041054	4041054			403.82500	403.44800	2016/04/28	2016/05/03	BOCHG	1373671	182
CH144	I	2016/05/09	2016/05/09	22	2016/05/04	1	4521999	4521999	4525360	4525360			1938.41000	1968.41000	2016/05/02	2016/05/04	BOCHG	1373762	185
CH144	I	2016/05/10	2016/05/10	496	2016/05/05	1	320716	320716	170740	170740			920.27300	919.67300	2016/04/29	2016/05/05	BOCHG	1375955	193
CH144	I	2016/05/10	2016/05/10	693	2016/05/04	1	1637105	1637105	1628550	1628550			1419.48000	1421.98000	2016/04/21	2016/05/04	BOCHG	1375971	194
CH144	I	2016/05/10	2016/05/10	196	2016/05/04	1	2864404	2864404	2135207	2135207			609.38800	611.58800	2016/04/28	2016/05/04	BOCHG	1375981	196
CH144	I	2016/05/10	2016/05/10	798	2016/05/06	1	3522305	3522305	3503292	3503292			627.83000	633.83000	2016/04/29	2016/05/06	BOCHG	1376037	199
CH144	I	2016/05/10	2016/05/10	1066	2014/03/04	1	4131793	4131793	4131761	4131761			1000.00000	1750.00000	2013/10/30	2014/03/04	BOCHG	1374057	201
CH144	I	2016/05/11	2016/05/11	875	2016/05/06	1	3960896	3960896	3960894	3960894			1531.30500	1540.20800	2016/05/02	2016/05/06	BOCHG	1376588	203
CH144	I	2016/05/11	2016/05/11	1107	2016/05/06	1	4029921	4029921	4026115	4026115			406.56400	342.83300	2015/12/10	2016/05/06	BOCHG	1376591	204
CH144	I	2016/05/11	2016/05/11	22	2016/05/06	1	4521999	4521999	4525360	4525360			1968.41000	1969.37100	2016/05/04	2016/05/06	BOCHG	1376598	205
CH144	I	2016/05/11	2016/05/11	949	2016/05/09	1	4021618	4021618	4021614	4021614			1313.54000	1313.16500	2016/05/02	2016/05/09	BOCHG	1376702	207
CH144	I	2016/05/12	2016/05/12	541	2016/05/09	1	1896081	1896081	1896082	1896082			1365.35600	1364.65600	2016/04/18	2016/05/09	BOCHG	1377503	210
CH144	I	2016/05/12	2016/05/12	1100	2016/05/09	1	4114630	4114630	4114644	4114644			1000.00000	748.66800	2013/09/26	2016/05/09	BOCHG	1377512	211
CH144	I	2016/05/12	2016/05/12	772	2016/05/05	1	3912285	3912285	3911879	3911879			592.39900	593.39900	2016/04/25	2016/05/09	BOCHG	1377513	212
CH144	I	2016/05/12	2016/05/12	600	2016/05/09	1	4442143	4442143	4441505	4441505			946.19400	1318.49400	2016/04/27	2016/05/09	BOCHG	1377537	216
CH144	I	2016/05/12	2016/05/12	1038	2016/05/06	1	3229302	3229302	3227762	3227762			1500.00000	1295.68700	2011/11/01	2016/05/06	BOCHG	1377545	219
CH144	I	2016/05/12	2016/05/12	600	2016/05/10	1	4442143	4442143	4441505	4441505			1318.49400	1318.29400	2016/05/09	2016/05/10	BOCHG	1378877	222
CH144	I	2016/05/12	2016/05/12	470	2016/05/06	1	4464234	4464234	4464539	4464539			262.33400	262.63400	2016/04/29	2016/05/06	BOCHG	1378886	223
CH144	I	2016/05/13	2016/05/13	666	2016/05/02	1	3923623	3923623	3919182	3919182			986.73400	987.03400	2016/04/28	2016/05/02	BOCHG	1379493	227
CH144	I	2016/05/13	2016/05/13	772	2016/05/10	1	3912285	3912285	3911879	3911879			593.39900	594.23900	2016/05/09	2016/05/10	BOCHG	1379501	229
CH144	I	2016/05/13	2016/05/13	722	2016/05/10	1	2220779	2220779	2219170	2219170			1500.00000	1365.57700	2010/11/15	2016/05/10	BOCHG	1379532	230
CH144	I	2016/05/13	2016/05/13	684	2016/05/11	1	1587836	1587836	1585953	1585953			441.67500	439.94500	2016/04/29	2016/05/11	BOCHG	1379561	232
CH144	I	2016/05/13	2016/05/13	551	2016/05/11	1	2212361	2212361	2212354	2212354			877.42100	873.19600	2016/04/15	2016/05/11	BOCHG	1379574	234
CH144	I	2016/05/13	2016/05/13	1134	2014/01/15	1	4219491	4219491	4103919	4103919			250.40600	234.90400	2012/05/30	2014/01/15	BOCHG	1376932	239
CH144	I	2016/05/13	2016/05/13	484	2016/02/29	1	4454079	4454079	4454720	4454720			279.00000	1.00000	2015/03/05	2016/02/29	BOCHG	1379726	240
CH144	I	2016/05/14	2016/05/16	1100	2016/05/12	1	4114630	4114630	4114644	4114644			748.66800	748.16800	2016/05/09	2016/05/12	BOCHG	1379698	249
CH144	I	2016/05/14	2016/05/16	772	2016/05/12	1	3912285	3912285	3911879	3911879			594.23900	593.16400	2016/05/10	2016/05/12	BOCHG	1379689	251
CH144	I	2016/05/14	2016/05/16	684	2016/05/12	1	1587836	1587836	1585953	1585953			439.94500	438.67500	2016/05/11	2016/05/12	BOCHG	1380031	252
CH144	I	2016/05/14	2016/05/16	1217	2013/08/05	1	3929014	3929014	3929070	3929070			3100.00000	29.50000	2012/11/08	2013/08/05	BOCHG	1380176	253
CH144	I	2016/05/16	2016/05/16	890	2016/05/11	1	3964907	3964907	3964205	3964205			1500.00000	1731.60000	2013/01/23	2016/05/11	BOCHG	1379976	261
CH144	I	2016/05/16	2016/05/16	491	2016/05/12	1	4377450	4377450	4377447	4377447			123.17700	86.51400	2015/12/10	2016/05/12	BOCHG	1381107	262
CH144	I	2016/05/17	2016/05/17	876	2016/05/13	1	3960903	3960903	3961226	3961226			750.00000	554.16800	2013/01/17	2016/05/13	BOCHG	1381681	269
CH144	I	2016/05/17	2016/05/17	1150	2016/05/13	1	320716	320716	170740	170740			1200.00000	920.47300	2004/04/28	2016/05/13	BOCHG	1381764	271
CH144	I	2016/05/17	2016/05/17	597	2016/05/13	1	1295492	1295492	558896	558896			800.00000	759.29800	2007/03/19	2016/05/13	BOCHG	1381763	272
CH144	I	2016/05/17	2016/05/17	196	2016/05/13	1	2864404	2864404	2135207	2135207			611.58800	619.83800	2016/05/04	2016/05/13	BOCHG	1381770	273
CH144	I	2016/05/17	2016/05/17	699	2016/05/12	1	532556	532556	522251	522251			2193.93400	1351.01200	2012/09/28	2016/05/12	BOCHG	1381823	275
CH144	I	2016/05/18	2016/05/18	1139	2016/05/06	1	4085764	4085764	4085766	4085766			1000.00000	1122.87300	2013/08/06	2016/05/06	BOCHG	1381772	276
CH144	I	2016/05/18	2016/05/18	684	2016/05/16	1	1587836	1587836	1585953	1585953			438.67500	436.67500	2016/05/12	2016/05/16	BOCHG	1382354	277
CH144	I	2016/05/18	2016/05/18	833	2016/05/12	1	2454105	2454105	2432952	2432952			1000.00000	834.82200	2011/02/16	2016/05/12	BOCHG	1382451	278
CH144	I	2016/05/18	2016/05/18	662	2016/05/13	1	3931866	3931866	3953067	3953067			1250.00000	876.07100	2012/11/27	2016/05/13	BOCHG	1382455	279
CH144	I	2016/05/18	2016/05/18	1139	2016/05/13	1	4085764	4085764	4085766	4085766			1122.87300	1122.37300	2016/05/06	2016/05/13	BOCHG	1382459	280
CH144	I	2016/05/18	2016/05/18	1106	2016/05/13	1	4123978	4123978	4123970	4123970			800.00000	411.54800	2013/10/16	2016/05/13	BOCHG	1382461	281
CH144	I	2016/05/19	2016/05/19	251	2016/05/16	1	3744808	3744808	3741964	3741964			750.00000	572.56900	2012/11/20	2016/05/16	BOCHG	1382982	282
CH144	I	2016/05/19	2016/05/19	22	2016/05/16	1	4521999	4521999	4525360	4525360			1969.37100	398.20600	2016/05/06	2016/05/16	BOCHG	1383007	288
CH144	I	2016/05/19	2016/05/19	696	2016/05/16	1	3355807	3355807	3328408	3328408			719.37300	718.07300	2016/04/27	2016/05/16	BOCHG	1382448	291
CH144	I	2016/05/19	2016/05/19	1226	2016/05/06	1	3796312	3796312	3796315	3796315			250.00000	53.45500	2012/05/16	2016/05/06	BOCHG	1383245	292
CH144	I	2016/05/20	2016/05/20	605	2016/05/09	1	697454	697454	691135	691135			1026.79500	1027.24000	2016/04/12	2016/05/09	BOCHG	1383853	295
CH144	I	2016/05/20	2016/05/20	875	2016/05/13	1	3960896	3960896	3960894	3960894			1540.20800	1560.92100	2016/05/06	2016/05/13	BOCHG	1383860	297
CH144	I	2016/05/20	2016/05/20	726	2016/05/17	1	1430505	1430505	1512506	1512506			500.00000	480.95500	2009/05/06	2016/05/17	BOCHG	1383882	298
CH144	I	2016/05/20	2016/05/20	22	2016/05/17	1	4521999	4521999	4525360	4525360			398.20600	397.65100	2016/05/16	2016/05/17	BOCHG	1383907	300
CH144	I	2016/05/21	2016/05/23	753	2016/05/18	1	2129158	2129158	2127900	2127900			700.00000	584.75000	2010/10/06	2016/05/18	BOCHG	1384308	304
CH144	I	2016/05/21	2016/05/23	1016	2016/05/18	1	2631234	2631234	2631243	2631243			1000.00000	992.88200	2011/04/28	2016/05/18	BOCHG	1384315	306
CH144	I	2016/05/21	2016/05/23	948	2016/05/18	1	4021623	4021623	4018832	4018832			1500.00000	1347.26900	2013/04/24	2016/05/18	BOCHG	1384323	307
CH144	I	2016/05/21	2016/05/23	668	2016/05/05	1	2791222	2791222	2791229	2791229			1280.02300	1140.12500	2015/04/02	2016/05/05	BOCHG	1375932	309
CH144	I	2016/05/21	2016/05/23	668	2016/05/18	1	2791222	2791222	2791229	2791229			1140.12500	1139.05000	2016/05/05	2016/05/18	BOCHG	1384490	310
CH144	I	2016/05/21	2016/05/23	446	2016/05/19	1	832828	832828	627371	627371			1290.78000	1289.98000	2016/04/20	2016/05/19	BOCHG	1384512	313
CH144	I	2016/05/23	2016/05/23	701	2016/05/19	1	2171941	2171941	2159993	2159993			1470.98700	1470.78700	2016/04/21	2016/05/19	BOCHG	1385243	316
CH144	I	2016/05/23	2016/05/23	722	2016/05/11	1	2220779	2220779	2219170	2219170			1365.57700	2741.15400	2016/05/10	2016/05/11	BOCHG	1385351	319
CH144	I	2016/05/23	2016/05/23	1258	2014/11/12	1	4286382	4286382	4290560	4290560			500.00000	2.22600	2014/06/19	2014/11/12	BOCHG	1385604	328
CH144	I	2016/05/24	2016/05/24	709	2016/05/20	1	3232961	3232961	3228694	3228694			1276.73500	1278.91500	2016/04/19	2016/05/20	BOCHG	1385966	339
CH144	I	2016/05/24	2016/05/24	1018	2016/05/20	1	4126255	4126255	4125654	4125654			477.12500	482.31200	2016/04/27	2016/05/20	BOCHG	1385971	340
CH144	I	2016/05/24	2016/05/24	470	2016/05/20	1	4464234	4464234	4464539	4464539			262.63400	263.63000	2016/05/06	2016/05/20	BOCHG	1385973	341
CH144	I	2016/05/24	2016/05/24	12	2016/05/12	1	3251368	3251368	3251509	3251509			457.84800	458.86800	2016/03/10	2016/05/12	BOCHG	1385975	342
CH144	I	2016/05/24	2016/05/24	631	2016/05/18	1	2220104	2220104	2295783	2295783			815.00000	400.00000	2011/01/13	2016/05/18	BOCHG	1382477	347
CH144	I	2016/05/24	2016/05/24	359	2016/05/13	1	4733860	4733860	4729492	4729492			1000.00000	1100.00000	2016/03/23	2016/05/13	BOCHG	1384448	348
CH144	I	2016/05/24	2016/05/24	401	2015/08/28	1	3801038	3801038	4197128	4197128			270.00000	42.00000	2010/10/21	2015/08/28	BOCHG	1382552	349
CH144	I	2016/05/24	2016/05/24	308	2012/12/10	1	3355336	3355336	3355334	3355334			494.10000	483.79063	2011/12/21	2012/12/10	BOCHG	1362028	351
CH144	I	2016/05/25	2016/05/25	722	2016/05/19	1	2220779	2220779	2219170	2219170			2741.15400	1375.82700	2016/05/11	2016/05/19	BOCHG	1386863	368
CH144	I	2016/05/25	2016/05/25	1293	2016/03/02	1	3979612	3979612	3990835	3990835			282.74100	197.74100	2013/01/31	2016/03/02	BOCHG	1386934	372
CH144	I	2016/05/25	2016/05/25	1296	2014/10/09	1	4274260	4274260	4270695	4270695			260.00000	0.06000	2014/05/30	2014/10/09	BOCHG	1386961	374
CH144	I	2016/05/26	2016/05/26	253	2016/05/24	1	3875852	3875852	3875235	3875235			730.90300	762.69300	2016/04/06	2016/05/24	BOCHG	1387434	378
CH144	I	2016/05/26	2016/05/26	1310	2014/07/25	1	4130382	4130382	4145547	4145547			400.00000	0.50000	2013/10/22	2014/07/25	BOCHG	1387573	380
CH144	I	2016/05/26	2016/05/26	1314	2014/07/25	1	4130385	4130385	4145515	4145515			400.00000	1.00000	2013/10/22	2014/07/25	BOCHG	1387623	383
CH144	I	2016/05/27	2016/05/27	882	2005/08/16	1	1232499	1232499	4240254	4240254			0.22900	0.22900	2005/08/23	2005/08/16	BOCHG	1388296	400
CH144	I	2016/05/28	2016/05/30	196	2016/05/25	1	2864404	2864404	2135207	2135207			619.83800	625.11300	2016/05/13	2016/05/25	BOCHG	1388614	408
CH144	I	2016/05/28	2016/05/30	875	2016/05/25	1	3960896	3960896	3960894	3960894			1560.92100	1566.14200	2016/05/13	2016/05/25	BOCHG	1388619	409
CH144	I	2016/05/28	2016/05/30	1358	2009/10/02	1	1517768	1517768	1515038	1515038			1500.00000	7.45900	2009/07/23	2009/10/02	BOCHG	1388641	414
CH144	I	2016/05/28	2016/05/30	1368	2015/02/06	1	4318475	4318475	4318744	4318744			1000.00000	0.63000	2014/08/12	2015/02/06	BOCHG	1388707	416
CH144	I	2016/05/30	2016/05/30	706	2016/05/16	1	3232967	3232967	3228699	3228699			662.55600	669.45600	2016/04/26	2016/05/16	BOCHG	1389405	427
CH144	I	2016/05/30	2016/05/30	1100	2016/05/25	1	4114630	4114630	4114644	4114644			748.16800	748.19800	2016/05/12	2016/05/25	BOCHG	1389409	428
CH144	I	2016/05/30	2016/05/30	1139	2016/05/16	1	4085764	4085764	4085766	4085766			1122.37300	1122.70400	2016/05/13	2016/05/16	BOCHG	1389416	429
CH144	I	2016/05/30	2016/05/30	736	2016/05/06	1	3922871	3922871	3922720	3922720			900.00000	879.08500	2013/01/24	2016/05/06	BOCHG	1376639	432
CH144	I	2016/05/31	2016/05/31	871	2016/05/26	1	4041060	4041060	4041054	4041054			403.44800	403.32700	2016/05/03	2016/05/26	BOCHG	1390592	439
CH144	I	2016/06/01	2016/06/01	1107	2016/05/18	1	4029921	4029921	4026115	4026115			342.83300	343.40800	2016/05/06	2016/05/18	BOCHG	1391608	443
CH144	I	2016/06/01	2016/06/01	600	2016/05/25	1	4442143	4442143	4441505	4441505			1318.29400	1337.88600	2016/05/10	2016/05/25	BOCHG	1391610	444
CH144	I	2016/06/04	2016/06/06	1134	2016/04/26	1	4219491	4219491	4103919	4103919			234.90400	23.18320	2014/01/15	2016/04/26	BOCHG	1392870	454
CH144	I	2016/06/06	2016/06/06	673	2016/06/02	1	541146	541146	445052	445052			356.17900	350.87100	2014/06/02	2016/06/02	BOCHG	1394264	464
CH144	I	2016/06/07	2016/06/07	1038	2016/05/26	1	3229302	3229302	3227762	3227762			1295.68700	1319.38700	2016/05/06	2016/05/26	BOCHG	1394688	468
CH144	I	2016/06/07	2016/06/07	551	2016/05/27	1	2212361	2212361	2212354	2212354			873.19600	874.65000	2016/05/11	2016/05/27	BOCHG	1394693	469
CH144	I	2016/06/07	2016/06/07	1427	2006/10/12	1	1116290	1116290	715363	715363			1700.00000	3.10000	2006/03/24	2006/10/12	BOCHG	1394788	472
CH144	I	2016/06/07	2016/06/07	525	2016/06/07	1	4251716	4251716	4252550	4252550			270.00000	89.76400	2014/11/17	2016/06/07	BOCHG	1394615	473
CH144	I	2016/06/08	2016/06/08	1424	2015/10/28	1	2216260	2216260	2361882	2361882			152.53100	152.53100	2015/10/21	2015/10/28	BOCHG	1394793	479
CH144	I	2016/06/08	2016/06/08	1436	2015/12/23	1	4274645	4274645	4271551	4271551			500.00000	0.45000	2014/05/27	2015/12/23	BOCHG	1395300	482
CH144	I	2016/06/08	2016/06/08	1439	2015/12/23	1	4274646	4274646	4271553	4271553			600.00000	0.37300	2014/05/27	2015/12/23	BOCHG	1395314	485
CH144	I	2016/06/08	2016/06/08	1442	2008/08/21	1	1232487	1232487	2301383	2301383			400.00000	5.00000	2008/04/03	2008/08/21	BOCHG	1395369	487
CH144	I	2016/06/08	2016/06/08	1431	2015/12/07	1	4505834	4505834	4505837	4505837			350.00000	19.91000	2015/05/12	2015/12/07	BOCHG	1394857	498
CH144	I	2016/06/08	2016/06/08	1451	2013/04/02	1	3805544	3805544	3845980	3845980			250.00000	238.50000	2012/05/14	2013/04/02	BOCHG	1395454	499
CH144	I	2016/06/08	2016/06/08	1451	2013/05/03	1	3805544	3805544	3845980	3845980			238.50000	16.48700	2013/04/02	2013/05/03	BOCHG	1395456	500
CH144	I	2016/06/09	2016/06/09	1478	2015/05/16	1	4398065	4398065	4399120	4399120			2200.00000	2.50000	2014/11/21	2015/05/16	BOCHG	1398075	520
CH144	I	2016/06/10	2016/06/10	1497	2014/05/24	1	4177278	4177278	4176990	4176990			1275.00000	0.24500	2014/01/21	2014/05/24	BOCHG	1398790	533
CH144	I	2016/06/10	2016/06/10	1508	2012/05/17	1	2675146	2675146	4191563	4191563			250.00000	340.00000	2011/05/12	2012/05/17	BOCHG	1398951	540
CH144	I	2016/06/10	2016/06/10	1508	2013/02/08	1	2675146	2675146	4191563	4191563			340.00000	440.00000	2012/05/17	2013/02/08	BOCHG	1398953	541
CH144	I	2016/06/11	2016/06/13	1524	2012/12/29	1	3598422	3598422	3602090	3602090			1000.00000	0.50000	2012/03/05	2012/12/29	BOCHG	1399228	544
CH144	I	2016/06/13	2016/06/13	1518	2014/07/16	1	4284311	4284311	4323220	4323220			850.25000	0.25000	2014/07/16	2014/07/16	BOCHG	1060088	560
CH144	I	2016/06/13	2016/06/13	750	2016/06/08	1	2212827	2212827	2212829	2212829			1145.84400	1154.19400	2016/05/02	2016/06/08	BOCHG	1400005	563
CH144	I	2016/06/16	2016/06/16	1610	2015/07/23	1	4485063	4485063	4485718	4485718			1500.00000	39.65500	2015/04/14	2015/07/23	BOCHG	1402893	608
CH144	I	2016/06/17	2016/06/17	660	2016/06/17	1	3917349	3917349	3904490	3904490			470.71400	211.10900	2014/07/18	2016/06/17	BOCHG	1403395	610
CH144	I	2016/06/17	2016/06/17	838	2016/06/17	1	3982265	3982265	3981579	3981579			707.58500	396.15900	2014/07/18	2016/06/17	BOCHG	1403393	611
CH144	I	2016/06/17	2016/06/17	702	2016/06/17	1	831762	831762	825837	825837			323.82500	137.59500	2016/04/28	2016/06/17	BOCHG	1403619	620
CH144	I	2016/06/17	2016/06/17	783	2016/06/17	1	2176930	2176930	2174366	2174366			800.00000	139.95500	2010/10/27	2016/06/17	BOCHG	1403404	623
CH144	I	2016/06/17	2016/06/17	1608	2015/11/25	1	4390953	4390953	4391693	4391693			1000.00000	3.34200	2014/11/28	2015/11/25	BOCHG	1402811	625
CH144	I	2016/06/18	2016/06/20	1623	2014/12/05	1	4324559	4324559	4324443	4324443			600.00000	17.95000	2014/08/21	2014/12/05	BOCHG	1403600	626
CH144	I	2016/06/18	2016/06/20	1652	2014/02/01	1	3886373	3886373	3886230	3886230			1000.00000	1.12400	2012/08/16	2014/02/01	BOCHG	1404018	632
CH144	I	2016/06/20	2016/06/20	1664	2007/06/05	1	1288452	1288452	1358452	1358452			500.00000	0.01000	2006/11/17	2007/06/05	BOCHG	1405259	644
CH144	I	2016/06/20	2016/06/20	1667	2015/08/21	1	4468620	4468620	4474176	4474176			2868.70400	1.55000	2015/03/13	2015/08/21	BOCHG	1405326	647
CH144	I	2016/06/22	2016/06/22	1680	2014/11/17	1	4104106	4104106	4104800	4104800			4251.10000	1.10000	2015/10/01	2014/11/17	BOCHG	1406517	655
CH144	I	2016/06/24	2016/06/24	1719	2014/05/24	1	4177280	4177280	4177002	4177002			1200.00000	2.13000	2014/01/21	2014/05/24	BOCHG	1408055	691
CH144	I	2016/06/24	2016/06/24	1480	2016/06/17	1	4106410	4106410	4105938	4105938			500.00000	323.45000	2013/09/16	2016/06/17	BOCHG	1407563	692
CH144	U	2016/06/27	2016/06/27	359	2016/06/22	1	4733860	4733860	4729492	4729492			1100.00000	1368.00000	2016/05/13	2016/06/22	BOCHG	1406470	702
CH144	I	2016/06/28	2016/06/28	1173	2016/06/21	1	1897824	1897824	1896168	1896168			680.48200	484.72900	2015/10/28	2016/06/21	BOCHG	1409487	704
CH144	U	2016/06/28	2016/06/28	1651	2014/07/22	1	4117215	4117215	4117556	4117556			1500.00000	1.41000	2013/09/27	2014/07/22	BOCHG	1403941	710
CH144	I	2016/06/29	2016/06/29	1094	2016/06/28	1	4115211	4115211	4115212	4115212			473.76700	313.76700	2013/09/27	2016/06/28	BOCHG	1409978	717
CH144	I	2016/07/02	2016/07/04	1767	2014/07/08	1	4044519	4044519	4044532	4044532			325.00000	425.00000	2013/05/20	2014/07/08	BOCHG	1413768	737
CH144	I	2016/07/02	2016/07/04	1769	2015/08/18	1	4353396	4353396	4353391	4353391			500.00000	63.26000	2014/09/29	2015/08/18	BOCHG	1413797	738
CH144	I	2016/07/05	2016/07/05	1789	2012/10/04	1	3261972	3261972	3253632	3253632			250.00000	500.00000	2011/11/10	2012/10/04	BOCHG	1415376	744
CH144	I	2016/07/06	2016/07/06	1777	2016/05/01	1	1289119	1289119	745278	745278			81.10000	77.30000	2015/05/01	2016/05/01	BOCHG	1415306	747
CH144	I	2016/07/29	2016/07/29	774	2016/07/28	1	2028671	2028671	2028663	2028663			675.00000	600.00000	2016/01/28	2016/07/28	BOCHG	1430690	780
CH144	I	2016/08/05	2016/08/05	999	2016/08/05	1	3887671	3887671	3888449	3888449			1225.00000	1107.90000	2015/02/19	2016/08/05	BOCHG	1434556	787
CH144	I	2016/08/05	2016/08/05	258	2016/08/05	1	4464224	4464224	4464230	4464230			500.00000	465.00000	2015/03/13	2016/08/05	BOCHG	1434520	788
CH144	I	2016/08/09	2016/08/09	1112	2016/06/16	1	2648018	2648018	2630914	2630914			671.92500	607.72800	2016/04/28	2016/06/16	BOCHG	1435952	789
CH144	I	2016/08/09	2016/08/09	1112	2016/06/17	2	2648018	2648018	2630914	2630914			607.72800	536.81000	2016/06/16	2016/06/17	BOCHG	1435954	790
CH144	I	2016/08/17	2016/08/17	319	2016/08/15	1	4198065	4198065	4204658	4204658			175.00000	144.40000	2014/02/12	2016/08/15	BOCHG	1442298	797
CH144	I	2016/08/17	2016/08/17	1856	2016/08/15	1	4198065	4198065	4204658	4204658			175.00000	144.36900	2014/02/12	2016/08/15	BOCHG	1442357	798
CH144	I	2016/08/23	2016/08/23	1019	2016/08/22	1	271056	271056	169267	169267			131.02752	131.02752	2015/01/01	2016/08/22	BOCHG	1444706	803
CH144	I	2016/08/23	2016/08/23	1415	2016/08/19	1	4540948	4540948	4540967	4540967			1000.00000	0.10000	2015/07/02	2016/08/19	BOCHG	1443886	804
CH144	I	2016/08/23	2016/08/23	1416	2016/08/19	1	4540951	4540951	4541011	4541011			2000.00000	0.33000	2015/07/02	2016/08/19	BOCHG	1443890	805
CH144	I	2016/08/25	2016/08/25	693	2016/05/31	1	1637105	1637105	1628550	1628550			1421.98000	309.28000	2016/05/04	2016/05/31	BOCHG	1447036	808
CH144	I	2016/08/30	2016/08/30	1868	2015/03/18	1	1835455	1835455	1813295	1813295			350.00000	299.06800	2010/03/11	2015/03/18	BOCHG	1449720	814
CH144	I	2016/09/14	2016/09/14	161	2016/01/01	1	4294670	4294670	4295962	4295962			405.00000	431.23024	2014/07/01	2016/01/01	BOCHG	1459761	823
CH144	I	2016/09/26	2016/09/26	424	2016/09/26	1	4113975	4113975	4113974	4113974			1250.00000		2013/09/26	2016/09/26	BOCHG	1466885	833
CH144	I	2016/09/28	2016/09/28	1496	2014/09/15	1	4341681	4341681	4393994	4393994			225.00000	250.00000	2014/09/10	2014/09/15	BOCHG	1469686	834
CH144	I	2016/10/01	2016/10/03	771	2016/09/30	1	751169	751169	727820	727820			284.25000		2014/09/30	2016/09/30	BOCHG	1470543	841
CH144	I	2016/10/03	2016/10/03	1095	2016/10/03	1	4115587	4115587	4115415	4115415			1000.00000		2013/10/01	2016/10/03	BOCHG	1472577	844
CH144	I	2016/10/03	2016/10/03	1682	2016/07/17	1	4007462	4007462	4007448	4007448			170.00000	167.97500	2016/02/09	2016/07/17	BOCHG	1473055	845
CH144	I	2016/10/03	2016/10/03	1682	2016/07/20	1	4007462	4007462	4007448	4007448			167.97500	127.69500	2016/07/17	2016/07/20	BOCHG	1473058	846
CH144	I	2016/10/05	2016/10/05	1374	2016/10/04	1	4724322	4724322	4725481	4725481			400.00000		2016/03/16	2016/10/04	BOCHG	1473647	855
CH144	I	2016/10/05	2016/10/05	694	2016/10/04	1	421585	421585	555132	555132			300.00000		2006/10/04	2016/10/04	BOCHG	1473129	856
CH144	I	2016/10/05	2016/10/05	1856	2016/10/03	1	4198065	4198065	4204658	4204658			144.36900	25.25500	2016/08/15	2016/10/03	BOCHG	1473820	857
CH144	I	2016/10/07	2016/10/07	37	2016/10/03	1	4484065	4484065	4484871	4484871			500.00000	466.20500	2015/04/16	2016/10/03	BOCHG	1474566	863
EDI_ENDOFFILE
