EDI_BBEC_20161007
tablename	ActFlag	Created	Changed	BbecId	SecId	BbeId	Oldexchgcd	Oldcurencd	EffectiveDate	Newexchgcd	Newcurencd	OldbbgexhId	NewbbgexhId	Oldbbgexhtk	Newbbgexhtk	ReleventId	EventType	Notes
BBEC	I	2012/05/10	2012/05/10	7063	60960	111233	USPINK		2012/05/10	USPINK		BBG000CMVGZ9		VLKPF PQ			CLEAN	No further information
BBEC	I	2012/05/10	2012/05/10	8241	97284	109209	USPINK		2012/05/10	USPINK		BBG001KNMST7		RMLXP PQ			CLEAN	No further information
BBEC	I	2012/05/10	2012/05/10	9096	152678	102458	USPINK		2012/05/10	USPINK		BBG000C8JL92		BUGDF PQ			CLEAN	No further information
BBEC	I	2012/05/10	2012/05/10	13383	2745519	108026	USPINK		2012/05/10	USPINK		BBG000NSX4Z9		OCESO PQ			CLEAN	No further information
BBEC	I	2012/05/10	2012/05/10	14192	60756	109374	USPSGM		2012/05/10	USPSGM		BBG000BTCFD2		SUVPF PQ			CLEAN	No further information
BBEC	I	2012/05/10	2012/05/10	14193	60772	115835	USPSGM		2012/05/10	USPSGM		BBG001HWYSK7		DRWKF PQ			CLEAN	No further information
BBEC	I	2012/05/10	2012/05/10	14196	60868	102205	USPSGM		2012/05/10	USPSGM		BBG000BW2XK9		BIESF PQ			CLEAN	No further information
BBEC	I	2012/10/16	2012/10/16	20811	631782	44759	GBLSE	GBP	2012/10/15	GBLSE	GBP	BBG000QB2Y90	BBG000QB2Y90	MERE LN	ERET LN			No further information
BBEC	I	2012/12/18	2012/12/18	23553	1105669	300246			2012/10/16			BBG0000S2PS9	BBG0000S2PS9	BAA 4.6 09/30/14 REGS	HTHROW 4.6 09/30/14 REGS			No further information
BBEC	I	2012/12/18	2012/12/18	23712	2216223	391661			2012/10/18			BBG0016VD917	BBG0016VD917	BACR V4 10/07/20 MTN	BACR V0 10/07/20 MTN			No further information
BBEC	I	2012/12/18	2012/12/18	23713	2216210	391671			2012/10/18			BBG0016VGMT5	BBG0016VGMT5	BACR V4.25 10/07/22 MTN	BACR V0 10/07/22 MTN			No further information
BBEC	I	2012/12/18	2012/12/18	23759	3658997	392928			2012/10/19			BBG001D5F335	BBG001D5F335	BCENC 5.5 01/20/21 144A	CENSUD 5.5 01/20/21 144A			No further information
BBEC	I	2012/12/18	2012/12/18	23760	2432170	392956			2012/10/19			BBG001D9MSS7	BBG001D9MSS7	BCENC 5.5 01/20/21 REGS	CENSUD 5.5 01/20/21 REGS			No further information
BBEC	I	2012/12/18	2012/12/18	23812	3203189	442270			2012/10/22			BBG0025RVN69	BBG0025RVN69	REGN 1.875 10/01/16 144A	REGN 1.875 10/01/16			No further information
BBEC	I	2012/12/18	2012/12/18	23818	2215199	391766			2012/10/23			BBG00171XGB3	BBG00171XGB3	BACR V4.25 10/15/22 MTN	BACR V0 10/15/22 MTN			No further information
BBEC	I	2012/12/18	2012/12/18	23819	2216278	391860			2012/10/23			BBG00179X3H9	BBG00179X3H9	BACR V4 10/21/20 MTN	BACR V0 10/21/20 MTN			No further information
BBEC	I	2012/12/18	2012/12/18	23828	3203187	442272			2012/10/24			BBG0025WR9J0	BBG0025WR9J0	NUAN 2.75 11/01/31 144A	NUAN 2.75 11/01/31			No further information
BBEC	I	2012/12/18	2012/12/18	23843	3438643	444713			2012/10/24			BBG003D9L372	BBG003D9L372	BTU 6 11/15/18 WI	BTU 6 11/15/18			No further information
BBEC	I	2012/12/18	2012/12/18	23844	3438662	444714			2012/10/24			BBG003D9XR76	BBG003D9XR76	BTU 6.25 11/15/21 WI	BTU 6.25 11/15/21			No further information
BBEC	I	2012/12/18	2012/12/18	23880	3628819	442442			2012/10/25			BBG0027WTHG1	BBG0027WTHG1	GFIELD 13 11/15/16 REGS	GFIELD 13 11/15/16 regs			No further information
BBEC	I	2012/12/18	2012/12/18	23881	1100510	405370			2012/10/26			BBG00002GB20	BBG00002GB20	ETP 9 11/01/24	ETE 9 11/01/24			No further information
BBEC	I	2012/12/18	2012/12/18	23883	973845	412844			2012/10/26			BBG0000GCH39	BBG0000GCH39	ETP 5.75 01/15/17	ETE 5.75 01/15/17			No further information
BBEC	I	2012/12/18	2012/12/18	23988	2178371	439573			2012/10/31			BBG0017G0708	BBG0017G0708	RBS V4.8 10/27/17 MTN	RBS V0 10/27/17 MTN			No further information
BBEC	I	2012/12/19	2012/12/19	24050	2998194	440336			2012/11/01			BBG001FBQ5C3	BBG001FBQ5C3	REALOG L 10/10/16 3	RLGY L 10/10/16 3			No further information
BBEC	I	2012/12/19	2012/12/19	24123	2448555	393196			2012/11/02			BBG001HNZD92	BBG001HNZD92	AVYAUS 7 04/01/19 144A	AVYA 7 04/01/19 144A			No further information
BBEC	I	2012/12/19	2012/12/19	24124	2435555	393270			2012/11/02			BBG001HX06V8	BBG001HX06V8	AVYAUS 7 04/01/19 REGS	AVYA 7 04/01/19 REGS			No further information
BBEC	I	2012/12/19	2012/12/19	24125	3252971	442293			2012/11/02			BBG002623QH5	BBG002623QH5	HOV 2 11/01/21 144A	HOV 2 11/01/21			No further information
BBEC	I	2012/12/19	2012/12/19	24126	3252977	442295			2012/11/02			BBG002625669	BBG002625669	HOV 5 11/01/21 144A	HOV 5 11/01/21			No further information
BBEC	I	2012/12/19	2012/12/19	24134	2235199	392018			2012/11/04			BBG00182V6R7	BBG00182V6R7	BACR 3.25 11/04/25 MTN	BACR 3.5 11/04/25 MTN			No further information
BBEC	I	2012/12/19	2012/12/19	24161	2475566	440529			2012/11/05			BBG001K1BRZ2	BBG001K1BRZ2	WMI 4.6 03/01/21	WM 4.6 03/01/21			No further information
BBEC	I	2012/12/19	2012/12/19	24164	3756268	403236			2012/11/05			BBG003FDH3Y6	BBG003FDH3Y6	CHAPAR 7.625 11/15/22 WI	CHAPAR 7.625 11/15/22			No further information
BBEC	I	2012/12/19	2012/12/19	24185	1331221	379009			2012/11/05			BBG0009540V9	BBG0009540V9	LYO 9.8 02/01/20	LYB 9.8 02/01/20			No further information
BBEC	I	2012/12/19	2012/12/19	24186	273895	423847			2012/11/05			BBG00095D290	BBG00095D290	LYO 7.55 02/15/26	LYB 7.55 02/15/26			No further information
BBEC	I	2012/12/19	2012/12/19	24187	1072826	405902			2012/11/05			BBG00003BWP2	BBG00003BWP2	WMI 7.1 08/01/26	WM 7.1 08/01/26			No further information
BBEC	I	2012/12/19	2012/12/19	24189	1072038	408092			2012/11/05			BBG000068042	BBG000068042	WMI 7 07/15/28	WM 7 07/15/28			No further information
BBEC	I	2012/12/19	2012/12/19	24190	991042	407464			2012/11/05			BBG00005F6L4	BBG00005F6L4	WMI 7.375 05/15/29	WM 7.375 05/15/29			No further information
BBEC	I	2012/12/19	2012/12/19	24191	1545057	417441			2012/11/05			BBG00063KQ60	BBG00063KQ60	WMI 7.75 05/15/32 144A	WM 7.75 05/15/32 144A			No further information
BBEC	I	2012/12/19	2012/12/19	24193	991976	406147			2012/11/05			BBG00003R173	BBG00003R173	WMI 7.75 05/15/32	WM 7.75 05/15/32			No further information
BBEC	I	2012/12/19	2012/12/19	24194	1116391	419354			2012/11/05			BBG0007XSMD6	BBG0007XSMD6	LYO 4 11/15/23 144A	LYB 4 11/15/23 144A			No further information
BBEC	I	2012/12/19	2012/12/19	24198	843116	414195			2012/11/05			BBG0000L10Y3	BBG0000L10Y3	WMI 6.1 03/15/18	WM 6.1 03/15/18			No further information
BBEC	I	2012/12/19	2012/12/19	24201	1674386	415207			2012/11/05			BBG0000Q8XC7	BBG0000Q8XC7	WMI 6.125 11/30/39	WM 6.125 11/30/39			No further information
BBEC	I	2012/12/19	2012/12/19	24202	1946357	412080			2012/11/05			BBG0000DG360	BBG0000DG360	WMI 4.75 06/30/20	WM 4.75 06/30/20			No further information
BBEC	I	2012/12/19	2012/12/19	24204	3897704	444574			2012/11/05			BBG003C76S60	BBG003C76S60	WMI 2.9 09/15/22	WM 2.9 09/15/22			No further information
BBEC	I	2012/12/19	2012/12/19	24206	2240692	391967			2012/11/06			BBG0017Z5300	BBG0017Z5300	GS V5 10/29/20 5555	GS V0 10/29/20 5555			No further information
BBEC	I	2012/12/19	2012/12/19	24209	965615	405756			2012/11/06			BBG000034613	BBG000034613	WM 5.95 05/20/13 BKNT	WAMU 5.95 05/20/13 BKNT			No further information
BBEC	I	2012/12/19	2012/12/19	24211	2236206	391987			2012/11/06			BBG001817D64	BBG001817D64	C V6.2 11/04/20 MTN	C V0 11/04/20 MTn			No further information
BBEC	I	2012/12/19	2012/12/19	24212	3279290	442445			2012/11/06			BBG0027Y0ZM1	BBG0027Y0ZM1	TTWO 1.75 12/01/16 144A	TTWO 1.75 12/01/16			No further information
BBEC	I	2012/12/19	2012/12/19	24248	732611	408196			2012/11/06			BBG00006DNJ0	BBG00006DNJ0	WM 5.5 01/15/13	WAMU 5.5 01/15/13			No further information
BBEC	I	2012/12/19	2012/12/19	24253	443688	407372			2012/11/06			BBG00005B0G7	BBG00005B0G7	WM 4.625 04/01/14	WAMU 4.625 04/01/14			No further information
BBEC	I	2012/12/19	2012/12/19	24254	969498	410342			2012/11/06			BBG000097216	BBG000097216	WM 5.65 08/15/14	WAMU 5.65 08/15/14			No further information
BBEC	I	2012/12/19	2012/12/19	24256	429162	410551			2012/11/06			BBG00009J5L4	BBG00009J5L4	WM 5.125 01/15/15	WAMU 5.125 01/15/15			No further information
BBEC	I	2012/12/19	2012/12/19	24257	983651	411224			2012/11/06			BBG0000BK564	BBG0000BK564	WM 5.25 09/15/17	WAMU 5.25 09/15/17			No further information
BBEC	I	2012/12/19	2012/12/19	24265	973929	414166			2012/11/06			BBG0000KYLJ0	BBG0000KYLJ0	WM 7.25 11/01/17	WAMU 7.25 11/01/17			No further information
BBEC	I	2012/12/19	2012/12/19	24279	2236193	391986			2012/11/06			BBG0018179F3	BBG0018179F3	C V5.7 11/04/20 MTN	C V0 11/04/20 MTN			No further information
BBEC	I	2012/12/19	2012/12/19	24280	2240725	392025			2012/11/06			BBG00184QKY0	BBG00184QKY0	GS V4.1 11/01/17 MTN	GS V0 11/01/17 MTN			No further information
BBEC	I	2012/12/19	2012/12/19	24281	2240690	392031			2012/11/06			BBG0018538N1	BBG0018538N1	GS V6 10/29/20 5555	GS V0 10/29/20 ____			No further information
BBEC	I	2012/12/19	2012/12/19	24285	3069630	395675			2012/11/06			BBG00226HPG8	BBG00226HPG8	DJO 9.75 10/15/17	ENMC 9.75 10/15/17			No further information
BBEC	I	2012/12/19	2012/12/19	24322	725444	407932			2012/11/08			BBG000061XT0	BBG000061XT0	EIX 8.137 10/01/19	HOMERC 8.137 10/01/19			No further information
BBEC	I	2012/12/19	2012/12/19	24323	264025	364651			2012/11/08			BBG000062HM1	BBG000062HM1	EIX 8.734 10/01/26	HOMERC 8.734 10/01/26			No further information
BBEC	I	2012/12/19	2012/12/19	24325	1145658	412660			2012/11/08			BBG0000FP8L7	BBG0000FP8L7	WM 6.665 P12/29/49	WAMU 6.665 P12/29/49			No further information
BBEC	I	2012/12/19	2012/12/19	24326	614570	411841			2012/11/08			BBG0000CTJG2	BBG0000CTJG2	WM 6.895 P06/29/49 144A	WAMU 6.895 P06/29/49 144A			No further information
BBEC	I	2012/12/19	2012/12/19	24327	1289110	414125			2012/11/08			BBG0000KS566	BBG0000KS566	WM 9.75 P10/29/49 144A	WAMU 9.75 P10/29/49 144A			No further information
BBEC	I	2012/12/19	2012/12/19	24391	2235221	392136			2012/11/12			BBG0018HM1L1	BBG0018HM1L1	BACR V3 11/09/17 MTN	BACR V0 11/09/17 MTN			No further information
BBEC	I	2012/12/19	2012/12/19	24418	2300769	410057			2012/11/13			BBG00008X521	BBG00008X521	SVEG V7.3 P04/29/49 144A	SVEGNO V7.3 P04/29/49 144A			No further information
BBEC	I	2012/12/19	2012/12/19	24506	3900145	402721			2012/11/15			BBG003C4RCJ5	BBG003C4RCJ5	ANZ 1.875 10/06/17	ANZ 1.875 10/06/17 1234			No further information
BBEC	I	2012/12/19	2012/12/19	24580	3677395	336980			2012/11/16			BBG002QZN762	BBG002QZN762	SRENVX V8.25 P09/01/49 EMTN	SRENVX V8.25 P09/29/49 EMTN			No further information
BBEC	I	2012/12/19	2012/12/19	24612	3918538	449868			2012/11/19			BBG003H6PY90	BBG003H6PY90	HCFBRU 9.375 04/24/20 144A	HCFBRU V9.375 04/24/20 144A			No further information
BBEC	I	2012/12/19	2012/12/19	24614	3908282	444709			2012/11/19			BBG003D8YMW0	BBG003D8YMW0	COLTEL 5.375 09/27/22 144A	TELEFO 5.375 09/27/22 144A			No further information
BBEC	I	2012/12/19	2012/12/19	24658	3905069	444748			2012/11/19			BBG003DL64S7	BBG003DL64S7	COLTEL 5.375 09/27/22 REGS	TELEFO 5.375 09/27/22 REGS			No further information
BBEC	I	2012/12/19	2012/12/19	24662	2281757	392244			2012/11/19			BBG0018SKQM3	BBG0018SKQM3	C V5.25 11/15/20 MTN	C V0 11/15/20 MTN			No further information
BBEC	I	2012/12/19	2012/12/19	24693	3908523	403256			2012/11/21			BBG003FJ93Y2	BBG003FJ93Y2	BANCOL 5.125 09/11/22 REGS	BCOLO 5.125 09/11/22 REGS			No further information
BBEC	I	2012/12/19	2012/12/19	24694	3916264	448487			2012/11/21			BBG003H6R9C9	BBG003H6R9C9	BANCOL 5.125 09/11/22 REGs	BCOLO 5.125 09/11/22 REGs			No further information
BBEC	I	2012/12/19	2012/12/19	24699	3908525	403254			2012/11/21			BBG003FJ3TZ0	BBG003FJ3TZ0	BANCOL 5.125 09/11/22 144A	BCOLO 5.125 09/11/22 144A			No further information
BBEC	I	2012/12/19	2012/12/19	24721	640650	367567			2012/11/21			BBG0000BC153	BBG0000BC153	BANCOL 6.875 05/25/17	BCOLO 6.875 05/25/17			No further information
BBEC	I	2012/12/19	2012/12/19	24722	2025480	369686			2012/11/21			BBG0000HYKD5	BBG0000HYKD5	BANCOL 6.125 07/26/20	BCOLO 6.125 07/26/20			No further information
BBEC	I	2012/12/19	2012/12/19	24725	2719023	394585			2012/11/21			BBG001Q9N3J7	BBG001Q9N3J7	BANCOL 5.95 06/03/21 144A	BCOLO 5.95 06/03/21 144A			No further information
BBEC	I	2012/12/19	2012/12/19	24726	2719009	394595			2012/11/21			BBG001QB8QP1	BBG001QB8QP1	BANCOL 5.95 06/03/21 REGS	BCOLO 5.95 06/03/21 REGS			No further information
BBEC	I	2012/12/19	2012/12/19	24728	3105790	395799			2012/11/21			BBG0022V6BX7	BBG0022V6BX7	BANCOL 5.95 06/03/21	BCOLO 5.95 06/03/21			No further information
BBEC	I	2012/12/19	2012/12/19	24729	3897010	402720			2012/11/21			BBG003C4QG34	BBG003C4QG34	BANCOL 5.125 09/11/22	BCOLO 5.125 09/11/22			No further information
BBEC	I	2012/12/19	2012/12/19	24816	3280750	332020			2012/11/22			BBG002809BY5	BBG002809BY5	ADCB 4.071 11/22/16	ADCBUH 4.071 11/22/16			No further information
BBEC	I	2012/12/19	2012/12/19	24969	2280099	392272			2012/11/26			BBG0018VHML0	BBG0018VHML0	BAC V6.375 11/19/20 MTN	BAC V0 11/19/20 MTn			No further information
BBEC	I	2012/12/19	2012/12/19	25055	551662	286075			2012/11/29			BBG0000GXSD1	BBG0000GXSD1	GAZPRU 6.51 03/07/22 REGs	GAZPRU 6.51 03/07/22 REGS			No further information
BBEC	I	2012/12/19	2012/12/19	25074	590196	288285			2012/11/29			BBG0000HSC68	BBG0000HSC68	LIFUNG 5.5 05/16/17	LIFUNG 5.5 05/16/17 REGS			No further information
BBEC	I	2012/12/19	2012/12/19	25133	2144410	391831			2012/11/30			BBG0017689C5	BBG0017689C5	DELSOL 5 06/01/20 144A	DELSOL 6 06/01/20 144A			No further information
BBEC	I	2012/12/19	2012/12/19	25134	2170416	391832			2012/11/30			BBG0017689L5	BBG0017689L5	DELSOL 5 06/01/20 REGS	DELSOL 6 06/01/20 REGS			No further information
BBEC	I	2012/12/20	2012/12/20	25235	1108238	367795			2012/12/03			BBG0000BRK37	BBG0000BRK37	CCRT 5.875 11/30/35	ATLC 5.875 11/30/35			No further information
BBEC	I	2012/12/20	2012/12/20	25267	1231095	367782			2012/12/03			BBG0000BQPZ2	BBG0000BQPZ2	CCRT 5.875 11/30/35 144A	ATLC 5.875 11/30/35 144A			No further information
BBEC	I	2012/12/20	2012/12/20	25312	2278637	392290			2012/12/05			BBG0018YXX23	BBG0018YXX23	BAC V6 11/30/20 MTN	BAC V0 11/30/20 MTN			No further information
BBEC	I	2012/12/20	2012/12/20	25320	2468168	440171			2012/12/06			BBG001D14M52	BBG001D14M52	RY F 11/06/13 MTN	RY F 01/06/14 MTN			No further information
BBEC	I	2012/12/20	2012/12/20	25335	1550621	361417			2012/12/06			BBG00000KW69	BBG00000KW69	GS V0 06/01/43	GS F 06/01/43			No further information
BBEC	I	2012/12/20	2012/12/20	25382	1114264	406665			2012/12/09			BBG00004G6P2	BBG00004G6P2	UBS 7.375 06/15/17	UBS 7.375 06/15/17 MTN			No further information
BBEC	I	2012/12/20	2012/12/20	25417	2280210	392281			2012/12/10			BBG0018YTLK4	BBG0018YTLK4	BACR V4 11/30/20 +MTN	BACR V0 11/30/20 +MTN			No further information
BBEC	I	2012/12/20	2012/12/20	25433	973303	369834			2012/12/10			BBG0000JF313	BBG0000JF313	CBE 6.1 07/01/17	ETN 6.1 07/01/17			No further information
BBEC	I	2012/12/20	2012/12/20	25437	2244495	392525			2012/12/10			BBG0019VG591	BBG0019VG591	CBE 3.875 12/15/20	ETN 3.875 12/15/20			No further information
BBEC	I	2012/12/20	2012/12/20	25484	2431758	415105			2012/12/13			BBG0000PRBJ9	BBG0000PRBJ9	TFONY 5.5 11/15/19 REGS	AMXLMM 5.5 11/15/19 REGS			No further information
BBEC	I	2012/12/20	2012/12/20	25517	2431748	415096			2012/12/13			BBG0000PR110	BBG0000PR110	TFONY 5.5 11/15/19 144A	AMXLMM 5.5 11/15/19 144A			No further information
BBEC	I	2012/12/20	2012/12/20	25518	2364570	413906			2012/12/13			BBG0000K2D76	BBG0000K2D76	TFONY 5.5 11/15/19	AMXLMM 5.5 11/15/19			No further information
BBEC	I	2012/12/20	2012/12/20	25558	2291446	439985			2012/12/16			BBG0019YWPN7	BBG0019YWPN7	NAB 4.375 12/10/20 144A	NAB 4.376 12/10/20 144A			No further information
BBEC	I	2012/12/20	2012/12/20	25559	2290822	439997			2012/12/16			BBG0019ZWYH2	BBG0019ZWYH2	NAB 4.375 12/10/20 REGS	NAB 4.376 12/10/20 REGS			No further information
BBEC	I	2012/12/20	2012/12/20	25636	1919518	370241			2012/12/17			BBG0000KN4D6	BBG0000KN4D6	BACR V4.5 02/08/17 MTN	BACR V0 02/08/17 MTN			No further information
BBEC	I	2012/12/20	2012/12/20	25651	3930084	456696			2012/12/17			BBG003M022M7	BBG003M022M7	ZKM 7.125 11/13/19 144A	ZHAIK 7.125 11/13/19 144A			No further information
BBEC	I	2012/12/20	2012/12/20	25679	2742003	393729			2012/12/17			BBG001KY09X4	BBG001KY09X4	BAC V4.75 03/31/21 MTN	BAC V0 03/31/21 MTN			No further information
BBEC	I	2012/12/20	2012/12/20	25683	3896855	399878			2012/12/17			BBG002XRK0Q8	BBG002XRK0Q8	BAC V11.25 05/04/32 MTN	BAC V0 05/04/32 MTN			No further information
BBEC	I	2012/12/20	2012/12/20	25703	3291729	441919			2012/12/18			BBG001YKGK76	BBG001YKGK76	WSTP V3.5 04/21/17 REGS	WSTP V0 04/21/17 REGS			No further information
BBEC	I	2012/12/20	2012/12/20	25791	3891790	444036			2012/12/18			BBG0034YCG69	BBG0034YCG69	LLOYDS V7 06/29/32 MTN	LLOYDS V0 06/29/32 MTN			No further information
BBEC	I	2012/12/20	2012/12/20	25855	1296667	419027			2012/12/18			BBG0007L3DJ3	BBG0007L3DJ3	GEN 9.125 06/30/17 144A	NRG 9.125 06/30/17 144A			No further information
BBEC	I	2012/12/20	2012/12/20	25858	1333138	417305			2012/12/18			BBG0005NYZR9	BBG0005NYZR9	GEN 9.125 05/01/31 144A	NRG 9.125 05/01/31 144A			No further information
BBEC	I	2012/12/20	2012/12/20	25859	1333140	417306			2012/12/18			BBG0005NYZX2	BBG0005NYZX2	GEN 9.125 05/01/31 REGS	NRG 9.125 05/01/31 REGS			No further information
BBEC	I	2012/12/20	2012/12/20	25860	2335369	408434			2012/12/18			BBG00006RNT4	BBG00006RNT4	GEN 10.06 12/30/28 C	NRG 10.06 12/30/28 C			No further information
BBEC	I	2012/12/20	2012/12/20	25861	990743	408274			2012/12/18			BBG00006J059	BBG00006J059	GEN 9.125 05/01/31	NRG 9.125 05/01/31			No further information
BBEC	I	2012/12/20	2012/12/20	25862	1357483	417377			2012/12/18			BBG0005Y30B3	BBG0005Y30B3	GEN 8.5 10/01/21 144A	NRG 8.5 10/01/21 144A			No further information
BBEC	I	2012/12/20	2012/12/20	25863	988541	407006			2012/12/18			BBG00004WLG1	BBG00004WLG1	GEN 8.5 10/01/21	NRG 8.5 10/01/21			No further information
BBEC	I	2012/12/20	2012/12/20	25867	1291134	412873			2012/12/18			BBG0000GD3B0	BBG0000GD3B0	KMB 4.028 12/19/12 144A	KMB 4.215 12/19/13 144A			No further information
BBEC	I	2012/12/20	2012/12/20	25905	839550	413196			2012/12/19			BBG0000H5NL2	BBG0000H5NL2	MS 6.625 04/01/18 MTN	MS 6.625 04/01/18 GMTN			No further information
BBEC	I	2012/12/20	2012/12/20	25907	2274385	414631			2012/12/19			BBG0000MQ3V1	BBG0000MQ3V1	VTCN 5.95 08/01/20 144A	GLENLN 5.95 08/01/20 144A			No further information
BBEC	I	2012/12/20	2012/12/20	25908	2035598	414681			2012/12/19			BBG0000MZ7N1	BBG0000MZ7N1	VTCN 5.95 08/01/20 REGS	GLENLN 5.95 08/01/20 REGS			No further information
BBEC	I	2012/12/20	2012/12/20	25911	3131901	394629			2012/12/19			BBG001QG7176	BBG001QG7176	BAC V5 06/16/23 MTN	BAC V0 06/16/23 MTN			No further information
BBEC	I	2012/12/20	2012/12/20	25915	3602124	442630			2012/12/19			BBG0029STRZ5	BBG0029STRZ5	WFC V2 12/16/16 MTN	WFC V0 12/16/16 MTN			No further information
BBEC	I	2012/12/21	2012/12/21	25981	2290822	439997			2012/12/20			BBG0019ZWYH2	BBG0019ZWYH2	NAB 4.376 12/10/20 REGS	NAB 4.375 12/10/20 REGS			No further information
BBEC	I	2012/12/21	2012/12/21	26033	3797592	443786			2012/12/20			BBG002Z5HFX7	BBG002Z5HFX7	MRX 1.375 06/01/17	VRXCN 1.375 06/01/17			No further information
BBEC	I	2012/12/24	2012/12/24	26091	2291446	439985			2012/12/21			BBG0019YWPN7	BBG0019YWPN7	NAB 4.376 12/10/20 144A	NAB 4.375 12/10/20 144A			No further information
BBEC	I	2012/12/24	2012/12/24	26130	1296667	419027			2012/12/21			BBG0007L3DJ3	BBG0007L3DJ3	NRG 9.125 06/30/17 144A	GEN 9.125 06/30/17 144A			No further information
BBEC	I	2012/12/24	2012/12/24	26133	1333138	417305			2012/12/21			BBG0005NYZR9	BBG0005NYZR9	NRG 9.125 05/01/31 144A	GEN 9.125 05/01/31 144A			No further information
BBEC	I	2012/12/24	2012/12/24	26134	1333140	417306			2012/12/21			BBG0005NYZX2	BBG0005NYZX2	NRG 9.125 05/01/31 REGS	GEN 9.125 05/01/31 REGS			No further information
BBEC	I	2012/12/24	2012/12/24	26135	2335369	408434			2012/12/21			BBG00006RNT4	BBG00006RNT4	NRG 10.06 12/30/28 C	GEN 10.06 12/30/28 C			No further information
BBEC	I	2012/12/24	2012/12/24	26136	990743	408274			2012/12/21			BBG00006J059	BBG00006J059	NRG 9.125 05/01/31	GEN 9.125 05/01/31			No further information
BBEC	I	2012/12/24	2012/12/24	26137	1357483	417377			2012/12/21			BBG0005Y30B3	BBG0005Y30B3	NRG 8.5 10/01/21 144A	GEN 8.5 10/01/21 144A			No further information
BBEC	I	2012/12/24	2012/12/24	26138	988541	407006			2012/12/21			BBG00004WLG1	BBG00004WLG1	NRG 8.5 10/01/21	GEN 8.5 10/01/21			No further information
BBEC	I	2012/12/24	2012/12/24	26141	972150	410214			2012/12/21			BBG000092QD5	BBG000092QD5	OC 6.5 12/01/16	OC V6.5 12/01/16			No further information
BBEC	I	2012/12/24	2012/12/24	26142	1078385	410521			2012/12/21			BBG00009H821	BBG00009H821	OC 7 12/01/36	OC V7 12/01/36			No further information
BBEC	I	2012/12/24	2012/12/24	26178	1119144	413157			2012/12/23			BBG0000H4HG2	BBG0000H4HG2	EPB 5.9 04/01/17 144A	EPB V5.9 04/01/17 144A			No further information
BBEC	I	2012/12/24	2012/12/24	26179	1332781	413177			2012/12/23			BBG0000H4QG2	BBG0000H4QG2	EPB 5.9 04/01/17 REGS	EPB V5.9 04/01/17 REGS			No further information
BBEC	I	2012/12/26	2012/12/26	26243	3648595	397185			2012/12/24			BBG0029SDH39	BBG0029SDH39	BACR V5 12/23/18 MTN	BACR V0 12/23/18 MTN			No further information
BBEC	I	2012/12/26	2012/12/26	26251	658540	347555			2012/12/24			BBG0000BZ9T5	BBG0000BZ9T5	JPM V5.058 02/22/21 MTN	JPM V5.058 02/22/21			No further information
BBEC	I	2012/12/26	2012/12/26	26254	972150	410214			2012/12/24			BBG000092QD5	BBG000092QD5	OC V6.5 12/01/16	OC 6.5 12/01/16			No further information
BBEC	I	2012/12/26	2012/12/26	26256	2994113	414600			2012/12/24			BBG0000MM096	BBG0000MM096	NFREGY 9.75 02/15/17 144a	NFREGY 9.75 02/15/17			No further information
BBEC	I	2012/12/26	2012/12/26	26258	2427293	392736			2012/12/24			BBG001BW5SK5	BBG001BW5SK5	GS V6.25 12/22/20 MTN	GS V0 12/22/20 MTN			No further information
BBEC	I	2012/12/27	2012/12/27	26291	718374	405494			2012/12/26			BBG00002P8Z1	BBG00002P8Z1	HCR 1.875 08/01/35 REGS	HCR 1.875 08/01/35			No further information
BBEC	I	2012/12/27	2012/12/27	26293	1119144	413157			2012/12/26			BBG0000H4HG2	BBG0000H4HG2	EPB V5.9 04/01/17 144A	EPB 5.9 04/01/17 144A			No further information
BBEC	I	2012/12/27	2012/12/27	26294	1332781	413177			2012/12/26			BBG0000H4QG2	BBG0000H4QG2	EPB V5.9 04/01/17 REGS	EPB 5.9 04/01/17 REGS			No further information
BBEC	I	2012/12/27	2012/12/27	26295	1078385	410521			2012/12/26			BBG00009H821	BBG00009H821	OC V7 12/01/36	OC 7 12/01/36			No further information
BBEC	I	2012/12/27	2012/12/27	26296	1471263	422595			2012/12/26			BBG0008WVB29	BBG0008WVB29	RA 9.25 07/01/17 144A	GWR 9.25 07/01/17 144A			No further information
BBEC	I	2012/12/27	2012/12/27	26297	1753095	422596			2012/12/26			BBG0008WVB47	BBG0008WVB47	RA 9.25 07/01/17 REGS	GWR 9.25 07/01/17 REGS			No further information
BBEC	I	2012/12/27	2012/12/27	26298	1978195	412724			2012/12/26			BBG0000FYXC2	BBG0000FYXC2	PRU 5.375 06/21/20	PRU 5.375 06/21/20 MTN			No further information
BBEC	I	2012/12/27	2012/12/27	26299	2033994	414111			2012/12/26			BBG0000KQJH6	BBG0000KQJH6	MCD 3.5 07/15/20	MCD 3.5 07/15/20 MTN			No further information
BBEC	I	2012/12/28	2012/12/28	26343	2118926	316564			2012/12/27			BBG00165MD97	BBG00165MD97	SBERRU 5.4 03/24/17	SBERRU 5.4 03/24/17 EMTN			No further information
BBEC	I	2012/12/28	2012/12/28	26366	2684111	361870			2012/12/27			BBG00001H016	BBG00001H016	AUGX 9.25 10/15/26	AUGX 9.25 10/15/26 144A			No further information
BBEC	I	2012/12/28	2012/12/28	26367	974122	411700			2012/12/27			BBG0000CF6F6	BBG0000CF6F6	LUPA 9.875 P07/29/49 144A	LUPABZ 9.875 P07/29/49 144A			No further information
BBEC	I	2012/12/28	2012/12/28	26370	2868436	405114			2012/12/27			BBG00001Y2T3	BBG00001Y2T3	REEDLN 6.625 10/15/23	REEDLN 6.625 10/15/23 144A			No further information
BBEC	I	2012/12/28	2012/12/28	26372	1125903	404532			2012/12/27			BBG00000XS37	BBG00000XS37	MFCCN 7.375 02/15/24	MFCCN 7.375 02/15/24 144A			No further information
BBEC	I	2012/12/28	2012/12/28	26373	2843145	404585			2012/12/27			BBG00000ZGY7	BBG00000ZGY7	MASSMU 7.5 03/01/24	MASSMU 7.5 03/01/24 144A			No further information
BBEC	I	2012/12/28	2012/12/28	26376	715318	362604			2012/12/27			BBG0000349Q0	BBG0000349Q0	CARGIL 7.375 10/01/25	CARGIL 7.375 10/01/25 144A			No further information
BBEC	I	2012/12/28	2012/12/28	26378	3669037	362428			2012/12/27			BBG00002TJK9	BBG00002TJK9	BROOK 9.83 09/11/18	BROOK 9.83 09/11/18 144A			No further information
BBEC	I	2012/12/28	2012/12/28	26379	1118454	361269			2012/12/27			BBG00000DFY3	BBG00000DFY3	CARGIL 6.875 02/01/36	CARGIL 6.875 02/01/36 144A			No further information
BBEC	I	2012/12/28	2012/12/28	26380	1125548	361801			2012/12/27			BBG000018RH0	BBG000018RH0	COLPLN 7.63 04/15/32	COLPLN 7.63 04/15/32 144A			No further information
BBEC	I	2012/12/28	2012/12/28	26382	3228802	410589			2012/12/27			BBG00009K818	BBG00009K818	SAVAGE 8.75 12/15/18	SAVAGE 8.75 12/15/18 144A			No further information
BBEC	I	2012/12/28	2012/12/28	26385	757933	413386			2012/12/27			BBG0000HM4X2	BBG0000HM4X2	MS 10.09 05/03/17	MS 10.09 05/03/17 144A			No further information
BBEC	I	2012/12/28	2012/12/28	26386	3880031	370454			2012/12/27			BBG0000L84V1	BBG0000L84V1	T 0 11/27/22	T 0 11/27/22 144A			No further information
BBEC	I	2012/12/28	2012/12/28	26387	1761329	415460			2012/12/27			BBG0000SKCC5	BBG0000SKCC5	POR 5.81 10/01/37	POR 5.81 10/01/37 144a			No further information
BBEC	I	2012/12/28	2012/12/28	26424	3933662	456402			2012/12/27			BBG003MMJT06	BBG003MMJT06	GE 1.6 11/20/17	GE 1.6 11/20/17 GMTN			No further information
BBEC	I	2012/12/31	2012/12/31	26450	2970115	439982			2012/12/28			BBG0019WXP87	BBG0019WXP87	NAB 5.05 12/16/30	NAB 5.05 12/16/30 144A			No further information
BBEC	I	2012/12/31	2012/12/31	26489	1288080	367638			2012/12/28			BBG0000BH8H0	BBG0000BH8H0	BACR V0 02/03/26	BACR V0 02/03/26 144A			No further information
BBEC	I	2012/12/31	2012/12/31	26501	2887714	369760			2012/12/28			BBG0000J6F43	BBG0000J6F43	CORSJY F 12/20/20	CORSJY F 12/20/20 144A			No further information
BBEC	I	2012/12/31	2012/12/31	26512	821782	412031			2012/12/28			BBG0000DB0R8	BBG0000DB0R8	STLNO 7.875 12/09/22	STLNO 7.875 12/09/22 144A			No further information
BBEC	I	2012/12/31	2012/12/31	26528	3628352	335751			2012/12/28			BBG002QLCY48	BBG002QLCY48	RBS V9.5 03/16/22 EMTN	RBS V9.5 03/16/22 REGS			No further information
BBEC	I	2012/12/31	2012/12/31	26542	2027765	414289			2012/12/28			BBG0000L9XY3	BBG0000L9XY3	MS 5.5 07/24/20	MS 5.5 07/24/20 GMTN			No further information
BBEC	I	2012/12/31	2012/12/31	26641	2745567	393721			2012/12/30			BBG001KWQKM7	BBG001KWQKM7	BACR V5.5 06/20/16	BACR V5.5 06/20/16 144A			No further information
BBEC	I	2012/12/31	2012/12/31	26654	3859881	415659			2012/12/30			BBG0000W5KW3	BBG0000W5KW3	MASHER 9.85 12/31/18 144a	MASHER 8 12/31/18 144a			No further information
BBEC	I	2012/12/31	2012/12/31	26655	1924653	415660			2012/12/30			BBG0000W5MM0	BBG0000W5MM0	MASHER 9.85 12/31/18 REGs	MASHER 8 12/31/18 REGs			No further information
BBEC	I	2013/01/02	2013/01/02	26682	239020	270890			2012/12/31			BBG00003BGB2	BBG00003BGB2	WESTLB 8 P04/29/49	PORTIG 8 P04/29/49			No further information
BBEC	I	2013/01/02	2013/01/02	26699	2336437	392608			2012/12/31			BBG001B0YQG2	BBG001B0YQG2	BACR V5 12/30/20 MTN	BACR V0 12/30/20 MTN			No further information
BBEC	I	2013/01/04	2013/01/04	26846	2125871	439323			2013/01/03			BBG00164RG70	BBG00164RG70	RBS V5 09/28/18 MTN	RBS V0 09/28/18 MTN			No further information
BBEC	I	2013/01/04	2013/01/04	26855	3929050	455414			2013/01/03			BBG003M2CFM3	BBG003M2CFM3	ABT 1.75 11/06/17 144A	ABBV 1.75 11/06/17 144A			No further information
BBEC	I	2013/01/04	2013/01/04	26856	3929014	455415			2013/01/03			BBG003M2CJC6	BBG003M2CJC6	ABT 2.9 11/06/22 144A	ABBV 2.9 11/06/22 144A			No further information
BBEC	I	2013/01/04	2013/01/04	26857	3929041	455416			2013/01/03			BBG003M2CPC2	BBG003M2CPC2	ABT 4.4 11/06/42 144A	ABBV 4.4 11/06/42 144A			No further information
BBEC	I	2013/01/04	2013/01/04	26859	3930297	455418			2013/01/03			BBG003M2Y3X4	BBG003M2Y3X4	ABT 2 11/06/18 144A	ABBV 2 11/06/18 144A			No further information
BBEC	I	2013/01/04	2013/01/04	26860	3929073	456714			2013/01/03			BBG003M3W9F1	BBG003M3W9F1	ABT 4.4 11/06/42 REGS	ABBV 4.4 11/06/42 REGS			No further information
BBEC	I	2013/01/04	2013/01/04	26861	3929070	456713			2013/01/03			BBG003M3X7K8	BBG003M3X7K8	ABT 2.9 11/06/22 REGS	ABBV 2.9 11/06/22 REGS			No further information
BBEC	I	2013/01/04	2013/01/04	26863	3929065	456712			2013/01/03			BBG003M3XGJ0	BBG003M3XGJ0	ABT 1.75 11/06/17 REGS	ABBV 1.75 11/06/17 REGS			No further information
BBEC	I	2013/01/08	2013/01/08	27028	3228694	331522			2013/01/07			BBG0027BP3T8	BBG0027BP3T8	INTPET 5.5 03/01/22 REGs	INTPET 5.5 03/01/22 REGS			No further information
BBEC	I	2013/01/08	2013/01/08	27031	2468168	440171			2013/01/07			BBG001D14M52	BBG001D14M52	RY F 01/06/14 MTN	RY F 02/06/14 MTN			No further information
BBEC	I	2013/01/14	2013/01/14	27253	3471201	397676			2013/01/11			BBG002CZ2BL4	BBG002CZ2BL4	AMRN 3.5 01/15/32 144A	AMRN 3.5 01/15/32			No further information
BBEC	I	2013/01/17	2013/01/17	27438	1289242	412442			2013/01/16			BBG0000F5S71	BBG0000F5S71	MBI V14 01/15/33 144A	MBI V0 01/15/33 144A			No further information
BBEC	I	2013/01/17	2013/01/17	27439	1460621	412443			2013/01/16			BBG0000F5W09	BBG0000F5W09	MBI V14 01/15/33 REGS	MBI V0 01/15/33 REGS			No further information
BBEC	I	2013/01/17	2013/01/17	27443	3102264	394985			2013/01/16			BBG001V98FY4	BBG001V98FY4	BAC V5.5 07/14/23 MTN	BAC V0 07/14/23 MTN			No further information
BBEC	I	2013/01/23	2013/01/23	27727	3950521	464455			2013/01/22			BBG003NBDFM1	BBG003NBDFM1	PSX 2.95 05/01/17 WI	PSX 2.95 05/01/17			No further information
BBEC	I	2013/01/23	2013/01/23	27728	3950540	464452			2013/01/22			BBG003NBDH65	BBG003NBDH65	PSX 4.3 04/01/22 WI	PSX 4.3 04/01/22			No further information
BBEC	I	2013/01/23	2013/01/23	27729	3950573	464454			2013/01/22			BBG003NBDJM3	BBG003NBDJM3	PSX 5.875 05/01/42 WI	PSX 5.875 05/01/42			No further information
BBEC	I	2013/01/24	2013/01/24	27757	3403205	397474			2013/01/23			BBG002BJBT96	BBG002BJBT96	AFSI 5.5 12/15/21 144A	AFSI 5.5 12/15/21			No further information
BBEC	I	2013/01/25	2013/01/25	27830	1124753	422189			2013/01/24			BBG0008QF3W5	BBG0008QF3W5	WPI 1.75 03/15/23 144A	ACT 1.75 03/15/23 144A			No further information
BBEC	I	2013/01/25	2013/01/25	27833	1548292	414469			2013/01/24			BBG0000LY022	BBG0000LY022	WPI 6.125 08/15/19	ACT 6.125 08/15/19			No further information
BBEC	I	2013/01/25	2013/01/25	27843	3628260	397889			2013/01/24			BBG002DKQG75	BBG002DKQG75	BMO V2 01/24/19 MTN	BMO V0 01/24/19 MTN			No further information
BBEC	I	2013/01/25	2013/01/25	27845	3909280	444779			2013/01/24			BBG003FS9KC8	BBG003FS9KC8	WPI 1.875 10/01/17	ACT 1.875 10/01/17			No further information
BBEC	I	2013/01/25	2013/01/25	27846	3909284	444780			2013/01/24			BBG003FSBQH7	BBG003FSBQH7	WPI 3.25 10/01/22	ACT 3.25 10/01/22			No further information
BBEC	I	2013/01/25	2013/01/25	27847	3909599	444781			2013/01/24			BBG003FSBTB7	BBG003FSBTB7	WPI 4.625 10/01/42	ACT 4.625 10/01/42			No further information
BBEC	I	2013/01/28	2013/01/28	27906	1115500	367320			2013/01/25			BBG00009YWQ3	BBG00009YWQ3	GE 5.869 03/30/25 144A	CROCOG 5.869 03/30/25 144A			No further information
BBEC	I	2013/01/29	2013/01/29	28000	3966863	465681			2013/01/28			BBG003TVKSK7	BBG003TVKSK7	GUAINV 4.5 01/24/23	YUEXIU 4.5 01/24/23			No further information
BBEC	I	2013/01/29	2013/01/29	28021	3859881	415659			2013/01/28			BBG0000W5KW3	BBG0000W5KW3	MASHER 8 12/31/18 144a	MASHER 9 12/31/18 144a			No further information
BBEC	I	2013/01/29	2013/01/29	28022	1924653	415660			2013/01/28			BBG0000W5MM0	BBG0000W5MM0	MASHER 8 12/31/18 REGs	MASHER 9 12/31/18 REGs			No further information
BBEC	I	2013/01/29	2013/01/29	28025	2037058	406082			2013/01/28			BBG00003NMP1	BBG00003NMP1	MASSIN 7.125 11/02/26	MASSIN 7.125 11/02/26 MTN			No further information
BBEC	I	2013/01/29	2013/01/29	28030	984667	413907			2013/01/28			BBG0000K2G24	BBG0000K2G24	BAC 6.4 08/28/17	BAC 6.4 08/28/17 GMTN			No further information
BBEC	I	2013/01/29	2013/01/29	28031	977953	413925			2013/01/28			BBG0000K56S5	BBG0000K56S5	MCD 5.8 10/15/17	MCD 5.8 10/15/17 GMTN			No further information
BBEC	I	2013/01/29	2013/01/29	28032	1110122	361482			2013/01/28			BBG00000NV31	BBG00000NV31	GE V6.375 11/15/67	GE V6.375 11/15/67 GMTN			No further information
BBEC	I	2013/01/29	2013/01/29	28036	838016	362814			2013/01/28			BBG00003DY85	BBG00003DY85	GE 5.625 05/01/18	GE 5.625 05/01/18 GMTN			No further information
BBEC	I	2013/01/29	2013/01/29	28040	1305088	370958			2013/01/28			BBG0000N72L3	BBG0000N72L3	GS 7.5 02/15/19	GS 7.5 02/15/19 GMTN			No further information
BBEC	I	2013/01/29	2013/01/29	28041	1362800	415789			2013/01/28			BBG0000XWS27	BBG0000XWS27	DIS 5.5 03/15/19	DIS 5.5 03/15/19 MTN			No further information
BBEC	I	2013/01/29	2013/01/29	28042	1433145	405240			2013/01/28			BBG000026S97	BBG000026S97	MS 7.3 05/13/19	MS 7.3 05/13/19 GMTN			No further information
BBEC	I	2013/01/29	2013/01/29	28048	1724061	364925			2013/01/28			BBG00006F2Y7	BBG00006F2Y7	GE 5.5 01/08/20	GE 5.5 01/08/20 GMTN			No further information
BBEC	I	2013/01/29	2013/01/29	28053	1811357	368717			2013/01/28			BBG0000F4WB8	BBG0000F4WB8	GS 5.375 03/15/20	GS 5.375 03/15/20 GMTN			No further information
BBEC	I	2013/01/29	2013/01/29	28058	1978199	412749			2013/01/28			BBG0000G1K61	BBG0000G1K61	PRU 6.625 06/21/40	PRU 6.625 06/21/40 MTN			No further information
BBEC	I	2013/01/29	2013/01/29	28061	2357855	392846			2013/01/28			BBG001CWV160	BBG001CWV160	GE 4.625 01/07/21	GE 4.625 01/07/21 GMTN			No further information
BBEC	I	2013/01/29	2013/01/29	28068	3850605	442846			2013/01/28			BBG002DKRF49	BBG002DKRF49	WFC V4 01/27/17 MTN	WFC V0 01/27/17 MTN			No further information
BBEC	I	2013/01/29	2013/01/29	28069	3528350	398359			2013/01/28			BBG002H1MV01	BBG002H1MV01	BAC 5.875 02/07/42	BAC 5.875 02/07/42 MTN			No further information
BBEC	I	2013/01/30	2013/01/30	28101	1289242	412442			2013/01/29			BBG0000F5S71	BBG0000F5S71	MBI V0 01/15/33 144A	MBI 0 01/15/33 144A			No further information
BBEC	I	2013/01/31	2013/01/31	28160	1628664	368921			2013/01/30			BBG0000FNW09	BBG0000FNW09	BANBRA V8.5 P12/29/49 144A	BANBRA V8.5 P12/31/49 144A			No further information
BBEC	I	2013/01/31	2013/01/31	28166	3946400	462112			2013/01/30			BBG0000QZ3D2	BBG0000QZ3D2	RAH 7.29 08/15/18 REGS	CAG 7.29 08/15/18 REGS			No further information
BBEC	I	2013/01/31	2013/01/31	28171	3850529	442868			2013/01/30			BBG002DSCMC4	BBG002DSCMC4	RY V2 01/30/19 MTN	RY V0 01/30/19 MTN			No further information
BBEC	I	2013/02/01	2013/02/01	28230	2480909	393051			2013/01/31			BBG001DQQQL6	BBG001DQQQL6	GS V4.1 01/31/18 MTN	GS V0 01/31/18 MTN			No further information
BBEC	I	2013/02/01	2013/02/01	28235	3498548	442944			2013/01/31			BBG002G8TSR8	BBG002G8TSR8	NGLS 6.375 08/01/22 144A	NGLS 6.375 08/01/22			No further information
BBEC	I	2013/02/04	2013/02/04	28306	562744	367660			2013/02/01			BBG0000BJSK0	BBG0000BJSK0	GAFP 7.75 05/15/17	CGGFP 7.75 05/15/17			No further information
BBEC	I	2013/02/04	2013/02/04	28367	3216067	396332			2013/02/01			BBG00265W154	BBG00265W154	GAFP 6.5 06/01/21	CGGFP 6.5 06/01/21			No further information
BBEC	I	2013/02/04	2013/02/04	28406	1282595	409896			2013/02/01			BBG00008P8H8	BBG00008P8H8	GAFP F 03/15/24 144A	CGGFP F 03/15/24 144A			No further information
BBEC	I	2013/02/06	2013/02/06	28575	3975249	468753			2013/02/05			BBG0043CS395	BBG0043CS395	EMIRAT 4.5 02/28/25 REGS	EMIRAT 4.5 02/06/25 REGS			No further information
BBEC	I	2013/02/06	2013/02/06	28608	1075045	413721			2013/02/05			BBG0000JHP58	BBG0000JHP58	PARHC 6.259 07/01/37 144A	PARHC 6.259 07/01/37			No further information
BBEC	I	2013/02/06	2013/02/06	28612	3897285	444561			2013/02/05			BBG003C5GLZ6	BBG003C5GLZ6	LSTZA 5 09/15/19 144A	STRZA 5 09/15/19 144A			No further information
BBEC	I	2013/02/06	2013/02/06	28613	3897283	444592			2013/02/05			BBG003CDVRV3	BBG003CDVRV3	LSTZA 5 09/15/19 REGS	STRZA 5 09/15/19 REGS			No further information
BBEC	I	2013/02/07	2013/02/07	28665	407901	368238			2013/02/06			BBG0000CWTM9	BBG0000CWTM9	AEIUS 7.6 07/12/21 144A	ELENOR 7.6 07/12/21 144A			No further information
BBEC	I	2013/02/07	2013/02/07	28669	2468168	440171			2013/02/06			BBG001D14M52	BBG001D14M52	RY F 02/06/14 MTN	RY F 03/06/14 MTN			No further information
BBEC	I	2013/02/08	2013/02/08	28713	596460	413417			2013/02/07			BBG0000HPX56	BBG0000HPX56	KZTGKZ 6.375 05/14/17 144A	KZOKZ 6.375 05/14/17 144A			No further information
BBEC	I	2013/02/11	2013/02/11	28756	596460	413417			2013/02/08			BBG0000HPX56	BBG0000HPX56	KZOKZ 6.375 05/14/17 144A	KZTGKZ 6.375 05/14/17 144A			No further information
BBEC	I	2013/02/11	2013/02/11	28781	3963308	466110			2013/02/08			BBG003T54YF5	BBG003T54YF5	QVCN 5.125 07/02/22 WI	QVCN 5.125 07/02/22			No further information
BBEC	I	2013/02/11	2013/02/11	28824	3927225	446459			2013/02/10			BBG003LTRCZ2	BBG003LTRCZ2	LIFUNG V6 P11/29/49 REGS	LIFUNG V6 P11/25/49 REGS			No further information
BBEC	I	2013/02/12	2013/02/12	28860	2674008	441070			2013/02/11			BBG001NNL329	BBG001NNL329	MARFRI 8.375 05/09/18 144A	MRFGBZ 8.375 05/09/18 144A			No further information
BBEC	I	2013/02/12	2013/02/12	28861	2674011	441157			2013/02/11			BBG001P420V4	BBG001P420V4	MARFRI 8.375 05/09/18 REGS	MRFGBZ 8.375 05/09/18 REGS			No further information
BBEC	I	2013/02/12	2013/02/12	28878	811204	412534			2013/02/11			BBG0000FBH50	BBG0000FBH50	MARFRI 9.625 11/16/16 REGS	MRFGBZ 9.625 11/16/16 REGS			No further information
BBEC	I	2013/02/12	2013/02/12	28882	1897824	411562			2013/02/11			BBG0000C47W7	BBG0000C47W7	MARFRI 9.5 05/04/20 144A	MRFGBZ 9.5 05/04/20 144A			No further information
BBEC	I	2013/02/12	2013/02/12	28883	1896168	414403			2013/02/11			BBG0000LLZS1	BBG0000LLZS1	MARFRI 9.5 05/04/20 REGS	MRFGBZ 9.5 05/04/20 REGS			No further information
BBEC	I	2013/02/12	2013/02/12	28891	3968698	467151			2013/02/11			BBG00422MTG9	BBG00422MTG9	CENCHI 8 01/28/20	CENCHI 8 01/28/20 REGS			No further information
BBEC	I	2013/02/12	2013/02/12	28900	3295400	442490			2013/02/11			BBG00284V9L1	BBG00284V9L1	MILEXP 10.5 05/15/16	MLGH 10.5 05/15/16			No further information
BBEC	I	2013/02/13	2013/02/13	29064	523593	170277			2013/02/12			BBG0000GP7F4	BBG0000GP7F4	DEXMA 5.25 02/16/17 EMTN	CAFFIL 5.25 02/16/17 EMTN			No further information
BBEC	I	2013/02/13	2013/02/13	29179	3295400	442490			2013/02/12			BBG00284V9L1	BBG00284V9L1	MLGH 10.5 05/15/16	MILARG 10.5 05/15/16			No further information
BBEC	I	2013/02/15	2013/02/15	29312	989349	404976			2013/02/14			BBG00001N2K4	BBG00001N2K4	LMT 9 01/15/22	LMT 9 01/15/22 MTN			No further information
BBEC	I	2013/02/15	2013/02/15	29316	757933	413386			2013/02/14			BBG0000HM4X2	BBG0000HM4X2	MS 10.09 05/03/17 144A	MS 10.09 05/03/17			No further information
BBEC	I	2013/02/18	2013/02/18	29424	1698576	412857			2013/02/15			BBG0000GCM83	BBG0000GCM83	MMCFND 0 12/15/39 AI	MMCFND 0 12/26/39 AI_			No further information
BBEC	I	2013/02/18	2013/02/18	29426	3980068	471573			2013/02/15			BBG003VMH4M9	BBG003VMH4M9	GLF 6.375 03/15/22 WI	GLF 6.375 03/15/22			No further information
BBEC	I	2013/02/19	2013/02/19	29521	1798136	410862			2013/02/18			BBG00009Z9J1	BBG00009Z9J1	RDAHLD F 02/15/17 144A	RDAHLD 0 02/15/17 144A			No further information
BBEC	I	2013/02/19	2013/02/19	29524	2538121	440461			2013/02/18			BBG001J1CYZ8	BBG001J1CYZ8	RDAHLD F 02/15/17	RDAHLD 0 02/15/17			No further information
BBEC	I	2013/02/20	2013/02/20	29586	3857656	340475			2013/02/19			BBG0034V0B78	BBG0034V0B78	AMOY 4.75 06/25/22 EMTN	HLP 4.75 06/25/22 EMTN			No further information
BBEC	I	2013/02/20	2013/02/20	29594	1288612	418846			2013/02/19			BBG0007FYJH1	BBG0007FYJH1	NEENAH 9.5 01/01/17 144A	NENA 9.5 01/01/17 144A			No further information
BBEC	I	2013/02/20	2013/02/20	29595	977641	424427			2013/02/19			BBG0009BWCG6	BBG0009BWCG6	NEENAH 9.5 01/01/17	NENA 9.5 01/01/17			No further information
BBEC	I	2013/02/20	2013/02/20	29597	1975134	414434			2013/02/19			BBG0000LSQL1	BBG0000LSQL1	RDAHLD F 02/15/17 REGS	RDAHLD 0 02/15/17 REGS			No further information
BBEC	I	2013/02/20	2013/02/20	29599	3737136	393303			2013/02/19			BBG001J085F0	BBG001J085F0	GS V4.5 02/18/21 MTN	GS V0 02/18/21 MTN			No further information
BBEC	I	2013/02/20	2013/02/20	29600	3959217	464181			2013/02/19			BBG001XZM0V4	BBG001XZM0V4	BAC V5 08/15/23 MTN	BAC V0 08/15/23 MTN			No further information
BBEC	I	2013/02/20	2013/02/20	29604	3955978	472278			2013/02/19			BBG0044J8PM7	BBG0044J8PM7	HILCOS 10.875 06/01/18 WI	HILCOS 10.875 06/01/18 REGs			No further information
BBEC	I	2013/02/21	2013/02/21	29653	3543741	333728			2013/02/20			BBG002H3HRW7	BBG002H3HRW7	NWDEVL 6.5 02/09/17	NWSZF 6.5 02/09/17			No further information
BBEC	I	2013/02/21	2013/02/21	29656	3857656	340475			2013/02/20			BBG0034V0B78	BBG0034V0B78	HLP 4.75 06/25/22 EMTN	HNLGF 4.75 06/25/22 EMTN			No further information
BBEC	I	2013/02/21	2013/02/21	29659	2732137	406791			2013/02/20			BBG00004MXX7	BBG00004MXX7	LEH 5.5 10/25/17 CD	NYCB 5.5 10/25/17 CD			No further information
BBEC	I	2013/02/21	2013/02/21	29660	2732133	407187			2013/02/20			BBG000054R03	BBG000054R03	LEH 5.5 12/27/17 CD	NYCB 5.5 12/27/17 CD			No further information
BBEC	I	2013/02/21	2013/02/21	29661	2732128	408887			2013/02/20			BBG00007G194	BBG00007G194	LEH 5.25 04/28/18 CD	NYCB 5.25 04/28/18 CD			No further information
BBEC	I	2013/02/21	2013/02/21	29663	2732120	409202			2013/02/20			BBG00007W8S0	BBG00007W8S0	LEH 5 07/08/23 CD	NYCB 5 07/08/23 CD			No further information
BBEC	I	2013/02/21	2013/02/21	29664	3850504	409235			2013/02/20			BBG00007X4B6	BBG00007X4B6	LEH 5 07/17/18 CD	NYCB 5 07/17/18 CD			No further information
BBEC	I	2013/02/21	2013/02/21	29665	2732117	406144			2013/02/20			BBG00003QX01	BBG00003QX01	LEH 5.25 07/21/23 CD	NYCB 5.25 07/21/23 CD			No further information
BBEC	I	2013/02/21	2013/02/21	29666	2732114	408093			2013/02/20			BBG000068088	BBG000068088	LEH 5.5 07/25/23 CD	NYCB 5.5 07/25/23 CD			No further information
BBEC	I	2013/02/21	2013/02/21	29667	2732111	409255			2013/02/20			BBG00007XPK9	BBG00007XPK9	LEH 5.25 08/01/23 CD	NYCB 5.25 08/01/23 CD			No further information
BBEC	I	2013/02/21	2013/02/21	29668	2732107	409263			2013/02/20			BBG00007XY20	BBG00007XY20	LEH 5.5 08/04/23 CD	NYCB 5.5 08/04/23 CD			No further information
BBEC	I	2013/02/21	2013/02/21	29670	2732104	407193			2013/02/20			BBG000054VD0	BBG000054VD0	LEH 5 04/14/17 CD	NYCB 5 04/14/17 CD			No further information
BBEC	I	2013/02/21	2013/02/21	29671	2732099	408179			2013/02/20			BBG00006CFZ0	BBG00006CFZ0	LEH 6 10/26/24 CD	NYCB 6 10/26/24 CD			No further information
BBEC	I	2013/02/21	2013/02/21	29673	2732092	410558			2013/02/20			BBG00009JK68	BBG00009JK68	LEH 5.5 11/26/19 CD	NYCB 5.5 11/26/19 CD			No further information
BBEC	I	2013/02/21	2013/02/21	29674	2732076	410591			2013/02/20			BBG00009K9K5	BBG00009K9K5	LEH 6 12/03/24 CD	NYCB 6 12/03/24 CD			No further information
BBEC	I	2013/02/21	2013/02/21	29675	2732071	410617			2013/02/20			BBG00009L6J2	BBG00009L6J2	LEH 5.5 12/20/19 CD	NYCB 5.5 12/20/19 CD			No further information
BBEC	I	2013/02/21	2013/02/21	29676	2732064	408062			2013/02/20			BBG000066Y68	BBG000066Y68	LEH 6 12/30/19 CD	NYCB 6 12/30/19 CD			No further information
BBEC	I	2013/02/21	2013/02/21	29678	2732044	406431			2013/02/20			BBG000047119	BBG000047119	LEH 5.75 01/21/25 CD	NYCB 5.75 01/21/25 CD			No further information
BBEC	I	2013/02/21	2013/02/21	29679	2732036	406239			2013/02/20			BBG00003W916	BBG00003W916	LEH 5.5 01/25/20 CD	NYCB 5.5 01/25/20 CD			No further information
BBEC	I	2013/02/21	2013/02/21	29680	2732028	410757			2013/02/20			BBG00009TGL9	BBG00009TGL9	LEH 5.25 08/25/20 CD	NYCB 5.25 08/25/20 CD			No further information
BBEC	I	2013/02/21	2013/02/21	29682	2732015	410984			2013/02/20			BBG0000B6089	BBG0000B6089	LEH 5.25 06/17/20 CD	NYCB 5.25 06/17/20 CD			No further information
BBEC	I	2013/02/21	2013/02/21	29683	2732005	410994			2013/02/20			BBG0000B6M54	BBG0000B6M54	LEH 5.25 06/24/20 CD	NYCB 5.25 06/24/20 CD			No further information
BBEC	I	2013/02/21	2013/02/21	29685	2732026	411343			2013/02/20			BBG0000BR5D9	BBG0000BR5D9	LEH 6.25 12/15/25 CD1	NYCB 6.25 12/15/25 CD1			No further information
BBEC	I	2013/02/21	2013/02/21	29686	1108247	367804			2013/02/20			BBG0000BRX02	BBG0000BRX02	CHG 5.84 12/05/35	CHG 5.84 12/05/35 MTN			No further information
BBEC	I	2013/02/21	2013/02/21	29687	2296331	412595			2013/02/20			BBG0000FGV36	BBG0000FGV36	LEH 6 12/15/26 CD	NYCB 6 12/15/26 CD			No further information
BBEC	I	2013/02/21	2013/02/21	29688	2731931	412549			2013/02/20			BBG0000FC4M9	BBG0000FC4M9	LEH 6 04/16/22 CD	NYCB 6 04/16/22 CD			No further information
BBEC	I	2013/02/21	2013/02/21	29689	2731921	413211			2013/02/20			BBG0000H6PH1	BBG0000H6PH1	LEH 6 04/03/27 CD	NYCB 6 04/03/27 CD			No further information
BBEC	I	2013/02/21	2013/02/21	29690	2731898	413397			2013/02/20			BBG0000HN595	BBG0000HN595	LEH 6 05/17/22 CD	NYCB 6 05/17/22 CD			No further information
BBEC	I	2013/02/22	2013/02/22	29754	3857656	340475			2013/02/21			BBG0034V0B78	BBG0034V0B78	HNLGF 4.75 06/25/22 EMTN	HLPPY 4.75 06/25/22 EMTN			No further information
BBEC	I	2013/02/22	2013/02/22	29758	1106574	363856			2013/02/21			BBG000051WD1	BBG000051WD1	UTX 7.1 11/15/27 MTNA	GR 7.1 11/15/27 MTNA			No further information
BBEC	I	2013/02/22	2013/02/22	29759	255906	364480			2013/02/21			BBG00005W9H4	BBG00005W9H4	UTX 7 04/15/38	GR 7 04/15/38			No further information
BBEC	I	2013/02/22	2013/02/22	29762	1118388	361285			2013/02/21			BBG00000DRV0	BBG00000DRV0	UTX 6.8 07/01/36 144A	GR 6.8 07/01/36 144A			No further information
BBEC	I	2013/02/22	2013/02/22	29764	1074104	368435			2013/02/21			BBG0000DFN30	BBG0000DFN30	UTX 6.8 07/01/36	GR 6.8 07/01/36			No further information
BBEC	I	2013/02/22	2013/02/22	29767	1718458	371175			2013/02/21			BBG0000P14W8	BBG0000P14W8	UTX 4.875 03/01/20	GR 4.875 03/01/20			No further information
BBEC	I	2013/02/22	2013/02/22	29780	3913453	402731			2013/02/21			BBG003C53TT0	BBG003C53TT0	GE 3.15 09/07/22	GE 3.15 09/07/22 GMTN			No further information
BBEC	I	2013/02/22	2013/02/22	29781	990369	361742			2013/02/21			BBG0000157R6	BBG0000157R6	UTX 8.61 03/14/25 MTNA	GR 8.61 03/14/25 MTNA			No further information
BBEC	I	2013/02/22	2013/02/22	29782	991926	361770			2013/02/21			BBG000017277	BBG000017277	UTX 8.61 04/15/25 MTNA	GR 8.61 04/15/25 MTNA			No further information
BBEC	I	2013/02/22	2013/02/22	29783	991863	361843			2013/02/21			BBG00001DFH0	BBG00001DFH0	UTX 8.65 04/15/25 MTNA	GR 8.65 04/15/25 MTNA			No further information
BBEC	I	2013/02/22	2013/02/22	29784	1071963	362032			2013/02/21			BBG00001V3M1	BBG00001V3M1	UTX 7.75 05/19/25 MTNA	GR 7.75 05/19/25 MTNA			No further information
BBEC	I	2013/02/22	2013/02/22	29785	1098417	362648			2013/02/21			BBG000035VP1	BBG000035VP1	UTX 7.298 10/20/25 MTNA	GR 7.298 10/20/25 MTNA			No further information
BBEC	I	2013/02/22	2013/02/22	29786	255908	362671			2013/02/21			BBG000036WM1	BBG000036WM1	UTX 7.28 11/07/25 MTNA	GR 7.28 11/07/25 MTNA			No further information
BBEC	I	2013/02/22	2013/02/22	29787	990577	361853			2013/02/21			BBG00001FSD4	BBG00001FSD4	UTX 7.5 04/01/26 MTNA	GR 7.5 04/01/26 MTNA			No further information
BBEC	I	2013/02/22	2013/02/22	29788	1095051	363080			2013/02/21			BBG00003SQ31	BBG00003SQ31	UTX 7.375 12/10/46 MTNA	GR 7.375 12/10/46 MTNA			No further information
BBEC	I	2013/02/22	2013/02/22	29789	255920	364069			2013/02/21			BBG00005CF64	BBG00005CF64	UTX 6.8 02/01/18 MTNA	GR 6.8 02/01/18 MTNA			No further information
BBEC	I	2013/02/22	2013/02/22	29790	990357	363888			2013/02/21			BBG000053879	BBG000053879	UTX 8.65 03/14/25 MTNA	GR 8.65 03/14/25 MTNA			No further information
BBEC	I	2013/02/22	2013/02/22	29791	991849	363889			2013/02/21			BBG0000538F0	BBG0000538F0	UTX 8.62 04/15/25 MTNA	GR 8.62 04/15/25 MTNA			No further information
BBEC	I	2013/02/25	2013/02/25	29868	1628664	368921			2013/02/22			BBG0000FNW09	BBG0000FNW09	BANBRA V8.5 P12/31/49 144A	BANBRA V8.5 P10/29/49 144A			No further information
BBEC	I	2013/02/25	2013/02/25	29869	1628671	370142			2013/02/22			BBG0000KD214	BBG0000KD214	BANBRA V8.5 P12/29/49 REGS	BANBRA V8.5 P10/29/49 REGS			No further information
BBEC	I	2013/02/25	2013/02/25	29871	1509126	414181			2013/02/22			BBG0000L08G7	BBG0000L08G7	NTRS 5.85 11/09/17	NTRS 5.85 11/09/17 MTN			No further information
BBEC	I	2013/02/25	2013/02/25	29872	1514562	369867			2013/02/22			BBG0000JJ6F7	BBG0000JJ6F7	BAC 6.75 08/15/19	BAC 6.75 08/15/19 MTN			No further information
BBEC	I	2013/02/25	2013/02/25	29873	1667620	368813			2013/02/22			BBG0000FDK51	BBG0000FDK51	GE 5.15 12/15/21	GE 5.15 12/15/21 MTN			No further information
BBEC	I	2013/02/25	2013/02/25	29875	2120181	391151			2013/02/22			BBG0014KNWQ4	BBG0014KNWQ4	GE 4 08/15/19	GE 4 08/15/19 MTN			No further information
BBEC	I	2013/02/26	2013/02/26	30007	3960477	464414			2013/02/25			BBG003S94PX7	BBG003S94PX7	GE 3.1 01/09/23 MTN	GE 3.1 01/09/23 GMTN			No further information
BBEC	I	2013/02/26	2013/02/26	30008	3983654	475318			2013/02/25			BBG003YSG168	BBG003YSG168	HBMCN 9.5 10/01/20 WI	HBMCN 9.5 10/01/20			No further information
BBEC	I	2013/02/27	2013/02/27	30079	987523	361726			2013/02/26			BBG0000147W1	BBG0000147W1	BPLN 9 04/01/21	BPLN 9 04/01/21 MTN			No further information
BBEC	I	2013/02/27	2013/02/27	30080	1095091	404849			2013/02/26			BBG00001DRW7	BBG00001DRW7	MRO 9.375 05/15/22	MRO 9.375 05/15/22 MTN			No further information
BBEC	I	2013/02/27	2013/02/27	30082	1236639	408692			2013/02/26			BBG000075P48	BBG000075P48	COP 8.85 12/18/19 144A	PSX 8.85 12/18/19 144A			No further information
BBEC	I	2013/02/27	2013/02/27	30087	3924452	456573			2013/02/26			BBG002NCTHQ6	BBG002NCTHQ6	RY V2 02/27/17 MTN	RY V0 02/27/17 MTN			No further information
BBEC	I	2013/02/28	2013/02/28	30147	3766841	443043			2013/02/27			BBG002MYFC85	BBG002MYFC85	MS 5 02/28/17 MTN	MS 6 02/28/17 MTN			No further information
BBEC	I	2013/02/28	2013/02/28	30153	3887653	444396			2013/02/27			BBG0038SS6C6	BBG0038SS6C6	LGNDAQ 10.75 08/15/20 144A	MODL 10.75 08/15/20 144A			No further information
BBEC	I	2013/02/28	2013/02/28	30154	3974230	469015			2013/02/27			BBG0042VQWW6	BBG0042VQWW6	AXP 2.65 12/02/22 WI	AXP 2.65 12/02/22			No further information
BBEC	I	2013/02/28	2013/02/28	30155	3974319	469016			2013/02/27			BBG0042VRK06	BBG0042VRK06	AXP 4.05 12/03/42 WI	AXP 4.05 12/03/42			No further information
BBEC	I	2013/03/04	2013/03/04	30393	1460621	412443			2013/03/01			BBG0000F5W09	BBG0000F5W09	MBI V0 01/15/33 REGS	MBI 0 01/15/33 REGS			No further information
BBEC	I	2013/03/04	2013/03/04	30399	1759348	430558			2013/03/01			BBG0009WLLN4	BBG0009WLLN4	NPTNO 2007-3A B	MUNDA 1A B			No further information
BBEC	I	2013/03/07	2013/03/07	30643	2468168	440171			2013/03/06			BBG001D14M52	BBG001D14M52	RY F 03/06/14 MTN	RY F 04/04/14 MTN			No further information
BBEC	I	2013/03/08	2013/03/08	30690	1098550	365631			2013/03/07			BBG00007FYQ4	BBG00007FYQ4	ITT 4 11/15/25	XLS 4 11/15/25			No further information
BBEC	I	2013/03/08	2013/03/08	30695	3951335	461826			2013/03/07			BBG003QJND27	BBG003QJND27	HOMERG 8.137 10/01/19	GE 8.137 10/01/19			No further information
BBEC	I	2013/03/08	2013/03/08	30696	3951378	461827			2013/03/07			BBG003QJRBF3	BBG003QJRBF3	HOMERG 8.734 10/01/26	GE 8.734 10/01/26			No further information
BBEC	I	2013/03/11	2013/03/11	30949	351875	408203			2013/03/08			BBG00006F3G5	BBG00006F3G5	PRETSL V0 11/05/33 ReG*	PRETSL V0 11/05/33 Regs			No further information
BBEC	I	2013/03/11	2013/03/11	30951	3641177	399145			2013/03/08			BBG002QRFLR5	BBG002QRFLR5	GSHPBR V12 P12/31/49 144A	GSHPBR V12 P12/20/49 144A			No further information
BBEC	I	2013/03/11	2013/03/11	30952	3827581	399146			2013/03/08			BBG002QRFS27	BBG002QRFS27	GSHPBR V12 P12/31/49 REGS	GSHPBR V12 P12/20/49 REGS			No further information
BBEC	I	2013/03/11	2013/03/11	30954	2231023	362194			2013/03/08			BBG000026CG4	BBG000026CG4	UAL 7.256 03/15/20 992A	CAL 7.256 03/15/20 992A			No further information
BBEC	I	2013/03/11	2013/03/11	30959	3919528	446975			2013/03/08			BBG003H6GJZ4	BBG003H6GJZ4	PNC 2.7 11/01/22	PNC 2.7 11/01/22 BKNT			No further information
BBEC	I	2013/03/11	2013/03/11	30960	3972765	469340			2013/03/08			BBG0042FQKY5	BBG0042FQKY5	PNC 2.95 01/30/23	PNC 2.95 01/30/23 BKNT			No further information
BBEC	I	2013/03/11	2013/03/11	30961	3989464	477973			2013/03/08			BBG0045Z3HD3	BBG0045Z3HD3	WHR 5.15 03/01/43	WHR 5.15 03/01/43 MTN			No further information
BBEC	I	2013/03/12	2013/03/12	31040	351907	409576			2013/03/11			BBG00008B8H3	BBG00008B8H3	PRETSL V0 11/05/33 REG5	PRETSL V0 11/05/33 rEGS			No further information
BBEC	I	2013/03/12	2013/03/12	31046	2231023	362194			2013/03/11			BBG000026CG4	BBG000026CG4	CAL 7.256 03/15/20 992A	UAL 7.256 03/15/20 992A			No further information
BBEC	I	2013/03/13	2013/03/13	31118	834682	409745			2013/03/12			BBG00008HW66	BBG00008HW66	PRETSL V0 12/24/33 REG$	PRETSL V0 12/24/33 Regs			No further information
BBEC	I	2013/03/13	2013/03/13	31130	3918374	456683			2013/03/12			BBG003DNMFZ2	BBG003DNMFZ2	WFC V0 10/03/22 MTN	WFC V3 10/03/22 MTN			No further information
BBEC	I	2013/03/14	2013/03/14	31169	2301297	421126			2013/03/13			BBG0008C1H23	BBG0008C1H23	SHAW 0 05/01/21 REGS	CBI 0 05/01/21 REGS			No further information
BBEC	I	2013/03/14	2013/03/14	31171	3251396	404384			2013/03/13			BBG00000RH74	BBG00000RH74	SHAW 5.909 07/15/40 144A	CBI 5.909 07/15/40 144A			No further information
BBEC	I	2013/03/15	2013/03/15	31233	3859881	415659			2013/03/14			BBG0000W5KW3	BBG0000W5KW3	MASHER 9 12/31/18 144a	MASHER 10.2 12/31/18 144a			No further information
BBEC	I	2013/03/15	2013/03/15	31234	1924653	415660			2013/03/14			BBG0000W5MM0	BBG0000W5MM0	MASHER 9 12/31/18 REGs	MASHER 10.2 12/31/18 REGs			No further information
BBEC	I	2013/03/15	2013/03/15	31235	3873445	341138			2013/03/14			BBG0036F6TB1	BBG0036F6TB1	MIZUHO 4.2 07/18/22	MIZUHO 4.2 07/18/22 REGS			No further information
BBEC	I	2013/03/15	2013/03/15	31258	3624797	399047			2013/03/14			BBG002QJSNK2	BBG002QJSNK2	ARCC 4.875 03/15/17 144A	ARCC 4.875 03/15/17			No further information
BBEC	I	2013/03/18	2013/03/18	31313	2688414	393378			2013/03/15			BBG001J5QZN4	BBG001J5QZN4	BACR V4.25 03/16/21 MTN	BACR V0 03/16/21 MTN			No further information
BBEC	I	2013/03/18	2013/03/18	31356	1152960	415268			2013/03/15			BBG0000QNWZ7	BBG0000QNWZ7	STP 3 03/15/13	STP 3 03/15/49			No further information
BBEC	I	2013/03/18	2013/03/18	31358	262387	361500			2013/03/15			BBG00000PQF7	BBG00000PQF7	KMI 8.625 01/15/22	KMP 8.625 01/15/22			No further information
BBEC	I	2013/03/18	2013/03/18	31359	262382	363015			2013/03/15			BBG00003PSV9	BBG00003PSV9	KMI 7.5 11/15/26	KMP 7.5 11/15/26			No further information
BBEC	I	2013/03/18	2013/03/18	31360	1461208	361629			2013/03/15			BBG00000WV68	BBG00000WV68	KMI 8.375 06/15/32 144A	KMP 8.375 06/15/32 144A			No further information
BBEC	I	2013/03/18	2013/03/18	31363	1630261	366133			2013/03/15			BBG000086HM3	BBG000086HM3	KMI 8.375 06/15/32 *	KMP 8.375 06/15/32 *			No further information
BBEC	I	2013/03/18	2013/03/18	31367	1661775	370402			2013/03/15			BBG0000L1CF8	BBG0000L1CF8	KMI 5.95 04/15/17	KMP 5.95 04/15/17			No further information
BBEC	I	2013/03/18	2013/03/18	31369	3624683	443245			2013/03/15			BBG002QBHJQ4	BBG002QBHJQ4	PCLN 1 03/15/18 144A	PCLN 1 03/15/18			No further information
BBEC	I	2013/03/19	2013/03/19	31469	2745567	393721			2013/03/18			BBG001KWQKM7	BBG001KWQKM7	BACR V5.5 06/20/16 144A	BACR V0 06/20/16 144a			No further information
BBEC	I	2013/03/19	2013/03/19	31498	1152960	415268			2013/03/18			BBG0000QNWZ7	BBG0000QNWZ7	STP 3 03/15/49	STP 3 03/15/13			No further information
BBEC	I	2013/03/19	2013/03/19	31505	781202	369632			2013/03/18			BBG0000HV989	BBG0000HV989	GRZ 5.5 06/15/22	GDRZ 5.5 06/15/22			No further information
BBEC	I	2013/03/19	2013/03/19	31506	2752869	393507			2013/03/18			BBG001KBL3V6	BBG001KBL3V6	GS V4 03/18/21 MTN	GS V0 03/18/21 MTN			No further information
BBEC	I	2013/03/21	2013/03/21	31627	3995611	479561			2013/03/20			BBG0044H24F2	BBG0044H24F2	WFC F 03/18/14 MTN	WFC F 04/17/14 MTN			No further information
BBEC	I	2013/03/21	2013/03/21	31628	3986366	476309			2013/03/20			BBG0045KNPT9	BBG0045KNPT9	DFS 3.85 11/21/22 WI	DFS 3.85 11/21/22			No further information
BBEC	I	2013/03/25	2013/03/25	31753	992382	364340			2013/03/22			BBG00005Q9Q1	BBG00005Q9Q1	SVU 7.1 03/20/28 MTNB	NEWALB 7.1 03/20/28 MTNB			No further information
BBEC	I	2013/03/25	2013/03/25	31754	264145	364373			2013/03/22			BBG00005RMH1	BBG00005RMH1	SVU 6.52 04/10/28 MTNC	NEWALB 6.52 04/10/28 MTNC			No further information
BBEC	I	2013/03/25	2013/03/25	31755	264144	364374			2013/03/22			BBG00005RP39	BBG00005RP39	SVU 6.53 04/10/28 MTNC	NEWALB 6.53 04/10/28 MTNC			No further information
BBEC	I	2013/03/25	2013/03/25	31756	992671	376068			2013/03/22			BBG00080J9H2	BBG00080J9H2	SVU 6.1 04/10/28 MTNC	NEWALB 6.1 04/10/28 MTNC			No further information
BBEC	I	2013/03/25	2013/03/25	31757	1071033	364612			2013/03/22			BBG0000617T7	BBG0000617T7	SVU 6.63 06/02/28 MTNC	NEWALB 6.63 06/02/28 MTNC			No further information
BBEC	I	2013/03/25	2013/03/25	31758	264146	364615			2013/03/22			BBG0000619M0	BBG0000619M0	SVU 6.625 06/01/28 MTNC	NEWALB 6.625 06/01/28 MTNC			No further information
BBEC	I	2013/03/25	2013/03/25	31759	264113	362255			2013/03/22			BBG00002CV11	BBG00002CV11	SVU 7.75 06/15/26	NEWALB 7.75 06/15/26			No further information
BBEC	I	2013/03/25	2013/03/25	31760	991736	362199			2013/03/22			BBG000026SM2	BBG000026SM2	SVU 8 06/01/26	NEWALB 8 06/01/26			No further information
BBEC	I	2013/03/25	2013/03/25	31761	973033	363348			2013/03/22			BBG00004B490	BBG00004B490	SVU 7.9 05/01/17	NEWALB 7.9 05/01/17			No further information
BBEC	I	2013/03/25	2013/03/25	31762	732778	363349			2013/03/22			BBG00004B4B7	BBG00004B4B7	SVU 7.5 05/01/37	NEWALB 7.5 05/01/37			No further information
BBEC	I	2013/03/25	2013/03/25	31763	264117	365664			2013/03/22			BBG00007H790	BBG00007H790	SVU 7.45 08/01/29	NEWALB 7.45 08/01/29			No further information
BBEC	I	2013/03/25	2013/03/25	31764	264120	361981			2013/03/22			BBG00001QLN6	BBG00001QLN6	SVU 8.7 05/01/30	NEWALB 8.7 05/01/30			No further information
BBEC	I	2013/03/25	2013/03/25	31766	264126	361607			2013/03/22			BBG00000VTQ2	BBG00000VTQ2	SVU 8 05/01/31	NEWALB 8 05/01/31			No further information
BBEC	I	2013/03/25	2013/03/25	31769	2673885	393458			2013/03/22			BBG001K7J1K4	BBG001K7J1K4	BAC V0 03/11/21 MTN	BAC F 03/11/21 MTN			No further information
BBEC	I	2013/03/25	2013/03/25	31778	3809910	357385			2013/03/22			BBG002ZHFFG2	BBG002ZHFFG2	NFIUCN 6.25 06/30/17	NFICN 6.25 06/30/17			No further information
BBEC	I	2013/03/25	2013/03/25	31780	264130	363492			2013/03/22			BBG00004LF67	BBG00004LF67	SVU 7 07/21/17 MTNB	NEWALB 7 07/21/17 MTNB			No further information
BBEC	I	2013/03/25	2013/03/25	31781	1102937	363499			2013/03/22			BBG00004LRD3	BBG00004LRD3	SVU 7.15 07/23/27 MTNB	NEWALB 7.15 07/23/27 MTNB			No further information
BBEC	I	2013/03/25	2013/03/25	31782	264134	363497			2013/03/22			BBG00004LQ63	BBG00004LQ63	SVU 7.11 07/22/27 MTNB	NEWALB 7.11 07/22/27 MTNB			No further information
BBEC	I	2013/03/25	2013/03/25	31783	264127	363493			2013/03/22			BBG00004LFJ3	BBG00004LFJ3	SVU 7.02 07/21/17 MTNB	NEWALB 7.02 07/21/17 MTNB			No further information
BBEC	I	2013/03/25	2013/03/25	31784	264135	365363			2013/03/22			BBG000072SD5	BBG000072SD5	SVU 6.56 07/26/27 MTNB	NEWALB 6.56 07/26/27 MTNB			No further information
BBEC	I	2013/03/25	2013/03/25	31785	973623	363516			2013/03/22			BBG00004MHZ0	BBG00004MHZ0	SVU 6.96 08/01/17 MTNB	NEWALB 6.96 08/01/17 MTNB			No further information
BBEC	I	2013/03/25	2013/03/25	31786	984327	364249			2013/03/22			BBG00005K1C9	BBG00005K1C9	SVU 6.47 02/23/18 MTNC	NEWALB 6.47 02/23/18 MTNC			No further information
BBEC	I	2013/03/25	2013/03/25	31787	264143	364246			2013/03/22			BBG00005JYS2	BBG00005JYS2	SVU 6.57 02/23/28 MTNC	NEWALB 6.57 02/23/28 MTNC			No further information
BBEC	I	2013/03/27	2013/03/27	31893	258917	363525			2013/03/26			BBG00004MW23	BBG00004MW23	APPGF 12 12/29/49	APPGF 12 02/15/04			No further information
BBEC	I	2013/03/27	2013/03/27	31905	3572903	440665			2013/03/26			BBG001KNRTY4	BBG001KNRTY4	UBS V3.65 03/25/21 MTN	UBS V0 03/25/21 MTN			No further information
BBEC	I	2013/03/27	2013/03/27	31921	2225677	439207			2013/03/26			BBG0015S2720	BBG0015S2720	JPM V5 09/24/25 CMS	JPM V0 09/24/25 CMS			No further information
BBEC	I	2013/03/28	2013/03/28	32240	1122200	412447			2013/03/27			BBG0000F6BH6	BBG0000F6BH6	RATHGI 11.25 02/15/14	PCP 11.25 02/15/14			No further information
BBEC	I	2013/03/29	2013/03/29	32429	973675	411254			2013/03/28			BBG0000BLZ30	BBG0000BLZ30	MGEE 5.25 01/15/17	MGEE 5.25 01/15/17 mtn			No further information
BBEC	I	2013/03/29	2013/03/29	32433	3598280	398909			2013/03/28			BBG002Q1P104	BBG002Q1P104	TRAK 1.5 03/15/17 144A	TRAK 1.5 03/15/17			No further information
BBEC	I	2013/03/29	2013/03/29	32437	3691591	399355			2013/03/28			BBG002S9BTL6	BBG002S9BTL6	CVO 7 05/15/17 144A	CVO 7 05/15/17			No further information
BBEC	I	2013/04/02	2013/04/02	32671	2683723	393738			2013/04/01			BBG001LGXR39	BBG001LGXR39	BAC V4.5 03/29/21 MTN	BAC V0 03/29/21 MTN			No further information
BBEC	I	2013/04/02	2013/04/02	32672	2746780	393747			2013/04/01			BBG001LH08X2	BBG001LH08X2	C V5.07 04/01/21 MTN	C V0 04/01/21 MTN			No further information
BBEC	I	2013/04/03	2013/04/03	32741	187598	407818			2013/04/02			BBG00005W8D0	BBG00005W8D0	NXYCN 7.4 05/01/28	CNOOC 7.4 05/01/28			No further information
BBEC	I	2013/04/03	2013/04/03	32742	187605	403834			2013/04/02			BBG000009M82	BBG000009M82	NXYCN 7.875 03/15/32	CNOOC 7.875 03/15/32			No further information
BBEC	I	2013/04/03	2013/04/03	32744	260185	408899			2013/04/02			BBG00007GFD8	BBG00007GFD8	NXYCN 5.875 03/10/35	CNOOC 5.875 03/10/35			No further information
BBEC	I	2013/04/03	2013/04/03	32745	717398	404037			2013/04/02			BBG00000F9S2	BBG00000F9S2	NXYCN 6.4 05/15/37	CNOOC 6.4 05/15/37			No further information
BBEC	I	2013/04/03	2013/04/03	32746	717377	403988			2013/04/02			BBG00000D986	BBG00000D986	NXYCN 5.65 05/15/17	CNOOC 5.65 05/15/17			No further information
BBEC	I	2013/04/03	2013/04/03	32749	1511445	410965			2013/04/02			BBG0000B4RH2	BBG0000B4RH2	NXYCN 6.2 07/30/19	CNOOC 6.2 07/30/19			No further information
BBEC	I	2013/04/03	2013/04/03	32750	1511463	410967			2013/04/02			BBG0000B4WV5	BBG0000B4WV5	NXYCN 7.5 07/30/39	CNOOC 7.5 07/30/39			No further information
BBEC	I	2013/04/05	2013/04/05	32870	3640789	443294			2013/04/04			BBG002QP4KK0	BBG002QP4KK0	SLXP 1.5 03/15/19 144A	SLXP 1.5 03/15/19			No further information
BBEC	I	2013/04/08	2013/04/08	32942	3535072	443016			2013/04/05			BBG002GPHQ51	BBG002GPHQ51	MINERV 12.25 02/10/22 144A	BEEFBZ 12.25 02/10/22 144A			No further information
BBEC	I	2013/04/08	2013/04/08	32943	3543351	443036			2013/04/05			BBG002H51W30	BBG002H51W30	MINERV 12.25 02/10/22 REGS	BEEFBZ 12.25 02/10/22 REGS			No further information
BBEC	I	2013/04/08	2013/04/08	32957	3967366	466088			2013/04/05			BBG003Y1SGS7	BBG003Y1SGS7	MINERV 7.75 01/31/23 144A	BEEFBZ 7.75 01/31/23 144A			No further information
BBEC	I	2013/04/08	2013/04/08	32958	3967372	466191			2013/04/05			BBG003Y2KJ16	BBG003Y2KJ16	MINERV 7.75 01/31/23 REGS	BEEFBZ 7.75 01/31/23 REGS			No further information
BBEC	I	2013/04/08	2013/04/08	32980	492189	412913			2013/04/05			BBG0000GH120	BBG0000GH120	MINERV 9.5 02/01/17 144A	BEEFBZ 9.5 02/01/17 144A			No further information
BBEC	I	2013/04/08	2013/04/08	32981	492194	412915			2013/04/05			BBG0000GH1C9	BBG0000GH1C9	MINERV 9.5 02/01/17 REGS	BEEFBZ 9.5 02/01/17 REGS			No further information
BBEC	I	2013/04/08	2013/04/08	32982	1770057	413159			2013/04/05			BBG0000H4HT8	BBG0000H4HT8	MINERV 10.875 11/15/19 144A	BEEFBZ 10.875 11/15/19 144A			No further information
BBEC	I	2013/04/08	2013/04/08	32983	1760712	404216			2013/04/05			BBG00000LBL7	BBG00000LBL7	MINERV 10.875 11/15/19 REGS	BEEFBZ 10.875 11/15/19 REGS			No further information
BBEC	I	2013/04/08	2013/04/08	32984	2171052	439512			2013/04/05			BBG001766VD7	BBG001766VD7	MINERV 10.875 11/15/19 144a	BEEFBZ 10.875 11/15/19 144a			No further information
BBEC	I	2013/04/08	2013/04/08	32985	2142222	439513			2013/04/05			BBG001766VS1	BBG001766VS1	MINERV 10.875 11/15/19 REGs	BEEFBZ 10.875 11/15/19 REGs			No further information
BBEC	I	2013/04/08	2013/04/08	32986	2171058	439650			2013/04/05			BBG001854HP8	BBG001854HP8	MINERV 10.875 11/15/19 AI	BEEFBZ 10.875 11/15/19 AI			No further information
BBEC	I	2013/04/08	2013/04/08	32992	3984625	476495			2013/04/05			BBG004598TX8	BBG004598TX8	PBFHOL 8.25 02/15/20 WI	PBFHOL 8.25 02/15/20			No further information
BBEC	I	2013/04/09	2013/04/09	33082	815549	270515			2013/04/08			BBG000092MQ0	BBG000092MQ0	IKPPIJ V0 04/28/24 144A	INKPIJ V0 04/28/24 144A			No further information
BBEC	I	2013/04/09	2013/04/09	33134	2468168	440171			2013/04/08			BBG001D14M52	BBG001D14M52	RY F 04/04/14 MTN	RY F 05/06/14 MTN			No further information
BBEC	I	2013/04/09	2013/04/09	33138	4000107	481189			2013/04/08			BBG00473K8D3	BBG00473K8D3	JPM F 04/07/14 1	JPM F 05/07/14 1			No further information
BBEC	I	2013/04/10	2013/04/10	33217	1125667	405749			2013/04/09			BBG000034267	BBG000034267	NYL 5.875 05/15/33 144A	NYLIFE 5.875 05/15/33 144A			No further information
BBEC	I	2013/04/10	2013/04/10	33218	1120730	407880			2013/04/09			BBG00005ZG85	BBG00005ZG85	NYL 5.875 05/15/33 REGS	NYLIFE 5.875 05/15/33 REGS			No further information
BBEC	I	2013/04/10	2013/04/10	33222	1613043	409968			2013/04/09			BBG00008S7D1	BBG00008S7D1	NYL 6.75 11/15/39 144A	NYLIFE 6.75 11/15/39 144A			No further information
BBEC	I	2013/04/10	2013/04/10	33223	2126285	410050			2013/04/09			BBG00008X0N9	BBG00008X0N9	NYL 6.75 11/15/39 REGS	NYLIFE 6.75 11/15/39 REGS			No further information
BBEC	I	2013/04/10	2013/04/10	33224	1612582	405058			2013/04/09			BBG00001V9D8	BBG00001V9D8	NYL 6.75 11/15/39 REGD	NYLIFE 6.75 11/15/39 REGD			No further information
BBEC	I	2013/04/11	2013/04/11	33335	2814843	394086			2013/04/10			BBG001MH7SQ8	BBG001MH7SQ8	BACR V0 05/12/21 MTn	BACR V4 05/12/21 MTn			No further information
BBEC	I	2013/04/11	2013/04/11	33340	3919773	448599			2013/04/10			BBG002RWGZ73	BBG002RWGZ73	BACR V3 04/12/17 MTN	BACR V0 04/12/17 MTN			No further information
BBEC	I	2013/04/11	2013/04/11	33351	3990043	477345			2013/04/10			BBG0046198L2	BBG0046198L2	ADCBUH 2.5 03/06/18 EMTN	ADCBUH 2.5 03/06/18 GMTN			No further information
BBEC	I	2013/04/11	2013/04/11	33355	3828132	443748			2013/04/10			BBG002YWNNZ3	BBG002YWNNZ3	IMNCN 8.75 06/01/20 144A	FMCN 8.75 06/01/20 144A			No further information
BBEC	I	2013/04/11	2013/04/11	33356	3810081	443830			2013/04/10			BBG002ZHM013	BBG002ZHM013	IMNCN 8.75 06/01/20 REGS	FMCN 8.75 06/01/20 REGS			No further information
BBEC	I	2013/04/11	2013/04/11	33357	3951261	461832			2013/04/10			BBG003Q2ZQS4	BBG003Q2ZQS4	IMNCN 7.5 06/01/21 144A	FMCN 7.5 06/01/21 144A			No further information
BBEC	I	2013/04/11	2013/04/11	33358	3950762	461992			2013/04/10			BBG003Q5YB92	BBG003Q5YB92	IMNCN 7.5 06/01/21 REGS	FMCN 7.5 06/01/21 REGS			No further information
BBEC	I	2013/04/11	2013/04/11	33359	4007178	483513			2013/04/10			BBG00475SJ37	BBG00475SJ37	XTEX 7.125 06/01/22 WI	XTEX 7.125 06/01/22			No further information
BBEC	I	2013/04/12	2013/04/12	33454	842857	409748			2013/04/11			BBG00008HX73	BBG00008HX73	PRETSL V0 12/24/33 regs	PRETSL F 12/24/33 regs			No further information
BBEC	I	2013/04/12	2013/04/12	33481	3547492	443055			2013/04/11			BBG002N0QQH5	BBG002N0QQH5	NYL 1.65 05/15/17 144A	NYLIFE 1.65 05/15/17 144A			No further information
BBEC	I	2013/04/12	2013/04/12	33482	3877198	443060			2013/04/11			BBG002N12424	BBG002N12424	NYL 1.65 05/15/17 REGS	NYLIFE 1.65 05/15/17 REGS			No further information
BBEC	I	2013/04/12	2013/04/12	33489	3922146	446766			2013/04/11			BBG003J64Q43	BBG003J64Q43	NYL 1.3 10/30/17 144A	NYLIFE 1.3 10/30/17 144A			No further information
BBEC	I	2013/04/12	2013/04/12	33490	3930865	456508			2013/04/11			BBG003JRK7Y8	BBG003JRK7Y8	NYL 1.3 10/30/17 REGS	NYLIFE 1.3 10/30/17 REGS			No further information
BBEC	I	2013/04/16	2013/04/16	33732	1120309	376033			2013/04/15			BBG000807636	BBG000807636	GKK 4.375 07/15/24 144A	GPT 4.375 07/15/24 144A			No further information
BBEC	I	2013/04/16	2013/04/16	33733	1097931	376034			2013/04/15			BBG000807681	BBG000807681	GKK 4.375 07/15/24	GPT 4.375 07/15/24			No further information
BBEC	I	2013/04/16	2013/04/16	33735	3972557	469403			2013/04/15			BBG0042626F3	BBG0042626F3	WXS 4.75 02/01/23 144A	WEX 4.75 02/01/23 144A			No further information
BBEC	I	2013/04/16	2013/04/16	33736	3972058	469472			2013/04/15			BBG0042QJK24	BBG0042QJK24	WXS 4.75 02/01/23 REGS	WEX 4.75 02/01/23 REGS			No further information
BBEC	I	2013/04/16	2013/04/16	33738	4005071	482296			2013/04/15			BBG004BRXG43	BBG004BRXG43	COF 1.5 03/22/18	COF 1.5 03/22/18 BNKT			No further information
BBEC	I	2013/04/17	2013/04/17	33805	2708658	440845			2013/04/16			BBG001LZ0ZP1	BBG001LZ0ZP1	HSBC V3.25 04/18/18 001	HSBC V0 04/18/18 001			No further information
BBEC	I	2013/04/17	2013/04/17	33806	3598201	442176			2013/04/16			BBG0024FS293	BBG0024FS293	HSBC V3.25 10/17/16 MTN	HSBC V0 10/17/16 MTN			No further information
BBEC	I	2013/04/17	2013/04/17	33812	3911757	403372			2013/04/16			BBG003G0LCN0	BBG003G0LCN0	C 26.49 05/01/17 EMTN	C 7.55 05/01/17 EMTN			No further information
BBEC	I	2013/04/18	2013/04/18	33845	2125776	391616			2013/04/17			BBG0016RDX77	BBG0016RDX77	ENIIM 4.15 10/01/20 +.	ENIIM 4.15 10/01/20 144A			No further information
BBEC	I	2013/04/18	2013/04/18	33861	1511044	369000			2013/04/17			BBG0000G1430	BBG0000G1430	GE 5.65 07/15/17	GE 5.65 07/15/17 NOTZ			No further information
BBEC	I	2013/04/18	2013/04/18	33865	3961901	465843			2013/04/17			BBG003T48647	BBG003T48647	BAC 2 01/11/18 MTN	BAC 2 01/11/18			No further information
BBEC	I	2013/04/18	2013/04/18	33866	4007218	483791			2013/04/17			BBG00490GV23	BBG00490GV23	REN 8.5 05/01/20 WI	REN 8.5 05/01/20			No further information
BBEC	I	2013/04/18	2013/04/18	33867	4007843	483864			2013/04/17			BBG00491K934	BBG00491K934	WIN 6.375 08/01/23 WI	WIN 6.375 08/01/23			No further information
BBEC	I	2013/04/19	2013/04/19	33938	1674225	366772			2013/04/18			BBG000094WG7	BBG000094WG7	GE 4.65 12/15/18	GE 4.65 12/15/18 MTN			No further information
BBEC	I	2013/04/19	2013/04/19	33940	3726008	443589			2013/04/18			BBG002W5QXW2	BBG002W5QXW2	PSEC 5.375 10/15/17 144A	PSEC 5.375 10/15/17			No further information
BBEC	I	2013/04/19	2013/04/19	33944	4008351	482721			2013/04/18			BBG004CZ3T67	BBG004CZ3T67	BMW 1.375 04/05/17 REGS	BMW 1.375 04/05/17 EMTN			No further information
BBEC	I	2013/04/23	2013/04/23	34179	1842368	365086			2013/04/22			BBG00006P8J0	BBG00006P8J0	T 4.02 04/26/13 144A	T 4.02 04/26/14 144A			No further information
BBEC	I	2013/04/24	2013/04/24	34255	3995611	479561			2013/04/23			BBG0044H24F2	BBG0044H24F2	WFC F 04/17/14 MTN	WFC F 05/23/14 MTN			No further information
BBEC	I	2013/04/25	2013/04/25	34311	2820789	394037			2013/04/24			BBG001M9ZBG3	BBG001M9ZBG3	C V5 04/26/21 MTN	C V0 04/26/21 MTN			No further information
BBEC	I	2013/04/25	2013/04/25	34325	4017173	487214			2013/04/24			BBG004CH8NZ3	BBG004CH8NZ3	NEU 4.1 12/15/22 WI	NEU 4.1 12/15/22			No further information
BBEC	I	2013/04/25	2013/04/25	34326	4013285	485744			2013/04/24			BBG004D08J42	BBG004D08J42	MCCC 6.375 04/01/23 WI	MCCC 6.375 04/01/23			No further information
BBEC	I	2013/04/26	2013/04/26	34428	2562331	440353			2013/04/25			BBG001FDX3R0	BBG001FDX3R0	TOYOTA 5 02/03/31 EMTN	TOYOTA 5 02/03/31 MTN			No further information
BBEC	I	2013/04/26	2013/04/26	34430	2826063	394201			2013/04/25			BBG001NMD810	BBG001NMD810	GS V5 04/29/21 MTN	GS V0 04/29/21 MTN			No further information
BBEC	I	2013/04/26	2013/04/26	34437	4014527	487237			2013/04/25			BBG004DSLSC7	BBG004DSLSC7	SBAC 2.24 04/16/18 144A	SBAC 2.24 04/15/18 144A			No further information
BBEC	I	2013/04/26	2013/04/26	34438	4014528	487238			2013/04/25			BBG004DSLXH1	BBG004DSLXH1	SBAC 3.722 04/16/23 144A	SBAC 3.722 04/15/23 144A			No further information
BBEC	I	2013/04/29	2013/04/29	34546	1842368	365086			2013/04/26			BBG00006P8J0	BBG00006P8J0	T 4.02 04/26/14 144A	T 4.117 04/26/14 144A			No further information
BBEC	I	2013/04/30	2013/04/30	34697	1403593	419472			2013/04/29			BBG0007YLQ79	BBG0007YLQ79	PFHC 10.625 04/01/17 144A	PF 10.625 04/01/17 144A			No further information
BBEC	I	2013/04/30	2013/04/30	34699	1359989	419474			2013/04/29			BBG0007YLQ97	BBG0007YLQ97	PFHC 10.625 04/01/17 REGS	PF 10.625 04/01/17 REGS			No further information
BBEC	I	2013/04/30	2013/04/30	34704	1792056	370354			2013/04/29			BBG0000KYMZ0	BBG0000KYMZ0	BAC 5.4 02/15/19	BAC 5.4 02/15/19 MTN			No further information
BBEC	I	2013/04/30	2013/04/30	34707	2121695	363210			2013/04/29			BBG0000415F1	BBG0000415F1	GSX 5.5 10/05/15 AI	GSXN 5.5 10/05/15 AI			No further information
BBEC	I	2013/04/30	2013/04/30	34708	2068770	439088			2013/04/29			BBG0014LS8Z0	BBG0014LS8Z0	PFHC 8.25 09/01/17 144A	PF 8.25 09/01/17 144A			No further information
BBEC	I	2013/04/30	2013/04/30	34709	2070899	439096			2013/04/29			BBG0014LZ2N8	BBG0014LZ2N8	PFHC 8.25 09/01/17 REGS	PF 8.25 09/01/17 REGS			No further information
BBEC	I	2013/04/30	2013/04/30	34711	2240690	392031			2013/04/29			BBG0018538N1	BBG0018538N1	GS V0 10/29/20 ____	GS V0 10/29/20 MTN			No further information
BBEC	I	2013/04/30	2013/04/30	34720	3905453	402992			2013/04/29			BBG003CZL3G5	BBG003CZL3G5	CTLCN 11 10/30/17	CYTCN 11 10/30/17			No further information
BBEC	I	2013/04/30	2013/04/30	34722	3938534	484248			2013/04/29			BBG004DDYK88	BBG004DDYK88	ANTERO 6 12/01/20 WI	ANTERO 6 12/01/20			No further information
BBEC	I	2013/05/01	2013/05/01	34953	4014878	487038			2013/04/30			BBG004BRYKG0	BBG004BRYKG0	CALVRT 2 03/31/18 NOTE	CALVRT 2 04/02/18 NOTE			No further information
BBEC	I	2013/05/01	2013/05/01	34954	4011409	485463			2013/04/30			BBG004DFFDJ8	BBG004DFFDJ8	ADT 2.25 07/15/17 WI	ADT 2.25 07/15/17			No further information
BBEC	I	2013/05/01	2013/05/01	34955	4011420	485464			2013/04/30			BBG004DGLP57	BBG004DGLP57	ADT 3.5 07/15/22 WI	ADT 3.5 07/15/22			No further information
BBEC	I	2013/05/01	2013/05/01	34956	4011422	485465			2013/04/30			BBG004DGLWF1	BBG004DGLWF1	ADT 4.875 07/15/42 WI	ADT 4.875 07/15/42			No further information
BBEC	I	2013/05/02	2013/05/02	35021	286938	450639			2013/05/01			BBG000008FC3	BBG000008FC3	ING 6.125 P12/31/49	INTNED 6.125 P12/31/49			No further information
BBEC	I	2013/05/02	2013/05/02	35044	1796382	370741			2013/05/01			BBG0000MDN96	BBG0000MDN96	DEXO 14 01/29/17	DXM 14 01/29/17			No further information
BBEC	I	2013/05/02	2013/05/02	35045	2826769	440989			2013/05/01			BBG001MNQLN2	BBG001MNQLN2	WFC V4 04/30/21 MTN	WFC V0 04/30/21 MTN			No further information
BBEC	I	2013/05/02	2013/05/02	35046	4012823	485775			2013/05/01			BBG001NNL2W8	BBG001NNL2W8	SOCGEN V5 05/03/21 MTN	SOCGEN V0 05/03/21 MTN			No further information
BBEC	I	2013/05/02	2013/05/02	35047	3853398	443579			2013/05/01			BBG002W36L55	BBG002W36L55	MS V9 04/30/17 MTN	MS V0 04/30/17 MTN			No further information
BBEC	I	2013/05/02	2013/05/02	35050	4021869	488525			2013/05/01			BBG004DF7RD2	BBG004DF7RD2	HEES 7 09/01/22 WI	HEES 7 09/01/22			No further information
BBEC	I	2013/05/03	2013/05/03	35186	3625587	403952			2013/05/02			BBG00000CM51	BBG00000CM51	ALTE 7.2 04/14/17 REGS	MKL 7.2 04/14/17 REGS			No further information
BBEC	I	2013/05/03	2013/05/03	35187	1236631	404176			2013/05/02			BBG00000K5Q6	BBG00000K5Q6	ALTE 7.2 04/14/17 144A	MKL 7.2 04/14/17 144A			No further information
BBEC	I	2013/05/03	2013/05/03	35188	2126074	391599			2013/05/02			BBG0016PW2G8	BBG0016PW2G8	ALTE 6.25 09/30/20	MKL 6.25 09/30/20			No further information
BBEC	I	2013/05/06	2013/05/06	35255	2840662	441023			2013/05/03			BBG001NF5J56	BBG001NF5J56	RABOBK 2.675 05/03/21 MTN	RABOBK 2.925 05/03/21 MTN			No further information
BBEC	I	2013/05/06	2013/05/06	35297	1103080	404332			2013/05/03			BBG00000PQ76	BBG00000PQ76	TWC 8.375 07/15/33 +*	TWC 8.375 07/15/33			No further information
BBEC	I	2013/05/06	2013/05/06	35300	3636825	396376			2013/05/03			BBG002664894	BBG002664894	EMMAUS 5.625 06/01/28	EMMAUS 5.75 06/01/28			No further information
BBEC	I	2013/05/06	2013/05/06	35301	3636836	396377			2013/05/03			BBG0026648B1	BBG0026648B1	EMMAUS 5.625 12/01/28	EMMAUS 5.75 12/01/28			No further information
BBEC	I	2013/05/06	2013/05/06	35302	3746243	443624			2013/05/03			BBG002WHHLT6	BBG002WHHLT6	TIBX 2.25 05/01/32 144A	TIBX 2.25 05/01/32			No further information
BBEC	I	2013/05/07	2013/05/07	35470	4007205	483830			2013/05/06			BBG003FT3CF7	BBG003FT3CF7	SHBASS F 05/04/14	SHBASS F 06/04/14			No further information
BBEC	I	2013/05/07	2013/05/07	35496	1289036	361491			2013/05/06			BBG00000P5M5	BBG00000P5M5	DEXO 8.875 10/15/17 144A	DXM 8.875 10/15/17 144A			No further information
BBEC	I	2013/05/07	2013/05/07	35497	2301902	404415			2013/05/06			BBG00000SNL4	BBG00000SNL4	DEXO 8.875 10/15/17 REGS	DXM 8.875 10/15/17 REGS			No further information
BBEC	I	2013/05/07	2013/05/07	35501	2468168	440171			2013/05/06			BBG001D14M52	BBG001D14M52	RY F 05/06/14 MTN	RY F 06/06/14 MTN			No further information
BBEC	I	2013/05/07	2013/05/07	35502	3879215	444179			2013/05/06			BBG00366ZMT5	BBG00366ZMT5	INTNED 5.5 07/15/22 144A	VOYA 5.5 07/15/22 144A			No further information
BBEC	I	2013/05/07	2013/05/07	35503	3895401	444190			2013/05/06			BBG003676RJ5	BBG003676RJ5	INTNED 5.5 07/15/22 REGS	VOYA 5.5 07/15/22 REGS			No further information
BBEC	I	2013/05/07	2013/05/07	35506	4023478	489802			2013/05/06			BBG004DSD377	BBG004DSD377	DLX 6 11/15/20 WI	DLX 6 11/15/20			No further information
BBEC	I	2013/05/07	2013/05/07	35507	4024154	490185			2013/05/06			BBG004F0SP26	BBG004F0SP26	USFOOD 8.5 06/30/19 WI	USFOOD 8.5 06/30/19			No further information
BBEC	I	2013/05/07	2013/05/07	35508	4023078	490141			2013/05/06			BBG004H63N32	BBG004H63N32	RT 7.625 05/15/20 WI	RT 7.625 05/15/20			No further information
BBEC	I	2013/05/08	2013/05/08	35694	734903	369353			2013/05/07			BBG0000H4WP9	BBG0000H4WP9	CVH 5.95 03/15/17	AET 5.95 03/15/17			No further information
BBEC	I	2013/05/08	2013/05/08	35696	2743517	394693			2013/05/07			BBG001QQ9S91	BBG001QQ9S91	CVH 5.45 06/15/21	AET 5.45 06/15/21			No further information
BBEC	I	2013/05/08	2013/05/08	35698	4000107	481189			2013/05/07			BBG00473K8D3	BBG00473K8D3	JPM F 05/07/14 1	JPM F 06/07/14 1			No further information
BBEC	I	2013/05/09	2013/05/09	35748	2826032	394251			2013/05/08			BBG001NVL8H4	BBG001NVL8H4	DB V4 05/06/19 MTN	DB V0 05/06/19 MTN			No further information
BBEC	I	2013/05/09	2013/05/09	35840	1235511	377498			2013/05/08			BBG0008HVYV0	BBG0008HVYV0	CPNO 7.75 06/01/18 144A	KMP 7.75 06/01/18 144A			No further information
BBEC	I	2013/05/09	2013/05/09	35841	3254933	377499			2013/05/08			BBG0008HVYW9	BBG0008HVYW9	CPNO 7.75 06/01/18 REGS	KMP 7.75 06/01/18 REGS			No further information
BBEC	I	2013/05/09	2013/05/09	35845	2545739	393778			2013/05/08			BBG001LJNK20	BBG001LJNK20	CPNO 7.125 04/01/21	KMP 7.125 04/01/21			No further information
BBEC	I	2013/05/09	2013/05/09	35848	4000107	481189			2013/05/08			BBG00473K8D3	BBG00473K8D3	JPM F 06/07/14 1	JPM F 06/06/14 1			No further information
BBEC	I	2013/05/09	2013/05/09	35849	4023256	489722			2013/05/08			BBG004F4D6S8	BBG004F4D6S8	BCC 6.375 11/01/20 WI	BCC 6.375 11/01/20			No further information
BBEC	I	2013/05/10	2013/05/10	35899	3919806	448607			2013/05/09			BBG002XXHKW8	BBG002XXHKW8	BACR V3.25 05/11/17 MTN	BACR V0 05/11/17 MTN			No further information
BBEC	I	2013/05/10	2013/05/10	35957	2216661	439741			2013/05/09			BBG0018NF458	BBG0018NF458	PCS 6.625 11/15/20	TMUS 6.625 11/15/20			No further information
BBEC	I	2013/05/10	2013/05/10	35960	3997841	481204			2013/05/09			BBG0046V8QX4	BBG0046V8QX4	PCS 6.625 04/01/23 144A	TMUS 6.625 04/01/23 144A			No further information
EDI_ENDOFFILE
