EDI_MIFID_20161007
TableName	Actflag	Created	Changed	ISIN	SecID	StartDate	CompAuth	CntryCD	EndDate	MiFIDID
MIFID	I	2014/09/30	2014/09/30	DE0005227235	60868	2014/09/19	DEFFSA	DE		892
MIFID	I	2014/09/30	2014/09/30	DE0005550636	60772	2013/02/08	DEFFSA	DE		948
MIFID	I	2014/09/30	2014/09/30	DE0006048432	60752	2014/09/26	DEFFSA	DE		1013
MIFID	I	2014/09/30	2014/09/30	DE0006219934	65530	2014/09/11	DEFFSA	DE		1036
MIFID	I	2014/09/30	2014/09/30	DE0007165631	60756	2014/09/11	DEFFSA	DE		1112
MIFID	I	2014/09/30	2014/09/30	DE0007274136	60825	2014/03/27	DEFFSA	DE		1134
MIFID	I	2014/09/30	2014/09/30	DE0007664039	60960	2014/09/26	DEFFSA	DE		1173
MIFID	I	2014/09/30	2014/09/30	FR0011472943	4045922	2014/02/27	FRAMF	FR		2321
MIFID	I	2014/09/30	2014/09/30	GB0034353424	958198	2014/02/28	GBFCA	GB		2862
MIFID	I	2014/09/30	2014/09/30	GB00B018CS46	158491	2014/02/28	GBFCA	GB		2874
MIFID	I	2014/09/30	2014/09/30	GG00BDCSC847	631782	2014/09/02	GBFCA	GB		3436
MIFID	I	2014/09/30	2014/09/30	IT0000072626	82342	2014/02/26	ITCONSOB	IT		3988
MIFID	I	2014/09/30	2014/09/30	IT0001369427	76841	2014/02/26	ITCONSOB	IT		4059
MIFID	I	2014/09/30	2014/09/30	IT0003497176	104534	2014/02/26	ITCONSOB	IT		4132
EDI_ENDOFFILE
