EDI_SCMST_20161007
TableName	Actflag	Created	Changed	SecID	ISIN	ParentSecID	IssID	SectyCD	SecurityDesc	StatusFlag	PrimaryExchgCD	CurenCD	ParValue	USCode	CommonCode	Holding	StructCD	WKN	RegS144A	CFI	CIC	Notes
SCMST	U	2007/02/20	2012/12/04	532556	US40411EAB48		80294	BND	5.25% CB REDEEM 21/02/2017 USD 100000 - 144A	A	LULSE	USD	100000.00000	40411EAB4	028680988	BR		A0LM1E	144A	DTFUFR	LU26	
SCMST	U	2008/05/16	2013/08/01	843807	US00922KAA88		121446	BND	8.027% NT REDEEM 01/10/2020 USD 100000 - 144A Ser A	A	USAMEX	USD	100000.00000	00922KAA8	010408504	REG			144A	DBFSFR	US21	
SCMST	U	2007/08/07	2015/06/03	639134	USG60276AD73		115967	BND	FR NT REDEEM 14/04/2021 USD 250000 - 144A Cls E	A	IEISE	USD	250000.00000	G60276AD7	030818571	REG			144A	DBVSFR	IE28	
SCMST	U	2003/08/07	2015/09/07	106714	US0138172004		29586	PFS	3.75% PFS PERPETUAL USD 3.75	A	USAMEX	USD	3.75000	013817200			CEF	865468		EPRXFR	US29	
SCMST	U	2012/11/14	2015/10/27	3932134	US00650W4096		29406	PRF	10.875% PRF PERPETUAL USD 25 - Ser A	A	USAMEX	USD	25.00000	00650W409		REG	CEF			EPNRFR	US34	
SCMST	U	2016/08/05	2016/09/06	4856347	US0597022096		123242	PRF	5.375% PRF PERPETUAL USD 25 - Ser A	A	USAMEX	USD	25.00000	059702209		BE	CEF				US34	
SCMST	U	2015/10/17	2016/05/27	4627483	US09627J5083		159859	PRF	SU PRF PERPETUAL USD 25 - Ser A	A	USAMEX	USD	25.00000	09627J508		BE				EPRRCR	US34	
SCMST	U	2016/07/13	2016/08/04	4831133	US09627J7485		159859	PRF	SU PRF PERPETUAL USD 25 - Ser C	A	USAMEX	USD	25.00000	09627J748		BE	CEF				US34	
SCMST	U	2016/10/06	2016/10/07	4927014	US09627J6560		159859	PRF	7.125% PRF PERPETUAL USD 25 - Ser D	A	USOTC	USD	25.00000	09627J656								
SCMST	U	2005/08/26	2014/10/27	277058	US111022AA72		94228	BND	6.625% BD REDEEM 01/06/2018 USD 1000	A	USAMEX	USD	1000.00000	111022AA7		BE				DBFGFR	US21	
SCMST	U	2014/06/14	2015/07/10	4288375	US2927583078		78589	PRF	10% PRF PERPETUAL USD 25 - Ser A	A	USAMEX	USD	25.00000	292758307		BE				EPRRCR	US34	
SCMST	U	2011/07/02	2015/06/29	2814682	US30049A2069		38228	PRF	8.50% PRF PERPETUAL USD 25 - Ser A	A	USAMEX	USD	25.00000	30049A206		BE				EPNXCR	US34	
SCMST	U	2013/05/10	2016/05/04	4034391	US36465A3077		97797	PRF	5% PRF PERPETUAL USD 25 - Ser B	A	USAMEX	USD	25.00000	36465A307			CEF			EPVXFR	US34	
SCMST	U	2013/06/25	2015/06/02	4063354	US36242L2043		123291	PRF	SDFR PRF PERPETUAL USD 0.0001 - Ser A	A	USAMEX	USD	0.00010	36242L204						EUCISR	US34	
SCMST	U	2011/06/22	2014/09/16	2784852	US36729P2074		130648	PRF	8.625% PRF PERPETUAL USD 25 - Ser A	A	USAMEX	USD	25.00000	36729P207	074195644	BE				EPVRFR	US34	
SCMST	U	2013/10/30	2015/09/09	4134330	US36729P3064		130648	PRF	10.75% PRF PERPETUAL USD 25 - Ser B	A	USAMEX	USD	25.00000	36729P306		BE				EPVRCR	US34	
SCMST	U	2008/12/11	2016/04/06	1265252	US43162L2060		97580	SP	11.60% SP REDEEM 30/09/2027 USD 25	A	USAMEX	USD	25.00000	43162L206		BE	TRUPS			EPVXCR	US31	
SCMST	U	2014/05/17	2015/09/07	4269194	US90131G2066		163739	PRF	PRF PERPETUAL USD - Ser A	A	USAMEX	USD		90131G206			CEF			EFNXFR	US34	
SCMST	U	2008/11/18	2016/04/06	1238899	US45408V2034		125554	SP	6.0518% SP TRUCS REDEEM 15/05/2033 USD 25	A	USAMEX	USD	25.00000	45408V203		BE	TRUCS			EPVXQR	US31	
SCMST	U	2008/06/10	2008/08/26	956413	US524908FJ48		35557	BND	ZC NT REDEEM 29/04/2010 USD 1000	D	USAMEX	USD	1000.00000	524908FJ4		REG					US21	
SCMST	U	2016/04/20	2016/04/29	4755556	US55280YAA82		182175	BND	6% NT REDEEM 22/04/2026 USD 1000	A	USNYSE	USD	1000.00000	55280YAA8						DBFGGR	US21	
SCMST	U	2013/05/29	2015/06/01	4047326	US50575Q2012		33722	PRF	8% PRF PERPETUAL USD 25 - Ser A	A	USAMEX	USD	25.00000	50575Q201		BR				EFNRCR	US34	
SCMST	U	2003/08/12	2016/05/20	107296	US6943082064		72036	PRF	6% PRF PERPETUAL USD 25 - 1St Preference 6.00%	A	USAMEX	USD	25.00000	694308206				854584		EPXXXX	US34	
SCMST	U	2002/12/12	2016/05/20	87425	US6943083054		72036	PRF	5.50% PRF PERPETUAL USD 25 - 1St Preference 5.50%	A	USAMEX	USD	25.00000	694308305						EPXXXX	US34	
SCMST	U	2003/08/12	2016/05/20	107287	US6943084045		72036	PRF	5% PRF PERPETUAL USD 25 - 1St Pref	A	USAMEX	USD	25.00000	694308404						EPXXXX	US34	
SCMST	U	2003/08/12	2016/05/20	107295	US6943085034		72036	PRF	5% PRF PERPETUAL USD 25 - 1St Pref 694308503	A	USAMEX	USD	25.00000	694308503						EPXXXX	US34	
SCMST	U	2003/08/12	2016/05/20	107291	US6943086024		72036	PRF	PRF PERPETUAL USD 25 - 1St Pref Ser A	A	USAMEX	USD	25.00000	694308602				865469		EPXXXX	US34	
SCMST	U	2003/08/12	2016/05/20	107285	US6943087014		72036	PRF	4.80% PRF PERPETUAL USD 25 - 1St Preference 4.80%	A	USAMEX	USD	25.00000	694308701				863746		EPXXXX	US34	
SCMST	U	2003/08/12	2016/05/20	107282	US6943088004		72036	PRF	4.50% PRF PERPETUAL USD 25 - 1St Preference 4.50%	A	USAMEX	USD	25.00000	694308800						EPXXXX	US34	
SCMST	U	2003/08/12	2016/05/20	107280	US6943088830		72036	PRF	4.36% PRF PERPETUAL USD 25 - 1St Pref	A	USAMEX	USD	25.00000	694308883				855757		EPXXXX	US34	
SCMST	U	2014/03/18	2016/03/31	4223073	US73933H2004		90832	PRF	7.75% PRF PERPETUAL USD 25 - Ser A	A	USAMEX	USD	25.00000	73933H200		BE				EPVXCR	US34	
SCMST	U	2013/12/18	2015/09/29	4161866	US75025X2099		89645	PRF	9.75% PRF PERPETUAL USD 25 - Ser A	A	USAMEX	USD	25.00000	75025X209						EPNRCR	US34	
SCMST	U	2002/12/31	2016/05/20	88327	US8424002025		72244	PRF	4.08% PRF PERPETUAL USD 25	A	USAMEX	USD	25.00000	842400202						EPXXXX	US34	
SCMST	U	2002/12/31	2016/05/20	88329	US8424003015		72244	PRF	4.24% PRF PERPETUAL USD 25	A	USAMEX	USD	25.00000	842400301				260235		EPXXXX	US34	
SCMST	U	2002/12/31	2016/05/20	88330	US8424004005		72244	PRF	4.32% PRF PERPETUAL USD 25	A	USAMEX	USD	25.00000	842400400				260237		EPXXXX	US34	
SCMST	U	2002/12/31	2016/05/20	88331	US8424005093		72244	PRF	4.78% PRF PERPETUAL USD 25	A	USAMEX	USD	25.00000	842400509				260236		EPXXXX	US34	
SCMST	U	2014/10/24	2015/09/07	4371260	US98872E2072		38067	PRF	9.25% PRF PERPETUAL USD 25 - Ser A	A	USAMEX	USD	25.00000	98872E207		BE	CEF			EPVRCR	US34	
SCMST	I	2015/11/20	2015/11/20	4649033			104746	BND	2% NT CONVERT 31/12/2021 USD	A	USBND	USD									XL22	
SCMST	U	2016/06/27	2016/09/16	4815182	USG5725XAQ63		177030	BND	FR BD REDEEM 30/09/2019 USD 1	A	USBND	USD	1.00000	G5725XAQ6		REG				DBVUGR	XL21	
SCMST	U	2004/03/12	2013/01/30	138242	US117765AA54		80370	BND	7.90% BD REDEEM 15/01/2027 USD 1000	A	USBND	USD	1000.00000	117765AA5		REG				DBFGGR	XL21	
SCMST	U	2004/03/16	2012/08/17	139420	US38741TAC45		80581	BND	FR NT REDEEM 20/01/2020 USD 1000 - Ser 1 Cl `A3` VAR	A	USBND	USD	1000.00000	38741TAC4	016074730	REG					XL21	
SCMST	U	2004/03/16	2012/08/17	139427	US38741TAD28		80581	BND	FR NT REDEEM 20/01/2043 USD 1000 - Ser`1` Cls`B` VAR	A	USBND	USD	1000.00000	38741TAD2	016072940	REG					XL21	
SCMST	U	2004/03/22	2012/08/17	140995	US38741TAE01		80581	BND	FR NT REDEEM 20/01/2043 USD 1000 - Cl `C` Ser 1 VAR	A	USBND	USD	1000.00000	38741TAE0	016073016	REG					XL21	
SCMST	U	2004/06/03	2013/04/19	154062	US71419QAH11		82421	BND	FR NT REDEEM 10/06/2042 USD 1000 - Ser 3 Cls A	A	USBND	USD	1000.00000	71419QAH1	018793164	REG					XL21	
SCMST	U	2004/06/03	2013/04/19	154065	US71419QAJ76		82421	BND	FR NT REDEEM 10/06/2042 USD 1000 - Ser 3 Cls B	A	USBND	USD	1000.00000	71419QAJ7	018793245	REG					XL21	
SCMST	U	2004/06/03	2013/04/19	154067	US71419QAL23		82421	BND	FR NT REDEEM 10/06/2042 USD 1000 - Ser 3 Cls M	A	USBND	USD	1000.00000	71419QAL2	018793270	REG					XL21	
SCMST	U	2004/06/03	2013/04/19	154069	US71419QAK40		82421	BND	FR NT REDEEM 10/06/2042 USD 1000 - Ser 3 Cls C	A	USBND	USD	1000.00000	71419QAK4	018793296	REG					XL21	
SCMST	U	2004/07/24	2013/10/26	165024	US71419NAJ46		83492	BND	FR NT REDEEM 10/06/2042 USD 1000 - Ser 3 Cls C	A	USBND	USD	1000.00000	71419NAJ4	019720136	REG					XL21	
SCMST	U	2004/07/24	2013/10/26	165034	US71419NAF24		83492	BND	FR NT REDEEM 10/06/2042 USD 1000 - Ser 2 Cls C	A	USBND	USD	1000.00000	71419NAF2	019719782	REG					XL21	
SCMST	U	2004/09/30	2013/07/13	182803	USG3616EAA04		85708	BND	FR NT REDEEM 15/07/2016 USD 1000000 - Cls A1 Reg S	D	USBND	USD	1000000.00000	G3616EAA0	018051907	REG			REGS		XL21	
SCMST	U	2005/04/08	2016/01/25	235753	US71419VAB36		90943	BND	FR NT REDEEM 10/06/2042 USD 75000 - Ser `1` Cls `B`	A	USBND	USD	75000.00000	71419VAB3	021554863	REG					XL21	
SCMST	U	2005/04/08	2016/01/25	235802	US71419VAF40		90943	BND	FR NT REDEEM 10/06/2042 USD 75000 - Ser `2` Cls `C`	A	USBND	USD	75000.00000	71419VAF4		REG					XL21	
SCMST	U	2005/04/08	2016/01/25	235808	US71419VAE74		90943	BND	FR NT REDEEM 10/06/2042 USD 75000 - Ser `2` Cls `B`	A	USBND	USD	75000.00000	71419VAE7	021555037	REG					XL21	
SCMST	U	2005/04/08	2012/01/04	235810	US71419VAC19		90943	BND	FR NT REDEEM 10/06/2042 USD 75000 - Ser `1` Cls `C`	A	USBND	USD	75000.00000	71419VAC1		REG					XL21	
SCMST	U	2005/06/22	2016/01/25	255625	US71419WAE57		92337	BND	FR BD REDEEM 10/06/2042 USD 75000 - Ser `2` Cls `B`	A	USBND	USD	75000.00000	71419WAE5	022096737	REG					XL21	
SCMST	U	2005/06/22	2016/01/25	255636	US71419WAF23		92337	BND	FR BD REDEEM 10/09/2032 USD 75000 - Ser `2` Cls `C`	A	USBND	USD	75000.00000	71419WAF2	022096834	REG					XL21	
SCMST	U	2005/06/22	2012/01/04	255644	US71419WAG06		92337	BND	FR NT REDEEM 10/09/2032 USD 75000 - Ser 3 Cls A	A	USBND	USD	75000.00000	71419WAG0	022096931	REG					XL21	
SCMST	U	2005/06/27	2010/08/26	258357			88480	BND	5.20% NT REDEEM 18/02/2020 USD	A	USBND	USD									XL21	
SCMST	U	2005/07/12	2013/10/23	265300	USG6843PAA33		159136	BND	FR NT REDEEM 15/02/2017 USD 200000 - Reg S Cls A/1L	A	USBND	USD	200000.00000	G6843PAA3	020779411	REG			REGS	DBVUGR	XL21	
SCMST	U	2005/07/12	2013/10/23	265303	USG6843PAB16		159136	BND	FR NT REDEEM 15/02/2017 USD 200000 - Reg S Cls A/2L	A	USBND	USD	200000.00000	G6843PAB1	020779462	REG			REGS	DBVUGR	XL21	
SCMST	U	2005/07/12	2013/10/23	265305	USG6843PAC98		159136	BND	FR NT REDEEM 15/02/2017 USD 200000 - Reg S Cls A/3L	A	USBND	USD	200000.00000	G6843PAC9	020779519	REG			REGS	DBVUGR	XL21	
SCMST	U	2005/07/12	2013/10/22	265307	USG6843PAD71		93041	BND	FR NT REDEEM 15/02/2017 USD 200000 - Reg S Cls B/1L	A	USBND	USD	200000.00000	G6843PAD7	020779683	REG			REGS	DBVUGR	XL21	
SCMST	U	2005/07/12	2012/08/16	265336	USG6792JAA81		93046	BND	FR NT REDEEM 05/02/2043 USD 500000 - CLS `A1`	A	USBND	USD	500000.00000	G6792JAA8	021639346	REG					XL21	
SCMST	U	2005/07/12	2012/08/16	265337	USG6792JAB64		93046	BND	FR NT REDEEM 05/02/2043 USD 500000 - CLS `A2`	A	USBND	USD	500000.00000	G6792JAB6	021639397	REG					XL21	
SCMST	U	2005/07/12	2012/08/20	265339	USG6792JAC48		93046	BND	FR NT REDEEM 05/02/2043 USD 500000 - CLS `A3`	A	USBND	USD	500000.00000	G6792JAC4	021639451	REG				DBVSFR	XL21	
SCMST	U	2005/07/12	2012/08/16	265341	USG6792JAD21		93046	BND	FR NT REDEEM 05/02/2043 USD 500000 - CLS `B`	A	USBND	USD	500000.00000	G6792JAD2	021639427	REG					XL28	
SCMST	U	2005/07/16	2014/03/03	266666	USG2233HAA89		93217	BND	FR NT REDEEM 25/09/2045 USD 10000 - Class `A`	A	USBND	USD	10000.00000	G2233HAA8	022127004	REG				DBVSFR	XL21	
SCMST	U	2005/07/16	2014/03/03	266667	USG2233HAB62		93217	BND	FR NT REDEEM 25/09/2045 USD 10000 - Class `B`	A	USBND	USD	10000.00000	G2233HAB6	022127195	REG					XL21	
SCMST	U	2005/07/16	2014/03/03	266669	USG2233HAC46		93217	BND	FR NT REDEEM 25/09/2045 USD 10000 - Class`C`	A	USBND	USD	10000.00000	G2233HAC4	022127292						XL21	
SCMST	U	2005/07/25	2012/01/04	269696	US71419WAH88		92337	BND	FR NT REDEEM 10/06/2042 USD 75000	A	USBND	USD	75000.00000	71419WAH8	022097024	BE					XL21	
SCMST	U	2005/07/25	2012/01/04	269697	US71419WAJ45		92337	BND	FR NT REDEEM 10/06/2042 USD 75000 - Ser 3 Cls C	A	USBND	USD	75000.00000	71419WAJ4	022097075	BE					XL21	
SCMST	U	2005/08/09	2013/12/20	272924	US90261XAR35		93897	BND	FR NT REDEEM 01/06/2020 USD 1000	A	USBND	USD	1000.00000	90261XAR3	033705913						XL21	
SCMST	U	2005/08/11	2010/01/28	273401	XS0212763329		80199	BND	FR NT REDEEM 08/03/2017 EUR 10000	A	USBND	EUR	10000.00000		021276332						XL21	
SCMST	U	2005/08/26	2014/04/03	277035	USG5805XAD87		94174	BND	FR NT REDEEM 26/07/2019 USD 1 - Class `C`	A	USBND	USD	1.00000	G5805XAD8	021705080						XL21	
SCMST	U	2005/11/09	2010/10/04	299540	US52668VAA35		95607	BND	FR NT REDEEM 21/04/2020 EUR 250000 - Cls A1 144A	A	USBND	EUR	250000.00000	52668VAA3		REG			144A		XL21	
SCMST	U	2005/11/09	2010/10/04	299545	US52668VAK17		95607	BND	ZC NT REDEEM 21/04/2020 EUR 250000 - Cls A2 144A	A	USBND	EUR	250000.00000	52668VAK1		REG			144A		XL21	
SCMST	U	2005/11/09	2010/10/04	299547	US52668VAB18		95607	BND	FR NT REDEEM 21/04/2020 EUR 250000 - Cls B 144A	A	USBND	EUR	250000.00000	52668VAB1		REG			144A		XL21	
SCMST	U	2005/11/09	2010/10/04	299548	US52668VAC90		95607	BND	FR NT REDEEM 21/04/2020 EUR 250000 - Cls C1 144A	A	USBND	EUR	250000.00000	52668VAC9		REG			144A		XL21	
SCMST	U	2005/11/11	2014/04/07	300768	USG30405AA57		95674	BND	FR NT REDEEM 15/11/2019 USD 500000 - Reg S Cls A1	A	USBND	USD	500000.00000	G30405AA5	023018896	REG			REGS		XL21	
SCMST	U	2005/11/11	2014/04/03	300776	USG30405AB31		95674	BND	FR NT REDEEM 15/11/2019 USD 500000 - Reg S Cls A2	A	USBND	USD	500000.00000	G30405AB3	023018942	REG			REGS		XL21	
SCMST	U	2005/11/11	2011/11/18	300785	USG30405AC14		95674	BND	FR NT REDEEM 15/11/2019 USD 100000 - Reg S Cls B	A	USBND	USD	100000.00000	G30405AC1	023018977	REG			REGS	DBVUFR	XL28	
SCMST	U	2005/11/11	2011/11/16	300790	USG30405AD96		95674	BND	FR NT REDEEM 15/11/2019 USD 500000 - Reg S Cls C	A	USBND	USD	500000.00000	G30405AD9	023019035	REG			REGS		XL28	
SCMST	U	2005/11/12	2014/04/12	301698	USG5606WAA74		95720	BND	FR NT REDEEM 28/02/2043 USD 250000 - Cls A Reg S	A	USBND	USD	250000.00000	G5606WAA7		REG			REGS		XL21	
SCMST	U	2005/11/12	2015/08/20	301745	USG8655GAC27		94801	BND	FXDFR NT REDEEM 05/02/2036 USD 250000 - Reg S Cls A/1C	A	USBND	USD	250000.00000	G8655GAC2	023049040	REG			REGS	DBVSGR	XL21	
SCMST	U	2005/12/29	2012/09/19	320054	USG7353WAA83		96680	BND	FR NT REDEEM 16/11/2040 USD 500000 - Reg S Cls A1A	A	USBND	USD	500000.00000	G7353WAA8		DFR			REGS		XL21	
SCMST	U	2005/12/29	2012/05/31	320060	USG7353WAB66		96680	BND	FR NT REDEEM 16/11/2040 USD 500000 - Reg S Cls A1B	A	USBND	USD	500000.00000	G7353WAB6	023569078	DFR			REGS		XL21	
SCMST	U	2005/12/29	2012/09/19	320064	USG7353WAC40		96680	BND	FR NT REDEEM 16/11/2040 USD 500000 - Reg S Cls A2	A	USBND	USD	500000.00000	G7353WAC4	023569116	DFR			REGS		XL21	
SCMST	U	2005/12/29	2012/05/31	320066	USG7353WAD23		96680	BND	FR NT REDEEM 16/11/2040 USD 500000 - Reg S Cls B	A	USBND	USD	500000.00000	G7353WAD2	023569132	DFR			REGS		XL21	
SCMST	U	2005/12/29	2012/05/31	320069	USG7353WAE06		96680	BND	FR NT REDEEM 16/11/2040 USD 500000 - Reg S Cls C	A	USBND	USD	500000.00000	G7353WAE0	023569167	DFR			REGS		XL28	
SCMST	U	2006/01/16	2014/01/04	326317	USG02490AA11		97022	BND	FR NT REDEEM 03/07/2041 USD 250000 - Reg S Cls A1	A	USBND	USD	250000.00000	G02490AA1	023562197	REG			REGS	DBVSGR	XL21	
SCMST	U	2006/01/16	2014/01/04	326320	USG02490AB93		97022	BND	FR NT REDEEM 03/07/2041 USD 250000 - Reg S Cls A2	A	USBND	USD	250000.00000	G02490AB9	023562111	REG			REGS	DBVSGR	XL21	
SCMST	U	2006/01/16	2014/01/04	326322	USG02490AC76		97022	BND	FR NT REDEEM 03/07/2041 USD 250000 - Reg S Cls B	A	USBND	USD	250000.00000	G02490AC7	023562260	REG			REGS	DBVSGR	XL21	
SCMST	U	2006/01/16	2014/01/04	326328	USG02490AD59		97022	BND	FR NT REDEEM 03/07/2041 USD 250000 - Reg S Cls C	A	USBND	USD	250000.00000	G02490AD5	023562308	REG			REGS	DBVSGR	XL21	
SCMST	U	2006/01/16	2014/01/04	326333	USG02490AE33		97022	BND	FR NT REDEEM 03/07/2041 USD 250000 - Reg S Cls D	A	USBND	USD	250000.00000	G02490AE3	023562391	REG			REGS		XL21	
SCMST	U	2006/01/21	2014/02/18	328137	USG0060AAA54		161494	BND	FR NT REDEEM 25/11/2037 USD 250000 - Cls `A1 Reg S	A	USBND	USD	250000.00000	G0060AAA5	015856572	DFR			REGS	DBVSGR	XL21	
SCMST	U	2006/01/21	2014/02/18	328143	USG0060AAC11		161494	BND	FR NT REDEEM 25/11/2037 USD 250000 - Cls A2 Reg S	A	USBND	USD	250000.00000	G0060AAC1	015856688	DFR			REGS	DBFUGR	XL21	
SCMST	U	2006/01/21	2015/08/20	328148	USG0060AAD93		97129	BND	FR NT REDEEM 25/11/2037 USD 250000 - Reg S Cls A3	A	USBND	USD	250000.00000	G0060AAD9	015856831	REG			REGS	DBVUGR	XL21	
SCMST	U	2006/01/21	2015/08/17	328152	USG0060AAB38		161494	BND	FR NT REDEEM 25/11/2037 USD 250000 - Cls B Reg S	A	USBND	USD	250000.00000	G0060AAB3	015857013	DFR			REGS	DBVSGR	XL21	
SCMST	U	2006/01/21	2014/08/06	328156	USG00605AA66		97129	BND	FR NT REDEEM 25/11/2037 USD 250000 - Reg S Cls C1	A	USBND	USD	250000.00000	G00605AA6	015857170	REG			REGS	DBVUGR	XL21	
SCMST	U	2006/01/21	2015/08/20	328161	USG00605AD06		97129	BND	FR NT REDEEM 25/11/2037 USD 250000 - Cls C2 Reg S	A	USBND	USD	250000.00000	G00605AD0	015859148	BR			REGS	DBVUGR	XL21	
SCMST	U	2006/01/21	2015/08/20	328165	USG00605AB40		97129	BND	FR NT REDEEM 25/11/2037 USD 500000 - Cls 1 Reg S	A	USBND	USD	500000.00000	G00605AB4	015859300	BR			REGS	DBFUGR	XL21	
SCMST	U	2006/01/21	2013/08/30	328167	USG00605AC23		97129	BND	FR NT REDEEM 25/11/2037 USD 500000 - Cls 2 Reg S	A	USBND	USD	500000.00000	G00605AC2	015859407	BR			REGS	DBFUGR	XL21	
SCMST	U	2006/01/27	2015/08/28	329659	USG00929AB80		97274	BND	FR NT REDEEM 06/02/2041 USD 100000 - Class `A2` Reg S	A	USBND	USD	100000.00000	G00929AB8	023498766	REG			REGS		XL21	
SCMST	U	2006/01/27	2015/08/31	329660	USG00929AC63		97274	BND	FR NT REDEEM 06/02/2041 USD 100000 - Class `B` Reg S	A	USBND	USD	100000.00000	G00929AC6	023497034	REG			REGS		XL21	
SCMST	U	2006/01/27	2014/03/03	329661	USG00929AD47		97274	BND	FR NT REDEEM 06/02/2041 USD 100000 - Class `C` Reg S	A	USBND	USD	100000.00000	G00929AD4	023499002	REG			REGS		XL21	
SCMST	U	2006/01/27	2014/03/03	329662	USG00929AE20		97274	BND	FR NT REDEEM 06/02/2041 USD 100000 - Class `D` Reg S	A	USBND	USD	100000.00000	G00929AE2	023518422	REG			REGS		XL21	
SCMST	U	2006/02/07	2015/05/26	333750	US84129VAA98		97152	BND	FR NT REDEEM 06/08/2039 USD 1000000 - 144A Cls A1	A	USBND	USD	1000000.00000	84129VAA9	019612864	REG			144A	DBVSGR	XL21	
SCMST	U	2006/02/22	2015/05/26	338045	USG4160EAA85		97728	BND	FR NT REDEEM 05/03/2040 USD 500000 - Class `A1` Reg `S`	A	USBND	USD	500000.00000	G4160EAA8	021547611	REG			REGS	DBVSGR	XL21	
SCMST	U	2006/02/22	2015/05/26	338048	USG4160EAB68		97728	BND	FR NT REDEEM 05/03/2040 USD 500000 - Reg S Cls A2	A	USBND	USD	500000.00000	G4160EAB6	021547646	REG			REGS	DBVSGR	XL21	
SCMST	U	2006/02/22	2014/03/28	338049	USG4160EAC42		97728	BND	FR NT REDEEM 05/03/2040 USD 500000 - Reg S Cls A3	A	USBND	USD	500000.00000	G4160EAC4	021547654	REG			REGS	DBVSGR	XL21	
SCMST	U	2006/02/23	2013/10/21	338946	USG41601AA64		97728	BND	AFB NT REDEEM 05/03/2040 USD 250000 - Reg S	A	USBND	USD	250000.00000	G41601AA6		REG			REGS	DBFSGR	XL21	
SCMST	U	2006/02/25	2015/09/01	340593	US10620NAG34		97809	BND	FR LN REDEEM 25/11/2020 USD 100000 - Series `2005 I/A/13`	A	USBND	USD	100000.00000	10620NAG3	023635119	BR					XL29	
SCMST	U	2006/02/25	2015/09/01	340600	US10620NAH17		97809	BND	FR LN REDEEM 25/11/2023 USD 100000 - Series `2005 I/A/14`	A	USBND	USD	100000.00000	10620NAH1	023636310	BR				DBVUGR	XL29	
SCMST	U	2006/02/25	2013/07/02	340602	US10620NAJ72		97809	BND	FR LN REDEEM 25/03/2025 USD 100000 - Series `2005 I/A/15`	A	USBND	USD	100000.00000	10620NAJ7	023636654	BR					XL29	
SCMST	U	2006/02/25	2013/07/02	340605	US10620NAK46		97809	BND	FR LN REDEEM 25/06/2026 USD 100000 - Series `2005 I/A/16`	A	USBND	USD	100000.00000	10620NAK4	023636689	BR				DBVUGR	XL29	
SCMST	U	2006/03/04	2012/05/17	342781	US89413AAA97		97997	BND	FR NT REDEEM 27/01/2040 USD 100000 - 144A Cls A1	A	USBND	USD	100000.00000	89413AAA9	023989476	REG			144A		XL21	
SCMST	U	2006/03/04	2012/05/17	342835	US89413AAC53		97997	BND	FR NT REDEEM 27/01/2040 USD 100000 - 144A	A	USBND	USD	100000.00000	89413AAC5	023991276	REG			144A		XL21	
SCMST	U	2006/03/04	2012/05/17	342866	US89413AAD37		97997	BND	FR NT REDEEM 27/01/2040 USD 100000 - 144A Cls B1	A	USBND	USD	100000.00000	89413AAD3	023991322	REG			144A		XL21	
SCMST	U	2006/03/04	2014/04/17	342911	US89413AAE10		97997	BND	FXDFR NT REDEEM 27/01/2040 USD 100000 - 144A Cls B2	A	USBND	USD	100000.00000	89413AAE1	023991357	REG			144A		XL21	
SCMST	U	2006/03/06	2012/05/17	343440	US87337UAA25		98017	BND	FR NT REDEEM 30/08/2045 USD 1000000 - 144A Cls A	A	USBND	USD	1000000.00000	87337UAA2	023955849	REG			144A		XL21	
SCMST	U	2006/03/06	2012/05/19	343443	US87337UAB08		98017	BND	FR NT REDEEM 30/08/2045 USD 1000000 - 144A Cls B	A	USBND	USD	1000000.00000	87337UAB0	023956853	REG			144A		XL21	
SCMST	U	2006/03/06	2012/05/19	343454	US87337UAD63		98017	BND	FR NT REDEEM 30/08/2045 USD 1000000 - 144A Cls D	A	USBND	USD	1000000.00000	87337UAD6	023957167	REG			144A		XL21	
SCMST	U	2006/03/06	2012/05/19	343459	US87337UAE47		98017	BND	FR NT REDEEM 30/08/2045 USD 1000000 - 144A Cls E	A	USBND	USD	1000000.00000	87337UAE4	023957248	REG			144A		XL21	
SCMST	U	2006/03/23	2016/05/24	348899	US71419XAC74		98416	BND	FR NT REDEEM 10/06/2042 USD 75000 - Ser `1`Cls `C` 144A	A	USBND	USD	75000.00000	71419XAC7	024852016	BR			144A		XL21	
SCMST	U	2006/03/23	2016/05/24	348909	US71419XAE31		98416	BND	FR NT REDEEM 10/06/2042 USD 75000 - Ser `2` Cls `B` 144A	A	USBND	USD	75000.00000	71419XAE3	024852075	BR			144A		XL28	
SCMST	U	2006/03/24	2013/11/01	349213	USG3825PAA24		98436	BND	FR NT REDEEM 08/09/2045 USD 500000 - Reg S Cls A/1a	A	USBND	USD	500000.00000	G3825PAA2	022688758	REG			REGS		XL21	
SCMST	U	2006/03/24	2014/04/25	349217	USG3825PAB07		98436	BND	FR NT REDEEM 08/09/2045 USD 500000 - Reg S Cls A2	A	USBND	USD	500000.00000	G3825PAB0	022688928	REG			REGS		XL21	
SCMST	U	2006/03/24	2014/04/25	349222	USG3825PAC89		98436	BND	FR NT REDEEM 08/09/2045 USD 500000 - Reg S Cls B	A	USBND	USD	500000.00000	G3825PAC8	022689088	REG			REGS		XL21	
SCMST	U	2006/03/24	2014/04/25	349225	USG3825PAD62		98436	BND	FR NT REDEEM 08/09/2045 USD 500000 - Reg S	A	USBND	USD	500000.00000	G3825PAD6	022689363	REG			REGS		XL21	
SCMST	U	2006/03/28	2014/04/22	350728	USG56431AA01		98491	BND	FR NT REDEEM 03/05/2046 USD 250000 - Reg S Cls A/1	A	USBND	USD	250000.00000	G56431AA0	024153606	REG			REGS	DBVSFR	XL21	
SCMST	U	2006/03/28	2012/04/17	350731	USG56431AB83		98491	BND	FR NT REDEEM 03/05/2046 USD 250000 - Reg S	A	USBND	USD	250000.00000	G56431AB8	024153614	REG			REGS	DBVSFR	XL21	
SCMST	U	2006/03/28	2012/06/01	350735	USG56431AC66		98491	BND	FR NT REDEEM 03/05/2046 USD 250000 - Reg S ClsB	A	USBND	USD	250000.00000	G56431AC6	024153665	REG			REGS	DBVSFR	XL21	
SCMST	U	2006/03/28	2012/06/01	350745	USG56431AD40		98491	BND	FR NT REDEEM 03/05/2046 USD 250000 - Reg S Cls C	A	USBND	USD	250000.00000	G56431AD4	024153673	REG			REGS	DBVSFR	XL21	
SCMST	U	2006/03/28	2012/06/01	350750	USG56431AE23		98491	BND	FR NT REDEEM 03/05/2046 USD 250000 - Reg S Cls D	A	USBND	USD	250000.00000	G56431AE2	024153762	REG			REGS	DBVSFR	XL21	
SCMST	U	2006/03/28	2014/05/10	350782	USG41592AA73		98500	BND	FR NT REDEEM 10/08/2039 USD 500000 - Reg S Cls A1	A	USBND	USD	500000.00000	G41592AA7	019866637	REG			REGS		XL21	
SCMST	U	2006/03/28	2014/05/10	350783	USG41592AF60		98500	BND	FR NT REDEEM 10/08/2039 USD 500000 - Reg S Cls A2A	A	USBND	USD	500000.00000	G41592AF6	019866645	REG			REGS		XL21	
SCMST	U	2006/03/28	2014/05/10	350787	USG41592AG44		98500	BND	5.566% NT REDEEM 10/08/2039 USD 500000 - Reg S Cls A2b	A	USBND	USD	500000.00000	G41592AG4	019866688	REG			REGS		XL21	
SCMST	U	2006/03/28	2014/05/10	350791	USG41592AD13		98500	BND	FR NT REDEEM 10/08/2039 USD 500000 - Reg S Cls B	A	USBND	USD	500000.00000	G41592AD1	019866696	REG			REGS		XL21	
SCMST	U	2006/03/28	2014/05/10	350795	USG41592AH27		98500	BND	FR NT REDEEM 10/08/2039 USD 500000 - Reg S Cls C1a	A	USBND	USD	500000.00000	G41592AH2	019866700	REG			REGS		XL28	
SCMST	U	2006/03/28	2014/05/10	350797	USG41592AJ82		98500	BND	7.881% NT REDEEM 10/08/2039 USD 500000 - Reg S Cls C1b	A	USBND	USD	500000.00000	G41592AJ8	019866742	REG			REGS		XL28	
SCMST	U	2006/03/29	2015/08/24	351085	USG4204AAA46		98527	BND	FR NT REDEEM 25/05/2030 USD 250000 - Reg S Cls A	A	USBND	USD	250000.00000	G4204AAA4	021971227	REG			REGS		XL21	
SCMST	U	2006/03/29	2015/08/24	351091	USG4204AAB29		98527	BND	FR NT REDEEM 25/05/2030 USD 250000 - Reg S Cls B	A	USBND	USD	250000.00000	G4204AAB2	021971243	REG			REGS		XL21	
SCMST	U	2006/03/29	2011/09/22	351117	US14308WAA71		95718	BND	FR NT REDEEM 30/09/2019 USD 250000 - 144A Cls A1	A	USBND	USD	250000.00000	14308WAA7	022942000	REG			144A		XL21	
SCMST	U	2006/03/29	2015/08/24	351132	US14308WAD11		95718	BND	FR NT REDEEM 30/09/2019 USD 250000 - 144A Cls A3	A	USBND	USD	250000.00000	14308WAD1	022973207	REG			144A		XL21	
SCMST	U	2006/03/29	2015/08/24	351251	USG33323AA76		98560	BND	FR NT REDEEM 30/07/2017 USD 250000 - Reg S	A	USBND	USD	250000.00000	G33323AA7	023324555	REG			REGS		XL21	
SCMST	U	2006/03/29	2012/09/14	351259	USG33323AB59		98560	BND	FR NT REDEEM 30/07/2017 USD 250000 - Reg S Cls B	A	USBND	USD	250000.00000	G33323AB5	023324725	DFR			REGS		XL21	
SCMST	U	2006/03/29	2015/08/24	351266	USG33323AC33		98560	BND	5.528% NT REDEEM 30/07/2017 USD 250000 - Reg S	A	USBND	USD	250000.00000	G33323AC3	023325039	REG			REGS		XL21	
SCMST	U	2006/03/29	2015/08/24	351273	USG33323AD16		98560	BND	FR NT REDEEM 30/07/2017 USD 250000 - Reg S Cls D1	A	USBND	USD	250000.00000	G33323AD1	023325349	REG			REGS		XL21	
SCMST	U	2006/03/29	2015/08/24	351284	USG33323AE98		98560	BND	6.765% NT REDEEM 30/07/2017 USD 250000 - Reg S Cls D2	A	USBND	USD	250000.00000	G33323AE9	023325535	REG			REGS		XL21	
SCMST	U	2006/03/30	2012/06/27	351441	US124670AD28		98552	BND	FR NT REDEEM 16/02/2041 USD 250000 - 144A Cls D	A	USBND	USD	250000.00000	124670AD2		REG			144A		XL21	
SCMST	U	2006/03/31	2011/11/16	351852	USG30405AE79		95674	BND	AFB NT REDEEM 15/11/2019 USD 500000 - Reg S Cls S1	A	USBND	USD	500000.00000	G30405AE7	023019060	REG			REGS		XL28	
SCMST	U	2006/03/31	2011/11/18	351856	USG30405AF45		95674	BND	5% NT REDEEM 15/11/2019 USD 100000 - Reg S Cls S2	A	USBND	USD	100000.00000	G30405AF4	023058057	REG			REGS	DBFSFR	XL28	
SCMST	U	2006/04/03	2013/07/02	352714	US10620NAC20		97809	BND	FR LN REDEEM 26/12/2019 USD 1000 - Ser `2005 I_A_10`	A	USBND	USD	1000.00000	10620NAC2	022344633					DBVSGR	XL29	
SCMST	U	2006/04/03	2013/07/03	352718	US10620NAD03		97809	BND	FR NT REDEEM 27/09/2021 USD 1000 - Ser `2005 I _A_11`	A	USBND	USD	1000.00000	10620NAD0	022333321					DBVSGR	XL21	
SCMST	U	2006/04/03	2013/07/02	352727	US10620NAE85		97809	BND	FR LN REDEEM 27/03/2023 USD 1000 - Ser `2005 I_A_12`	A	USBND	USD	1000.00000	10620NAE8	022333933					DBVSGR	XL29	
SCMST	U	2006/04/04	2015/09/10	353803	USG36392AA91		98755	BND	FR NT REDEEM 12/09/2040 USD 200000 - Reg S Cls A/1LB	A	USBND	USD	200000.00000	G36392AA9	022670603	REG			REGS		XL21	
SCMST	U	2006/04/04	2015/08/24	353808	USG36392AB74		98755	BND	FR NT REDEEM 12/09/2040 USD 200000 - Cls A2L Reg S	A	USBND	USD	200000.00000	G36392AB7	022670808	REG			REGS		XL21	
SCMST	U	2006/04/04	2011/10/11	353810	USG36392AC57		98755	BND	FR NT REDEEM 12/09/2040 USD 200000 - Reg S	A	USBND	USD	200000.00000	G36392AC5	022670875	REG			REGS		XL21	
SCMST	U	2006/04/04	2015/08/24	353812	USG36392AD31		98755	BND	FR NT REDEEM 12/09/2040 USD 200000 - Cls B1L Reg S	A	USBND	USD	200000.00000	G36392AD3	022670972	REG			REGS		XL21	
SCMST	U	2006/04/04	2015/08/24	353818	USG36392AE14		98755	BND	FR NT REDEEM 12/09/2040 USD 200000 - Cls X Reg S	A	USBND	USD	200000.00000	G36392AE1	022671014	REG			REGS		XL21	
SCMST	U	2006/04/04	2013/01/31	353832	US01449CAA80		98756	BND	FR NT REDEEM 23/12/2035 USD 250000 - 144A Cls A_1A	A	USBND	USD	250000.00000	01449CAA8	033761481	DFR			144A	DBVSGR	XL21	
SCMST	U	2006/04/04	2015/08/25	353839	US01449CAB63		98756	BND	FR NT REDEEM 23/12/2035 USD 250000 - 144A Cls A_1B	A	USBND	USD	250000.00000	01449CAB6		DFR			144A	DBVSGR	XL21	
SCMST	U	2006/04/04	2012/05/15	353845	US01449CAG50		98756	BND	FR NT REDEEM 23/12/2035 USD 250000 - 144A Cls A2	A	USBND	USD	250000.00000	01449CAG5		DFR			144A		XL21	
SCMST	U	2006/04/04	2012/05/16	353850	US01449CAH34		98756	BND	FR NT REDEEM 23/12/2035 USD 250000 - 144A Cls B1	A	USBND	USD	250000.00000	01449CAH3		DFR			144A		XL21	
SCMST	U	2006/04/04	2014/04/21	353854	US01449CAJ99		98756	BND	FXDFR NT REDEEM 23/12/2035 USD 250000 - 144A Cls B2	A	USBND	USD	250000.00000	01449CAJ9		DFR			144A		XL21	
SCMST	U	2006/04/04	2014/04/21	353865	US01449CAL46		98756	BND	FXDFR NT REDEEM 23/12/2035 USD 250000 - 144A Cls C2	A	USBND	USD	250000.00000	01449CAL4		DFR			144A		XL21	
SCMST	U	2006/04/04	2014/04/21	353869	US01449CAM29		98756	BND	FXDFR NT REDEEM 23/12/2035 USD 250000 - 144A Cls C3	A	USBND	USD	250000.00000	01449CAM2		DFR			144A		XL21	
SCMST	U	2006/04/04	2014/04/29	353918	US26357RAJ32		95475	BND	FR NT REDEEM 08/11/2017 USD 500000 - 144A Cls Z4	A	USBND	USD	500000.00000	26357RAJ3	023028115	REG			144A		XL21	
SCMST	U	2006/04/05	2015/08/28	353973	USG44185AA70		98772	BND	FR NT REDEEM 03/01/2045 USD 250000 - Cls A1 Reg S	A	USBND	USD	250000.00000	G44185AA7	023615100	BR			REGS		XL21	
SCMST	U	2006/04/05	2015/08/28	353982	USG44185AB53		98772	BND	FR NT REDEEM 03/01/2045 USD 250000 - Cls A2 Reg S	A	USBND	USD	250000.00000	G44185AB5	023615452	BR			REGS		XL21	
SCMST	U	2006/04/05	2015/08/28	353986	USG44185AC37		98772	BND	FR NT REDEEM 03/01/2045 USD 250000 - Cls B Reg S	A	USBND	USD	250000.00000	G44185AC3	023615487	BR			REGS		XL21	
SCMST	U	2006/04/05	2015/08/28	353990	USG44185AD10		98772	BND	FR NT REDEEM 03/01/2045 USD 250000 - Cls C Reg S	A	USBND	USD	250000.00000	G44185AD1	023615517	BR			REGS		XL21	
SCMST	U	2006/04/05	2015/08/28	353997	USG44185AE92		98772	BND	FR NT REDEEM 03/01/2045 USD 200000 - Cls D Reg S	A	USBND	USD	200000.00000	G44185AE9	023615584	BR			REGS		XL21	
SCMST	U	2006/04/08	2013/10/28	354533	USG5636AAA90		98872	BND	FR NT REDEEM 05/10/2045 USD 250000 - Reg S Cls A S1VF	A	USBND	USD	250000.00000	G5636AAA9		REG			REGS		XL21	
SCMST	U	2006/04/08	2013/10/28	354534	US54266TAA07		98872	BND	FR NT REDEEM 05/10/2045 USD 250000 - 144A Cls A S1VF	A	USBND	USD	250000.00000	54266TAA0		REG			144A		XL21	
SCMST	U	2006/04/08	2015/08/21	354535	USG5636AAB73		98872	BND	FR NT REDEEM 05/10/2045 USD 250000 - Reg S Cls A/S2T	A	USBND	USD	250000.00000	G5636AAB7		REG			REGS		XL21	
SCMST	U	2006/04/08	2013/10/29	354539	USG5636AAD30		159248	BND	FR NT REDEEM 05/10/2045 USD 250000 - Reg S Cls A2	A	USBND	USD	250000.00000	G5636AAD3		REG			REGS		XL21	
SCMST	U	2006/04/08	2013/10/29	354541	USG5636AAE13		159248	BND	FR NT REDEEM 05/10/2045 USD 250000 - Reg S Cls A3	A	USBND	USD	250000.00000	G5636AAE1		REG			REGS		XL21	
SCMST	U	2006/04/10	2016/05/24	354548	US71419XAB91		98416	BND	FR NT REDEEM 10/06/2042 USD 75000 - Ser `1` Cls `B` 144A	A	USBND	USD	75000.00000	71419XAB9	024852008	BR			144A		XL28	
SCMST	U	2006/04/11	2013/04/17	355050	US861761AB01		132150	BND	FR NT REDEEM 16/03/2018 USD 500000 - 144A Cls A1	A	USBND	USD	500000.00000	861761AB0	024538206	REG			144A		XL21	
SCMST	U	2006/04/12	2013/07/13	355183	US69510XAG07		96995	BND	FR NT REDEEM 26/01/2020 USD 435000 - 144A	A	USBND	USD	435000.00000	69510XAG0	024075508				144A		XL21	
SCMST	U	2006/04/18	2013/05/21	357125	USG22292AB59		89303	BND	FR NT REDEEM 20/01/2017 USD 100000	A	USBND	USD	100000.00000	G22292AB5	020897953					DBFSGR	XL21	
SCMST	U	2006/04/21	2012/04/17	357492	USG2071KAA63		99059	BND	FR NT REDEEM 20/01/2017 USD 500000 - Cls`A1`	A	USBND	USD	500000.00000	G2071KAA6	020829290	REG					XL21	
SCMST	U	2006/04/21	2012/04/17	357493	USG2071KAB47		99059	BND	FR NT REDEEM 22/01/2017 USD 500000 - Cls`A2``TE NT`	A	USBND	USD	500000.00000	G2071KAB4	020829320	REG					XL21	
SCMST	U	2006/04/21	2011/10/10	357528	USG5636AAF87		98872	BND	FR NT REDEEM 05/10/2045 USD 250000 - Reg S Cls B	A	USBND	USD	250000.00000	G5636AAF8	024415716	REG			REGS		XL21	
SCMST	U	2006/04/21	2013/10/29	357532	USG5636AAG60		159248	BND	FR NT REDEEM 05/10/2045 USD 250000 - Reg S Cls C	A	USBND	USD	250000.00000	G5636AAG6		REG			REGS		XL21	
SCMST	U	2006/04/21	2014/01/04	357615	US02317UAA51		97022	BND	FR NT REDEEM 03/07/2041 USD 250000 - 144A Cls A1	A	USBND	USD	250000.00000	02317UAA5	023562472	REG			144A		XL21	
SCMST	U	2006/04/21	2014/01/04	357618	US02317UAB35		97022	BND	FR NT REDEEM 03/07/2041 USD 250000 - 144A Cls A2	A	USBND	USD	250000.00000	02317UAB3	023562502	REG			144A		XL21	
SCMST	U	2006/04/21	2014/01/04	357620	US02317UAE73		97022	BND	FR NT REDEEM 03/07/2041 USD 250000 - 144A Cls D	A	USBND	USD	250000.00000	02317UAE7	023562596	REG			144A		XL21	
SCMST	U	2006/04/21	2014/01/04	357621	US02317UAC18		97022	BND	FR NT REDEEM 03/07/2041 USD 250000 - 144A Cls B	A	USBND	USD	250000.00000	02317UAC1	023562537	REG			144A		XL21	
SCMST	U	2006/04/21	2014/01/04	357628	US02317UAD90		97022	BND	FR NT REDEEM 03/07/2041 USD 250000 - 144A Cls C	A	USBND	USD	250000.00000	02317UAD9	023562570	REG			144A		XL21	
SCMST	U	2006/04/24	2016/01/29	358363	USG17336AA90		99121	BND	FR NT REDEEM 20/10/2016 USD 100000 - Reg S	A	USBND	USD	100000.00000	G17336AA9	020387386	REG			REGS	DBVSGR	XL21	
SCMST	U	2006/04/24	2013/01/11	358365	USG17336AB73		99121	BND	FR NT REDEEM 20/10/2016 USD 100000 - Cls`B`	A	USBND	USD	100000.00000	G17336AB7	020387432	REG					XL21	
SCMST	U	2006/04/24	2013/01/11	358367	USG17336AC56		99121	BND	FR NT REDEEM 20/10/2016 USD 100000 - Cls`C`	A	USBND	USD	100000.00000	G17336AC5	020387467	REG					XL21	
SCMST	U	2006/04/24	2013/01/12	358369	USG17336AD30		99121	BND	FR NT REDEEM 20/10/2016 USD 100000 - Cls`D`	A	USBND	USD	100000.00000	G17336AD3	020387505	REG				DBVSGR	XL21	
SCMST	U	2006/04/24	2014/03/17	358370	USG17336AF87		99121	BND	FR NT REDEEM 20/10/2016 USD 1000	A	USBND	USD	1000.00000	G17336AF8	020387564	REG				DBFSGR	XL28	
SCMST	U	2006/04/25	2014/05/09	358697	USG64472AB20		99171	BND	FR NT REDEEM 05/03/2046 USD 250000 - Reg S Cls A1	A	USBND	USD	250000.00000	G64472AB2	024750132	REG			REGS	DBVSBR	XL21	
SCMST	U	2006/04/25	2013/09/21	358698	US64069PAD06		158648	BND	FR NT REDEEM 05/03/2046 USD 250000 - Reg D Cls A/1	A	USBND	USD	250000.00000	64069PAD0		REG			REGD		XL21	
SCMST	U	2006/04/25	2014/05/09	358701	USG64472AC03		99171	BND	FR NT REDEEM 05/03/2046 USD 250000 - Reg S Cls A2	A	USBND	USD	250000.00000	G64472AC0		DFR			REGS	DBVSFR	XL21	
SCMST	U	2006/04/25	2013/09/21	358703	US64069PAF53		158648	BND	FR NT REDEEM 05/03/2046 USD 250000 - Reg D	A	USBND	USD	250000.00000	64069PAF5		REG			REGD		XL21	
SCMST	U	2006/04/25	2014/05/09	358708	USG64472AD85		99171	BND	FR NT REDEEM 05/03/2046 USD 250000 - Reg S Cls A3	A	USBND	USD	250000.00000	G64472AD8		DFR			REGS	DBVSFR	XL21	
SCMST	U	2006/04/25	2013/09/21	358709	US64069PAH10		158648	BND	FR NT REDEEM 05/03/2046 USD 250000 - Reg D Cls A/3	A	USBND	USD	250000.00000	64069PAH1		REG			REGD		XL21	
SCMST	U	2006/04/25	2014/05/09	358714	USG64472AE68		99171	BND	FR NT REDEEM 05/03/2046 USD 250000 - Reg S Cls B	A	USBND	USD	250000.00000	G64472AE6		REG			REGS	DBVSFR	XL28	
SCMST	U	2006/04/25	2016/04/21	358753	US26450CAB90		98738	BND	VR NT REDEEM 09/03/2045 USD 100000 - 144A	A	USBND	USD	100000.00000	26450CAB9		REG			144A		XL28	
SCMST	U	2006/04/25	2012/06/25	358768	US612180AA77		99180	BND	FR NT REDEEM 06/10/2042 USD 250000 - 144A Cls A1	A	USBND	USD	250000.00000	612180AA7	030910036	BR			144A		XL21	
SCMST	U	2006/04/25	2012/06/25	358779	US612180AC34		99180	BND	FR NT REDEEM 06/10/2042 USD 250000 - 144A Cls A2	A	USBND	USD	250000.00000	612180AC3		BR			144A		XL21	
SCMST	U	2006/04/25	2014/03/24	358784	USU3457YAB03		99185	BND	FR NT REDEEM 01/09/2017 USD 1000000 - Reg S	A	USBND	USD	1000000.00000	U3457YAB0		REG			REGS		XL21	
SCMST	U	2006/04/25	2013/09/17	358790	US612180AG48		99180	BND	FR NT REDEEM 06/10/2042 USD 250000 - 144A Cls C	A	USBND	USD	250000.00000	612180AG4		BR			144A		XL21	
SCMST	U	2006/04/25	2014/03/24	358791	USU3457YAC85		99185	BND	FR NT REDEEM 01/09/2017 USD 1000000 - Reg S U3457YAC8	A	USBND	USD	1000000.00000	U3457YAC8		REG			REGS		XL21	
SCMST	U	2006/04/25	2014/03/24	358797	USU3457YAD68		99185	BND	FR NT REDEEM 01/09/2017 USD 1000000 - Reg S U3457YAD6	A	USBND	USD	1000000.00000	U3457YAD6		REG			REGS		XL21	
SCMST	U	2006/04/25	2012/06/25	358809	US612179AA96		99180	BND	FR NT REDEEM 06/10/2042 USD 250000 - 144A Cls F	A	USBND	USD	250000.00000	612179AA9		BR			144A		XL21	
SCMST	U	2006/04/25	2012/06/25	358812	US612179AC52		99180	BND	FR NT REDEEM 06/10/2042 USD 250000 - 144A Cls G	A	USBND	USD	250000.00000	612179AC5		BR			144A		XL21	
SCMST	U	2006/04/25	2014/03/24	358813	USU3457XAB20		99187	BND	FR NT REDEEM 01/09/2017 USD 1000000 - Reg S	A	USBND	USD	1000000.00000	U3457XAB2		REG			REGS		XL21	
SCMST	U	2006/04/25	2014/03/24	358816	USU3457XAC03		99187	BND	FR NT REDEEM 01/09/2017 USD 1000000 - Reg S U3457XAC0	A	USBND	USD	1000000.00000	U3457XAC0		REG			REGS		XL21	
SCMST	U	2006/04/25	2014/03/24	358818	USU3457XAD85		99187	BND	FR NT REDEEM 01/09/2017 USD 800000 - Reg S	A	USBND	USD	800000.00000	U3457XAD8		REG			REGS		XL21	
SCMST	U	2006/04/26	2013/09/21	358886	US64069PAK49		158648	BND	FR NT REDEEM 05/03/2046 USD 250000 - Reg D Cls B	A	USBND	USD	250000.00000	64069PAK4		REG			REGD		XL28	
SCMST	U	2006/04/26	2014/05/09	358891	USG64472AF34		99171	BND	FR NT REDEEM 05/03/2046 USD 250000 - Reg S Cls C	A	USBND	USD	250000.00000	G64472AF3		REG			REGS	DBVSFR	XL28	
SCMST	U	2006/04/26	2013/09/21	358893	US64069PAM05		99171	BND	FR NT REDEEM 05/03/2046 USD 250000 - Reg D Cls C	A	USBND	USD	250000.00000	64069PAM0		REG			REGD		XL28	
SCMST	U	2006/04/26	2013/09/23	358900	USG64472AG17		99171	BND	AFB NT REDEEM 05/03/2046 USD 250000 - Reg S Cls D	A	USBND	USD	250000.00000	G64472AG1		REG			REGS	DBVSFR	XL21	
SCMST	U	2006/04/27	2013/05/21	359251	USG22294AC98		89303	BND	FR NT REDEEM 20/01/2017 USD 500000 - Cls`B`	A	USBND	USD	500000.00000	G22294AC9	020897309	REG				DBVSGR	XL21	
SCMST	U	2006/04/27	2014/04/09	359420	US18971XAA28		99246	BND	FR NT REDEEM 06/12/2017 USD 5000000 - Class A1 144A	A	USBND	USD	5000000.00000	18971XAA2	023590433	REG			144A		XL21	
SCMST	U	2006/04/27	2014/04/09	359425	US18971XAB01		99246	BND	FR NT REDEEM 06/12/2017 USD 500000 - Cls A2 144A	A	USBND	USD	500000.00000	18971XAB0	023590654	REG			144A		XL21	
SCMST	U	2006/04/27	2014/04/09	359430	US18971XAC83		99246	BND	FR NT REDEEM 06/12/2017 USD 500000 - Cls A/3a 144A	A	USBND	USD	500000.00000	18971XAC8	023590689	REG			144A		XL21	
SCMST	U	2006/04/30	2013/10/28	359581	USG56368AA40		98872	BND	AFB NT REDEEM 05/10/2045 USD 100000 - Reg S	A	USBND	USD	100000.00000	G56368AA4		REG			REGS		XL28	
SCMST	U	2006/04/30	2015/08/21	359582	US54266XAA19		98872	BND	AFB NT REDEEM 05/10/2045 USD 250000 - 144A	A	USBND	USD	250000.00000	54266XAA1		REG			144A		XL28	
SCMST	U	2006/04/30	2016/04/20	359588	USG56368AB23		98872	BND	VR NT REDEEM 05/10/2045 USD 1000000 - Reg S	A	USBND	USD	1000000.00000	G56368AB2	024415899	REG			REGS		XL21	
SCMST	U	2006/04/30	2016/05/03	359593	US54266XAB91		98872	BND	VR NT REDEEM 05/10/2045 USD 1000000 - 144A	A	USBND	USD	1000000.00000	54266XAB9					144A		XL21	
SCMST	U	2006/04/30	2016/04/25	359614	US36318JAK51		98600	BND	VR NT REDEEM 20/10/2017 USD 1375000 - 144A Cls Z	A	USBND	USD	1375000.00000	36318JAK5		REG			144A		XL21	
SCMST	U	2006/05/03	2015/05/26	362437	USG59371AB30		99338	BND	FR NT REDEEM 05/02/2045 USD 500000 - Cls A1 Reg S	A	USBND	USD	500000.00000	G59371AB3	022785931	REG			REGS	DBVSFR	XL21	
SCMST	U	2006/05/03	2011/09/21	362581	USG69578AA31		99344	BND	FR NT REDEEM 06/08/2045 USD 500000 - Reg S	A	USBND	USD	500000.00000	G69578AA3	022670298	REG			REGS		XL21	
SCMST	U	2006/05/03	2011/09/21	362594	USG69578AB14		99344	BND	FR NT REDEEM 06/08/2045 USD 500000 - Reg S Cls B	A	USBND	USD	500000.00000	G69578AB1	022670441	REG			REGS		XL21	
SCMST	U	2006/05/03	2013/11/01	362617	USG69577AA57		99344	BND	AFB NT REDEEM 06/08/2045 USD 200000 - Reg S	A	USBND	USD	200000.00000	G69577AA5	022670590	REG			REGS		XL28	
SCMST	U	2006/05/03	2013/11/01	362621	US702480AA24		99344	BND	AFB NT REDEEM 06/08/2045 USD 200000 - 144A	A	USBND	USD	200000.00000	702480AA2		REG			144A		XL28	
SCMST	U	2006/05/03	2012/06/11	362627	US80410RAA41		99342	BND	FR NT REDEEM 06/06/2044 USD 250000 - 144A Cls A/1	A	USBND	USD	250000.00000	80410RAA4		DFR			144A		XL21	
SCMST	U	2006/05/03	2012/06/11	362631	US80410RAB24		99342	BND	FR NT REDEEM 06/06/2044 USD 250000 - 144A Cls A/2	A	USBND	USD	250000.00000	80410RAB2		DFR			144A		XL21	
SCMST	U	2006/05/03	2012/06/11	362639	US80410RAD89		99342	BND	FR NT REDEEM 06/06/2044 USD 250000 - 144A Cls B	A	USBND	USD	250000.00000	80410RAD8		DFR			144A		XL28	
SCMST	U	2006/05/04	2015/08/21	362760	US724023AB21		99346	BND	FR NT REDEEM 31/08/2045 USD 500000 - Cls ` A2` `144A`	A	USBND	USD	500000.00000	724023AB2		REG			144A		XL21	
SCMST	U	2006/05/04	2015/08/21	362763	US724023AH90		99346	BND	FR NT REDEEM 31/08/2045 USD 500000 - Cls ` A2`	A	USBND	USD	500000.00000	724023AH9		REG					XL21	
SCMST	U	2006/05/04	2015/08/21	362766	US724023AC04		99346	BND	FR NT REDEEM 31/08/2045 USD 500000 - Cls ` B` `144A`	A	USBND	USD	500000.00000	724023AC0		REG			144A		XL21	
SCMST	U	2006/05/04	2015/08/21	362769	US724023AJ56		99346	BND	FR NT REDEEM 31/08/2045 USD 500000 - Cls` B`	A	USBND	USD	500000.00000	724023AJ5		REG					XL21	
SCMST	U	2006/05/04	2015/08/21	362772	US724023AD86		99346	BND	FR NT REDEEM 31/08/2045 USD 500000 - Cls ` C` `144A`	A	USBND	USD	500000.00000	724023AD8		REG			144A		XL21	
SCMST	U	2006/05/04	2015/08/21	362774	US724023AK20		99346	BND	FR NT REDEEM 31/08/2045 USD 500000 - Cls ` C`	A	USBND	USD	500000.00000	724023AK2		REG					XL21	
SCMST	U	2006/05/04	2015/08/21	362781	US724023AL03		99346	BND	FR NT REDEEM 31/08/2045 USD 500000 - Cls ` D`	A	USBND	USD	500000.00000	724023AL0		REG					XL21	
SCMST	U	2006/05/04	2011/09/28	363053	USG5276PAB97		128751	BND	FR NT REDEEM 26/11/2017 USD 1000000 - Reg S Class A2	A	USBND	USD	1000000.00000	G5276PAB9	023399377	REG			REGS		XL21	
SCMST	U	2006/05/04	2012/04/17	363087	US49834UAA07		128751	BND	FR NT REDEEM 26/11/2017 USD 1000000 - 144A Class E	A	USBND	USD	1000000.00000	49834UAA0	023398923	REG			144A		XL21	
SCMST	U	2006/05/04	2014/03/19	363123	US63543TAB44		97128	BND	FR NT REDEEM 25/09/2025 USD 100000 - Cls `A2`	A	USBND	USD	100000.00000	63543TAB4	023258862	REG				DBVSFR	XL21	
SCMST	U	2006/05/04	2013/09/16	363180	US55312HAE99		99382	BND	6.0825% NT REDEEM 01/12/2035 USD 250000 - 144A Cls C2	A	USBND	USD	250000.00000	55312HAE9		DFR			144A		XL21	
SCMST	U	2006/05/05	2013/08/26	363530	USG80884AA03		99408	BND	FR NT REDEEM 09/12/2040 USD 100000 - Cls E Reg S	A	USBND	USD	100000.00000	G80884AA0		REG			REGS		XL21	
SCMST	U	2006/05/05	2016/05/03	363555	US63936YAS19		99409	BND	VR NT REDEEM 21/10/2017 USD 500000 - 144A Cls Q1	A	USBND	USD	500000.00000	63936YAS1		REG			144A		XL21	
SCMST	U	2006/05/08	2016/05/03	363829	US63936YAT91		99409	BND	VR NT REDEEM 21/10/2017 USD 500000 - 144A Cls Q2	A	USBND	USD	500000.00000	63936YAT9		REG			144A		XL21	
SCMST	U	2006/05/09	2015/08/28	364022	US10550YAA64		99454	BND	FR NT REDEEM 20/12/2040 USD 250000 - 144A Cls A	A	USBND	USD	250000.00000	10550YAA6	023804662	REG			144A		XL21	
SCMST	U	2006/05/09	2013/02/22	364026	USG1315BAA47		99454	BND	FR NT REDEEM 20/12/2040 USD 250000 - Reg S Cls A	A	USBND	USD	250000.00000	G1315BAA4	023804832	REG			REGS	DBVSGR	XL21	
SCMST	U	2006/05/09	2013/12/04	364034	US10550YAB48		99454	BND	FR NT REDEEM 20/12/2040 USD 250000 - Cls `B` 144A	A	USBND	USD	250000.00000	10550YAB4	023804727	REG			144A		XL21	
SCMST	U	2006/05/09	2013/02/22	364038	USG1315BAB20		99454	BND	FR NT REDEEM 20/12/2040 USD 250000 - Reg S Cls B	A	USBND	USD	250000.00000	G1315BAB2	023804867	REG			REGS	DBVSGR	XL21	
SCMST	U	2006/05/09	2013/12/04	364041	US10550YAC21		99454	BND	FR NT REDEEM 20/12/2040 USD 250000 - Cls `C` 144A	A	USBND	USD	250000.00000	10550YAC2	023804786	REG			144A		XL21	
SCMST	U	2006/05/09	2015/08/28	364043	USG54885AA98		99449	BND	FR NT REDEEM 15/09/2017 USD 500000 - Reg S Cls A1A	A	USBND	USD	500000.00000	G54885AA9	022406477	REG			REGS		XL21	
SCMST	U	2006/05/09	2013/02/22	364045	USG1315BAC03		99454	BND	FR NT REDEEM 20/12/2040 USD 250000 - Reg S Cls C	A	USBND	USD	250000.00000	G1315BAC0	023804913	REG			REGS	DBVSGR	XL21	
SCMST	U	2006/05/09	2013/02/22	364049	US10550YAD04		99454	BND	FR NT REDEEM 20/12/2040 USD 250000 - 144A Cls D	A	USBND	USD	250000.00000	10550YAD0	023804794	REG			144A		XL21	
SCMST	U	2006/05/09	2013/02/22	364055	USG1315BAD85		99454	BND	FR NT REDEEM 20/12/2040 USD 250000 - Reg S Cls D	A	USBND	USD	250000.00000	G1315BAD8	023804930	REG			REGS	DBVSGR	XL21	
SCMST	U	2006/05/09	2013/12/04	364061	US10550YAE86		99454	BND	FR NT REDEEM 20/12/2040 USD 250000 - Cls `E` 144A	A	USBND	USD	250000.00000	10550YAE8	023804816	REG			144A		XL21	
SCMST	U	2006/05/09	2013/02/22	364063	USG1315BAE68		99454	BND	FR NT REDEEM 20/12/2040 USD 250000 - Reg S Cls E	A	USBND	USD	250000.00000	G1315BAE6	023804964	REG			REGS	DBVSGR	XL21	
SCMST	U	2006/05/09	2015/08/18	364074	USG54885AE11		99449	BND	FR NT REDEEM 15/09/2017 USD 500000 - Reg S Cls C	A	USBND	USD	500000.00000	G54885AE1	022406671	REG			REGS	DBVSGR	XL21	
SCMST	U	2006/05/09	2014/03/18	364079	USG54883AA41		99449	BND	AFB NT REDEEM 15/09/2017 USD 200000 - Reg S	A	USBND	USD	200000.00000	G54883AA4	022406701	REG			REGS	DBFSGR	XL21	
SCMST	U	2006/05/10	2012/06/25	364605	US963293AG07		95919	BND	FR NT REDEEM 25/04/2045 GBP 100000 - Cls `C1` `144A`	A		GBP	100000.00000	963293AG0	023556154	BR			144A		XL21	
SCMST	U	2006/05/10	2015/09/01	364628	US98886AAE01		95727	BND	FR NT REDEEM 15/10/2040 USD 500000 - 144A Cls A2	D	USBND	USD	500000.00000	98886AAE0		REG			144A		XL21	
SCMST	U	2006/05/10	2014/05/12	364632	US98886AAG58		95727	BND	FR NT REDEEM 15/10/2040 USD 500000 - 144A Cls A3	D	USBND	USD	500000.00000	98886AAG5		REG			144A		XL21	
SCMST	U	2006/05/10	2014/05/12	364639	US98886AAN00		95727	BND	FR NT REDEEM 15/10/2040 USD 500000 - 144A Cls B2A	D	USBND	USD	500000.00000	98886AAN0		REG			144A		XL21	
SCMST	U	2006/05/10	2014/05/12	364648	US98886AAL44		95727	BND	6.38% NT REDEEM 15/10/2040 USD 500000 - 144A Cls B1B	D	USBND	USD	500000.00000	98886AAL4		REG			144A		XL21	
SCMST	U	2006/05/10	2014/05/12	364652	US98886AAQ31		95727	BND	6.53% NT REDEEM 15/10/2040 USD 500000 - 144A Cls B2B	D	USBND	USD	500000.00000	98886AAQ3		REG			144A		XL21	
SCMST	U	2006/05/12	2012/08/10	365477	US795267AA19		83811	BND	FR NT REDEEM 15/07/2025 USD 250000	A	USBND	USD	250000.00000	795267AA1		REG					XL21	
SCMST	U	2006/05/13	2013/11/12	365499	US49373VAA52		99566	BND	FR NT REDEEM 20/09/2040 USD 500000 - 144A	A	USBND	USD	500000.00000	49373VAA5		REG			144A		XL21	
SCMST	U	2006/05/13	2013/11/12	365509	US49373VAC19		99566	BND	FR NT REDEEM 20/09/2040 USD 500000 - 144A Cls B	A	USBND	USD	500000.00000	49373VAC1		REG			144A		XL21	
SCMST	U	2006/05/13	2013/11/12	365514	US49373VAE74		99566	BND	FR NT REDEEM 20/09/2040 USD 500000 - 144A Cls C	A	USBND	USD	500000.00000	49373VAE7		REG			144A		XL21	
SCMST	U	2006/05/13	2013/11/12	365525	US49373VAG23		99566	BND	FR NT REDEEM 20/09/2040 USD 500000 - 144A Cls D	A	USBND	USD	500000.00000	49373VAG2		REG			144A		XL21	
SCMST	U	2006/05/13	2012/06/08	365681	USG8961RAA17		99593	BND	FR NT REDEEM 11/10/2040 USD 1000000 - Reg S Cls II	A	USBND	USD	1000000.00000	G8961RAA1	023013711	REG			REGS	DBVSGR	XL21	
SCMST	U	2006/05/13	2012/06/08	365695	USG8961RAB99		99593	BND	FR NT REDEEM 11/10/2040 USD 1000000 - Reg S Class III	A	USBND	USD	1000000.00000	G8961RAB9	023013622	REG			REGS	DBVSGR	XL21	
SCMST	U	2006/05/13	2015/09/08	365701	USG8961RAC72		99593	BND	FR NT REDEEM 11/10/2040 USD 1000000 - Cls IV Reg S	A	USBND	USD	1000000.00000	G8961RAC7	023013592	REG			REGS	DBVSGR	XL21	
SCMST	U	2006/05/13	2016/05/03	365724	USG8961TAD12		99593	BND	VR NT REDEEM 11/10/2040 USD 500000 - Cls1 Reg S	A	USBND	USD	500000.00000	G8961TAD1	023013436	REG			REGS		XL21	
SCMST	U	2006/05/13	2016/05/03	365729	USG8961TAE94		99593	BND	VR NT REDEEM 11/10/2040 USD 500000 - Class 2 Reg S	A	USBND	USD	500000.00000	G8961TAE9	023013061	REG			REGS		XL21	
SCMST	U	2006/05/13	2016/04/21	365741	USG8961TAF69		99593	BND	VR NT REDEEM 11/10/2040 USD 500000 - Reg S Cls 3	A	USBND	USD	500000.00000	G8961TAF6	023013029	REG			REGS		XL21	
SCMST	U	2006/05/13	2015/08/24	365757	USG8961TAG43		99593	BND	6.50% NT REDEEM 11/10/2040 USD 500000 - Reg S Cls 4	A	USBND	USD	500000.00000	G8961TAG4	023012995	REG			REGS		XL21	
SCMST	U	2006/05/13	2012/06/11	365900	US68571WAC91		99600	BND	FR NT REDEEM 06/01/2046 USD 250000 - 144A Cls A2	A	USBND	USD	250000.00000	68571WAC9		REG			144A		XL21	
SCMST	U	2006/05/13	2012/06/11	365904	US68571WAE57		99600	BND	FR NT REDEEM 06/01/2046 USD 250000 - 144A Cls B	A	USBND	USD	250000.00000	68571WAE5		REG			144A		XL21	
SCMST	U	2006/05/13	2012/06/11	365909	US68571WAG06		99600	BND	FR NT REDEEM 06/01/2046 USD 250000 - 144A Cls C	A	USBND	USD	250000.00000	68571WAG0		REG			144A		XL21	
SCMST	U	2006/05/13	2012/06/08	365913	US639103AH36		99596	BND	FR NT REDEEM 07/11/2040 USD 250000 - 144A Cls C	A	USBND	USD	250000.00000	639103AH3		BR			144A		XL21	
SCMST	U	2006/05/13	2012/06/11	365914	US68571WAJ45		99600	BND	FR NT REDEEM 06/01/2046 USD 250000 - 144A Cls D	A	USBND	USD	250000.00000	68571WAJ4		REG			144A		XL21	
SCMST	U	2006/05/15	2013/03/18	366054	USG2641AAA90		99603	BND	FR NT REDEEM 15/03/2022 USD 500000 - Cls `A/1A` Reg `S`	A	USBND	USD	500000.00000	G2641AAA9	024843718	REG			REGS		XL21	
SCMST	U	2006/05/15	2013/03/18	366061	USG2641AAB73		99603	BND	FR NT REDEEM 15/03/2022 USD 500000 - Cls `A/1B` Reg `S`	A	USBND	USD	500000.00000	G2641AAB7	024843840	REG			REGS		XL21	
SCMST	U	2006/05/15	2013/03/18	366070	USG2641AAC56		99603	BND	FR NT REDEEM 15/03/2022 USD 500000 - Cls `A/2` Reg `S`	A	USBND	USD	500000.00000	G2641AAC5	024843998	REG			REGS		XL21	
SCMST	U	2006/05/15	2013/03/18	366077	USG2641AAD30		99603	BND	FR NT REDEEM 15/03/2022 USD 500000 - Cls `B/1` Reg `S`	A	USBND	USD	500000.00000	G2641AAD3	024844307	REG			REGS		XL21	
SCMST	U	2006/05/15	2013/03/18	366081	USG2641AAE13		99603	BND	6.07% NT REDEEM 15/03/2022 USD 500000 - Cls `B/2` Reg `S`	A	USBND	USD	500000.00000	G2641AAE1	024844366	REG			REGS		XL21	
SCMST	U	2006/05/15	2013/03/18	366085	USG2641AAF87		99603	BND	FR NT REDEEM 15/03/2022 USD 500000 - Cls `C` Reg `S`	A	USBND	USD	500000.00000	G2641AAF8	024846377	REG			REGS	DBVSGR	XL21	
SCMST	U	2006/05/15	2013/03/18	366088	USG2641AAH44		99603	BND	FR NT REDEEM 15/03/2022 USD 500000 - Cls `D` Reg `S`	A	USBND	USD	500000.00000	G2641AAH4	024846474	REG			REGS	DBVSGR	XL21	
SCMST	U	2006/05/15	2012/09/14	366115	USG67920AB70		99600	BND	AFB NT REDEEM 06/01/2046 USD 250000 - Reg S	A	USBND	USD	250000.00000	G67920AB7	024735451	REG			REGS		XL28	
SCMST	U	2006/05/15	2012/06/11	366120	US68571TAC62		99600	BND	AFB NT REDEEM 06/01/2046 USD 250000 - 144A	A	USBND	USD	250000.00000	68571TAC6		REG			144A		XL28	
SCMST	U	2006/05/15	2015/09/11	366124	US87337VAA08		98017	BND	AFB NT REDEEM 30/08/2045 USD 325000 - 144A	A	USBND	USD	325000.00000	87337VAA0	023957329	BR			144A		XL28	
SCMST	U	2006/05/16	2015/08/21	366329	USG26415AA04		99603	BND	AFB NT REDEEM 15/03/2022 USD 500000 - Reg S	A	USBND	USD	500000.00000	G26415AA0	024846601	REG			REGS	DBFUGR	XL28	
SCMST	U	2006/05/16	2016/04/20	366336	USG26415AB86		99603	BND	VR NT REDEEM 15/03/2022 USD 600000 - Reg S	A	USBND	USD	600000.00000	G26415AB8	024846717	REG			REGS	DBFUGR	XL21	
SCMST	U	2006/05/16	2014/05/12	366344	USG26415AC69		99603	BND	6.07% NT REDEEM 15/03/2022 USD 600000 - Reg S	A	USBND	USD	600000.00000	G26415AC6	024846806	REG			REGS	DBFUGR	XL21	
SCMST	U	2006/05/16	2015/08/19	366498	US87154XAJ72		96222	BND	AFB NT REDEEM 18/11/2019 USD 250000 - 144A	A	USBND	USD	250000.00000	87154XAJ7		REG			144A		XL28	
SCMST	U	2006/05/20	2013/01/31	367900	US530361AE45		98324	BND	FR NT REDEEM 01/11/2017 USD 500000 - 144A Cls A1c	A	USBND	USD	500000.00000	530361AE4		REG			144A	DBVSFR	XL21	
SCMST	U	2006/05/20	2012/05/16	367908	US530361AG92		98324	BND	FR NT REDEEM 01/11/2017 USD 500000 - 144A Cls A2	A	USBND	USD	500000.00000	530361AG9	023922401	REG			144A		XL21	
SCMST	U	2006/05/20	2012/05/16	367913	US530361AJ32		98324	BND	FR NT REDEEM 01/11/2017 USD 500000 - 144A Cls A3	A	USBND	USD	500000.00000	530361AJ3		REG			144A		XL21	
SCMST	U	2006/05/20	2012/05/16	367917	US530361AL87		98324	BND	FR NT REDEEM 01/11/2017 USD 500000 - 144A Cls A4	A	USBND	USD	500000.00000	530361AL8		REG			144A		XL21	
SCMST	U	2006/05/20	2012/05/16	367921	US530361AN44		98324	BND	FR NT REDEEM 01/11/2017 USD 500000 - 144A Cls B	A	USBND	USD	500000.00000	530361AN4		REG			144A		XL21	
SCMST	U	2006/06/01	2013/12/04	371986	US14986AAS50		91247	BND	FR NT REDEEM 25/03/2046 USD 250000 - Cls G 144A	A	USBND	USD	250000.00000	14986AAS5	024929493	REG			144A		XL21	
SCMST	U	2006/06/01	2013/12/04	371989	US14986AAT34		91247	BND	FR NT REDEEM 25/03/2046 USD 250000 - Cls H 144A	A	USBND	USD	250000.00000	14986AAT3	024929523	REG			144A		XL21	
SCMST	U	2006/06/12	2015/09/04	376511	US37638NAB73		100031	BND	FR NT REDEEM 12/10/2045 USD 250000 - 144A Cls A2	A	USBND	USD	250000.00000	37638NAB7		REG			144A		XL21	
SCMST	U	2006/06/12	2015/09/04	376527	US37638NAD30		100031	BND	FR NT REDEEM 12/10/2045 USD 250000 - 144A Cls C	A	USBND	USD	250000.00000	37638NAD3		REG			144A		XL21	
SCMST	U	2006/06/12	2013/04/18	376547	US37638MAC73		100031	BND	AFB NT REDEEM 12/10/2045 USD 250000 - 144A	A	USBND	USD	250000.00000	37638MAC7		REG			144A		XL28	
SCMST	U	2006/06/13	2015/08/19	376748	US925345AC40		133115	BND	FR NT REDEEM 09/02/2046 USD 250000 - 144A	A	USBND	USD	250000.00000	925345AC4		REG			144A		XL21	
SCMST	U	2006/06/13	2015/09/04	376792	US925342AB36		133115	BND	AFB NT REDEEM 09/02/2046 USD 1500000 - 144A Cls 1	A	USBND	USD	1500000.00000	925342AB3		REG			144A		XL21	
SCMST	U	2006/06/13	2016/04/20	376801	US925342AC19		133115	BND	VR NT REDEEM 09/02/2046 USD 750000 - 144A Cls C2	A	USBND	USD	750000.00000	925342AC1		REG			144A		XL21	
SCMST	U	2006/06/13	2015/09/11	376898	US0855552099		100043	BND	AFB NT REDEEM 05/07/2042 USD 250000 - 144A	A	USBND	USD	250000.00000	085555209					144A		XL21	
SCMST	U	2006/06/16	2016/05/24	377999	US71419XAF06		98416	BND	FR NT REDEEM 10/06/2042 USD 75000 - Ser `2` Cls `C` 144A	A	USBND	USD	75000.00000	71419XAF0	024852091	BR			144A		XL21	
SCMST	U	2006/06/23	2013/04/16	380087	USG88641AA67		100202	BND	FR NT REDEEM 05/02/2046 USD 500000 - Reg S Cls A1	A	USBND	USD	500000.00000	G88641AA6	024967425	REG			REGS		XL28	
SCMST	U	2006/06/23	2013/04/16	380094	USG88641AB41		100202	BND	FR NT REDEEM 05/02/2046 USD 500000 - Reg S Cls A2	A	USBND	USD	500000.00000	G88641AB4	024967506	REG			REGS		XL28	
SCMST	U	2006/06/23	2013/04/16	380102	USG88641AC24		100202	BND	FR NT REDEEM 05/02/2046 USD 500000 - Reg S Cls A3A	A	USBND	USD	500000.00000	G88641AC2	024967549	REG			REGS		XL21	
SCMST	U	2006/06/23	2013/04/16	380114	USG88641AD07		100202	BND	5.715% NT REDEEM 05/02/2046 USD 500000 - Reg S Cls A3B	A	USBND	USD	500000.00000	G88641AD0	024967581	REG			REGS		XL21	
SCMST	U	2006/06/23	2013/04/16	380125	USG88641AE89		100202	BND	FR NT REDEEM 05/02/2046 USD 500000 - Reg S Cls B1A	A	USBND	USD	500000.00000	G88641AE8	024967689	REG			REGS		XL21	
SCMST	U	2006/06/23	2013/04/16	380140	USG88641AF54		100202	BND	6.795% NT REDEEM 05/02/2046 USD 500000 - Reg S Cls B1B	A	USBND	USD	500000.00000	G88641AF5	024967778	REG			REGS		XL21	
SCMST	U	2006/06/27	2012/06/25	381388	USG52530AA34		100256	BND	FR NT REDEEM 08/05/2046 USD 500000 - Cls `A1A Reg `S`	A	USBND	USD	500000.00000	G52530AA3	025195442	REG			REGS		XL21	
SCMST	U	2006/06/28	2014/04/22	381665	USG52530AB17		100256	BND	FR NT REDEEM 08/05/2046 USD 500000 - Reg S	A	USBND	USD	500000.00000	G52530AB1	025195698	REG			REGS		XL21	
SCMST	U	2006/06/28	2013/10/18	381678	USG52530AD72		100256	BND	FR NT REDEEM 08/05/2046 USD 500000 - Reg S Cls C	A	USBND	USD	500000.00000	G52530AD7	025195957	REG			REGS		XL21	
SCMST	U	2006/06/28	2013/10/18	381701	USG52530AE55		100256	BND	FR NT REDEEM 08/05/2046 USD 500000 - Reg S Cls D	A	USBND	USD	500000.00000	G52530AE5	025196058	REG			REGS		XL21	
SCMST	U	2006/06/28	2013/10/18	381710	USG52530AF21		100256	BND	FR NT REDEEM 08/05/2046 USD 500000 - Reg S Cls E	A	USBND	USD	500000.00000	G52530AF2	025196171	REG			REGS		XL21	
SCMST	U	2006/06/28	2010/11/19	381921	US36297YAD31		100276	BND	AFB NT REDEEM 25/05/2020 USD 400000 - 144A Cls P	A	USBND	USD	400000.00000	36297YAD3		REG			144A		XL21	
SCMST	U	2006/07/12	2015/08/18	386358	US3622X4AA17		146810	BND	FR NT REDEEM 08/06/2045 USD 250000 - 144A Cls A1A	A	USBND	USD	250000.00000	3622X4AA1		DFR			144A		XL21	
SCMST	U	2006/07/12	2015/08/18	386365	US3622X4AC72		146810	BND	FR NT REDEEM 08/06/2045 USD 250000 - 144A Cls A1B	A	USBND	USD	250000.00000	3622X4AC7		DFR			144A		XL21	
SCMST	U	2006/07/12	2015/08/18	386372	US3622X4AE39		146810	BND	FR NT REDEEM 08/06/2045 USD 250000 - 144A Cls A2	A	USBND	USD	250000.00000	3622X4AE3		DFR			144A		XL21	
SCMST	U	2006/07/12	2015/08/18	386379	US3622X4AF04		146810	BND	FR NT REDEEM 08/06/2045 USD 250000 - 144A Cls B	A	USBND	USD	250000.00000	3622X4AF0		DFR			144A		XL21	
SCMST	U	2006/07/12	2015/08/20	386383	US3622X4AG86		146810	BND	FR NT REDEEM 08/06/2045 USD 250000 - 144A Cls C	A	USBND	USD	250000.00000	3622X4AG8		DFR			144A	DBVSGR	XL21	
SCMST	U	2006/07/12	2015/08/18	386397	US3622X4AH69		146810	BND	FR NT REDEEM 08/06/2045 USD 250000 - 144A Cls D	A	USBND	USD	250000.00000	3622X4AH6		DFR			144A		XL21	
SCMST	U	2006/07/14	2015/08/18	387431	US3622X3AA34		146810	BND	FR NT REDEEM 08/06/2045 USD 250000 - 144A Cls F	A	USBND	USD	250000.00000	3622X3AA3		DFR			144A		XL21	
SCMST	U	2006/07/14	2015/08/18	387468	US3622X3AB17		146810	BND	FR NT REDEEM 08/06/2045 USD 250000 - 144A Cls G	A	USBND	USD	250000.00000	3622X3AB1		DFR			144A		XL21	
SCMST	U	2006/07/24	2015/08/24	392158	USG6769PAA33		100018	BND	FR NT REDEEM 08/05/2020 USD 250000 - Reg S	A	IEISE	USD	250000.00000	G6769PAA3	025108477	REG			REGS	DBVSFR	IE21	
SCMST	U	2006/07/24	2012/04/17	392364	US05354TAE73		100823	BND	FR NT REDEEM 08/01/2051 USD 100000 - 144A Cls A/2	A	USBND	USD	100000.00000	05354TAE7	025686845	REG			144A		XL21	
SCMST	U	2006/07/28	2012/06/25	393707	USG43124AA76		99978	BND	FR NT REDEEM 08/07/2046 USD 1000000 - Cls `A1` Reg `S`	A	USBND	USD	1000000.00000	G43124AA7	025719131	REG			REGS		XL21	
SCMST	U	2006/07/28	2012/06/25	393710	USG43124AC33		99978	BND	FR NT REDEEM 08/07/2046 USD 1000000 - Cls `B` Reg `S`	A	USBND	USD	1000000.00000	G43124AC3	025719255	REG			REGS		XL21	
SCMST	U	2006/07/28	2012/06/25	393712	USG43124AD16		99978	BND	FR NT REDEEM 08/07/2046 USD 1000000 - Cls `C` Reg `S`	A	USBND	USD	1000000.00000	G43124AD1	025719263	REG			REGS		XL21	
SCMST	U	2006/07/28	2012/06/25	393715	USG43124AE98		99978	BND	FR NT REDEEM 08/07/2046 USD 1000000 - Cls `D` Reg `S`	A	USBND	USD	1000000.00000	G43124AE9	025719387	REG			REGS		XL21	
SCMST	U	2006/07/31	2012/04/17	393906	US05354TAG22		100823	BND	FR NT REDEEM 08/01/2051 USD 100000 - 144A Cls B	A	USBND	USD	100000.00000	05354TAG2	025686918	REG			144A		XL21	
SCMST	U	2006/07/31	2012/04/17	393908	US05354TAJ60		100823	BND	FR NT REDEEM 08/01/2051 USD 100000 - 144A	A	USBND	USD	100000.00000	05354TAJ6	025686934	REG			144A		XL21	
SCMST	U	2006/07/31	2012/04/17	393911	US05354TAL17		100823	BND	FR NT REDEEM 08/01/2051 USD 100000 - 144A Cls D	A	USBND	USD	100000.00000	05354TAL1	025686942	REG			144A		XL21	
SCMST	U	2006/07/31	2012/01/16	393913	US05354TAC18		100823	BND	FR NT REDEEM 08/01/2051 USD 100000 - Cls E 144A	A	USBND	USD	100000.00000	05354TAC1		REG			144A		XL21	
SCMST	U	2006/07/31	2015/09/03	393926	US891090AA01		100921	BND	FR NT REDEEM 05/06/2043 USD 250000 - 144A Cls A1	A	USBND	USD	250000.00000	891090AA0		REG			144A		XL21	
SCMST	U	2006/07/31	2015/09/03	393934	US891090AB83		100921	BND	FR NT REDEEM 05/06/2043 USD 250000 - 144A Cls A2	A	USBND	USD	250000.00000	891090AB8		REG			144A		XL21	
SCMST	U	2006/07/31	2015/09/02	393938	US891090AD40		100921	BND	FR NT REDEEM 05/06/2043 USD 250000 - 144A Cls C	A	USBND	USD	250000.00000	891090AD4		REG			144A		XL21	
SCMST	U	2006/07/31	2015/09/02	393940	US891090AE23		100921	BND	FR NT REDEEM 05/06/2043 USD 250000 - 144A Cls D	A	USBND	USD	250000.00000	891090AE2		REG			144A		XL21	
SCMST	U	2006/07/31	2015/09/02	393943	US891090AF97		100921	BND	FR NT REDEEM 05/06/2043 USD 250000 - 144A Cls E	A	USBND	USD	250000.00000	891090AF9		REG			144A		XL21	
SCMST	U	2006/07/31	2015/09/02	393947	US891090AG70		100921	BND	FR NT REDEEM 05/06/2043 USD 250000 - 144A Cls F	A	USBND	USD	250000.00000	891090AG7		REG			144A		XL21	
SCMST	U	2006/07/31	2014/04/22	393981	USG5738WAA83		100925	BND	FR NT REDEEM 07/05/2046 USD 500000 - Reg S	A	USBND	USD	500000.00000	G5738WAA8	025382447	DFR			REGS		XL21	
SCMST	U	2006/07/31	2012/06/05	393986	USG5738WAB66		100925	BND	FR NT REDEEM 07/05/2046 USD 500000 - Reg S Cls A1Q	A	USBND	USD	500000.00000	G5738WAB6	025382544	DFR			REGS		XL21	
SCMST	U	2006/07/31	2012/06/05	393990	USG5738WAC40		100925	BND	FR NT REDEEM 07/05/2046 USD 500000 - Reg S Cls A2	A	USBND	USD	500000.00000	G5738WAC4	025382587	DFR			REGS		XL21	
SCMST	U	2006/07/31	2015/09/15	393995	USG5738WAD23		100925	BND	FR NT REDEEM 07/05/2046 USD 500000 - Reg S Cls A3	A	USBND	USD	500000.00000	G5738WAD2	025382617	REG			REGS		XL21	
SCMST	U	2006/07/31	2015/09/15	394000	USG5738WAE06		100925	BND	FR NT REDEEM 07/05/2046 USD 250000 - Reg S Cls A4	A	USBND	USD	250000.00000	G5738WAE0	025382684	REG			REGS		XL21	
SCMST	U	2006/07/31	2015/09/15	394005	USG5738WAF70		100925	BND	FR NT REDEEM 07/05/2046 USD 250000 - Reg S Cls B	A	USBND	USD	250000.00000	G5738WAF7		REG			REGS		XL21	
SCMST	U	2006/07/31	2015/08/24	394010	USG5738XAA66		100925	BND	FR NT REDEEM 07/05/2046 USD 250000 - Reg S	A	USBND	USD	250000.00000	G5738XAA6	025382757	REG			REGS		XL21	
SCMST	U	2006/07/31	2012/06/05	394014	USG5738XAB40		100925	BND	FR NT REDEEM 07/05/2046 USD 250000 - Reg S Cls D	A	USBND	USD	250000.00000	G5738XAB4	025382790	DFR			REGS		XL21	
SCMST	U	2006/08/01	2015/09/02	394051	USG5738XAC23		100925	BND	AFB NT REDEEM 07/05/2046 USD 250000 - Reg S G5738XAC2	A	USBND	USD	250000.00000	G5738XAC2		REG			REGS		XL21	
SCMST	U	2006/08/12	2012/05/17	400085	USU56596AB28		99683	BND	FR NT REDEEM 21/12/2017 USD 250000 - Reg S Cls A2	A	USBND	USD	250000.00000	U56596AB2	023936020	DFR			REGS		XL21	
SCMST	U	2006/08/14	2015/08/18	400606	US108124AA67		101176	BND	FR NT REDEEM 21/07/2020 USD 500000 - 144A Cls A1	A	USBND	USD	500000.00000	108124AA6		DFR			144A		XL21	
SCMST	U	2006/08/15	2015/08/18	400632	US108124AC24		101176	BND	FR NT REDEEM 21/07/2020 USD 500000 - 144A Cls A2	A	USBND	USD	500000.00000	108124AC2		REG			144A		XL21	
SCMST	U	2006/08/15	2015/08/18	400638	US108124AE89		101176	BND	FR NT REDEEM 21/07/2020 USD 500000 - 144A Cls B	A	USBND	USD	500000.00000	108124AE8		REG			144A		XL21	
SCMST	U	2006/08/15	2016/10/06	400643	US108124AG38		101176	BND	FR NT REDEEM 21/07/2020 USD 500000 - 144A Cls C	A	USBND	USD	500000.00000	108124AG3		REG			144A	DBVSGR	XL21	
SCMST	U	2006/08/15	2015/08/18	400648	US108120AA46		101176	BND	FR NT REDEEM 21/07/2020 USD 500000 - 144A Cls D	A	USBND	USD	500000.00000	108120AA4		REG			144A		XL21	
SCMST	U	2006/08/15	2012/06/25	400824	US413358AA01		99978	BND	FR NT REDEEM 08/07/2046 USD 1000000 - Cls `A1` 144 `A`	A		USD	1000000.00000	413358AA0	025718569	REG			144A		XL21	
SCMST	U	2006/08/15	2012/06/25	400832	US413358AB83		99978	BND	FR NT REDEEM 08/07/2046 USD 1000000 - Cls `A2` 144 `A`	A	USBND	USD	1000000.00000	413358AB8	025718607	REG			144A		XL21	
SCMST	U	2006/08/16	2012/06/25	400954	US413358AC66		99978	BND	FR NT REDEEM 08/07/2046 USD 1000000 - Cls `B` 144 `A`	A	USBND	USD	1000000.00000	413358AC6	025718763	REG			144A		XL21	
SCMST	U	2006/08/16	2012/06/25	400961	US413358AD40		99978	BND	FR NT REDEEM 08/07/2046 USD 1000000 - Cls `C` 144 `A`	A	USBND	USD	1000000.00000	413358AD4	025718895	REG			144A		XL21	
SCMST	U	2006/08/16	2012/06/25	400966	US413358AE23		99978	BND	FR NT REDEEM 08/07/2046 USD 1000000 - Cls `D` 144 `A`	A	USBND	USD	1000000.00000	413358AE2	025718933	REG			144A		XL21	
SCMST	U	2006/08/17	2014/04/10	401328	USG98849AD71		101237	BND	FR NT REDEEM 15/03/2046 USD 200000 - Reg S Cls C	A	USBND	USD	200000.00000	G98849AD7	024875571	DFR			REGS		XL21	
SCMST	U	2006/08/17	2014/02/03	401366	USG9884UAA63		101237	BND	AFB NT REDEEM 15/03/2046 USD 200000 - Reg S	A	USBND	USD	200000.00000	G9884UAA6	024875733	REG			REGS		XL28	
SCMST	U	2006/08/18	2016/04/19	401571	USG84283AB92		101240	BND	FR NT REDEEM 27/05/2020 USD 2000000 - Reg S	A	USBND	USD	2000000.00000	G84283AB9		REG			REGS		XL21	
SCMST	U	2006/08/23	2013/10/28	402788	USG01599AF91		101320	BND	FR NT REDEEM 23/12/2036 USD 250000 - Cls A1BFunded Reg S	A	USBND	USD	250000.00000	G01599AF9	025988817	REG			REGS	DBVSGR	XL21	
SCMST	U	2006/08/23	2013/10/28	402790	US01450AAF75		101320	BND	FR NT REDEEM 23/12/2036 USD 250000 - Cls A1B Funded 144A	A	USBND	USD	250000.00000	01450AAF7	026019877	REG			144A		XL21	
SCMST	U	2006/08/23	2013/10/28	402794	USG01599AG74		101320	BND	FR NT REDEEM 23/12/2036 USD 250000 - A1B Unfunded Reg S	A	USBND	USD	250000.00000	G01599AG7	025988884	REG			REGS		XL21	
SCMST	U	2006/08/23	2013/10/28	402796	US01450AAG58		101320	BND	FR NT REDEEM 23/12/2036 USD 250000 - Cls A1BUnfunded 144A	A	USBND	USD	250000.00000	01450AAG5	026020204	REG			144A		XL21	
SCMST	U	2006/08/26	2013/12/12	404060	USG0065MAA48		101396	BND	FR NT REDEEM 10/12/2045 USD 1000000 - Reg S	A	USBND	USD	1000000.00000	G0065MAA4	025425545	REG			REGS	DBVUFR	XL21	
SCMST	U	2006/08/26	2013/10/04	404066	USG0065KAA81		101397	BND	FR NT REDEEM 10/12/2045 USD 1000000 - Reg `S`	A	USBND	USD	1000000.00000	G0065KAA8		REG			REGS		XL21	
SCMST	U	2006/08/28	2012/06/25	404159	USG0065NAA21		101399	BND	FR NT REDEEM 10/12/2045 USD 1000000 - Reg `S`	A	USBND	USD	1000000.00000	G0065NAA2		REG			REGS	DBVUFR	XL21	
SCMST	U	2006/08/28	2012/06/25	404163	USG8188CAA11		101403	BND	FR NT REDEEM 30/11/2041 USD 1000000 - Reg `S`	A	USBND	USD	1000000.00000	G8188CAA1		REG			REGS	DBVSFR	XL21	
SCMST	U	2006/08/28	2013/02/01	404173	USG1088CAC31		101405	BND	FR NT REDEEM 08/01/2041 USD 100000 - Reg S Cls `A/2L`	D	USBND	USD	100000.00000	G1088CAC3	024627900	REG			REGS	DBVSGR	XL21	
SCMST	U	2006/08/28	2013/02/01	404176	USG1088CAD14		101405	BND	FR NT REDEEM 08/01/2041 USD 100000 - Reg S Cls `A/3L`	D	USBND	USD	100000.00000	G1088CAD1	024627926	REG			REGS	DBVSGR	XL21	
SCMST	U	2006/08/28	2013/02/01	404179	USG1088CAE96		101405	BND	FR NT REDEEM 08/01/2041 USD 100000 - Cls `B/1L`	A	USBND	USD	100000.00000	G1088CAE9	024628027	BR				DBVSGR	XL21	
SCMST	U	2006/08/28	2013/02/01	404184	USG1088CAA74		101405	BND	FR NT REDEEM 08/01/2041 USD 100000 - Reg S Cls `A/1LA`	A	USBND	USD	100000.00000	G1088CAA7	024627764	REG			REGS	DBVSGR	XL21	
SCMST	U	2006/08/28	2013/02/01	404188	USG1088CAB57		101405	BND	FR NT REDEEM 08/01/2041 USD 100000 - Reg S Cls `A/1LB`	D	USBND	USD	100000.00000	G1088CAB5	024627845	REG			REGS	DBVSGR	XL21	
SCMST	U	2006/08/28	2013/04/12	404401	US89608MAC47		101411	BND	FR NT REDEEM 19/06/2046 USD 500000 - 144A Cls D	A	USBND	USD	500000.00000	89608MAC4	025514181	DFR			144A		XL21	
SCMST	U	2006/08/29	2012/08/11	404705	USG05025AB09		101420	BND	FR NT REDEEM 02/08/2046 USD 500000 - Cls `A1J` Reg `S`	A	USBND	USD	500000.00000	G05025AB0	026273170	REG			REGS		XL21	
SCMST	U	2006/08/29	2012/08/11	404712	USG05025AA26		101420	BND	FR NT REDEEM 02/08/2046 USD 500000 - Cls`A1S` Reg `S`	A	USBND	USD	500000.00000	G05025AA2	026315506	REG			REGS		XL21	
SCMST	U	2006/08/29	2012/08/11	404715	USG05025AC81		101420	BND	FR NT REDEEM 02/08/2046 USD 500000 - Reg `S` Cls `A2`	A	USBND	USD	500000.00000	G05025AC8	026315603	REG			REGS		XL21	
SCMST	U	2006/08/29	2012/08/11	404719	USG05025AD64		101420	BND	FR NT REDEEM 02/08/2046 USD 500000 - Cls `A3` Reg `S`	A	USBND	USD	500000.00000	G05025AD6	026315727	REG			REGS		XL21	
SCMST	U	2006/08/29	2012/08/11	404722	USG05025AE48		101420	BND	FR NT REDEEM 02/08/2046 USD 500000 - Cls `B` Reg `S`	A	USBND	USD	500000.00000	G05025AE4	026315867	REG			REGS		XL21	
SCMST	U	2006/08/29	2012/08/11	404726	USG05025AF13		101420	BND	FR NT REDEEM 02/08/2046 USD 500000 - Cls `C` Reg `S`	A	USBND	USD	500000.00000	G05025AF1	026315930	REG			REGS		XL21	
SCMST	U	2006/08/29	2013/07/19	404759	USG28913AA23		101419	BND	FR NT REDEEM 05/08/2046 USD 250000 - Reg S Cls C	A	USBND	USD	250000.00000	G28913AA2	025630424	REG			REGS		XL28	
SCMST	U	2006/08/29	2013/04/18	404875	US27829EAN13		101416	BND	AFB NT REDEEM 25/03/2026 USD 500000 - 144A Cls F_2	A	USBND	USD	500000.00000	27829EAN1		REG			144A		XL28	
SCMST	U	2006/08/29	2014/01/30	404925	US18272YAA64		101437	BND	FR NT REDEEM 21/05/2046 USD 250000 - Cls `A1` 144 `A`	A	USBND	USD	250000.00000	18272YAA6		REG			144A		XL21	
SCMST	U	2006/08/29	2014/01/30	404927	USG2283GAA97		101437	BND	FR NT REDEEM 21/05/2046 USD 250000 - Cls `A1` Reg `S`	A	USBND	USD	250000.00000	G2283GAA9	025477464	REG			REGS	DBVSFR	XL21	
SCMST	U	2006/08/30	2013/11/21	405148	USG6931HAC00		101452	BND	FR NT REDEEM 12/06/2040 USD 500000 - Reg S Cls B	A	USBND	USD	500000.00000	G6931HAC0	025730194	REG			REGS		XL21	
SCMST	U	2006/08/30	2013/12/10	405168	USG6931HAB27		101452	BND	FR NT REDEEM 12/06/2040 USD 500000 - Reg S	A	USBND	USD	500000.00000	G6931HAB2	025730178	REG			REGS		XL21	
SCMST	U	2006/08/30	2014/01/30	405177	USG2283GAB70		101437	BND	FR NT REDEEM 21/05/2046 USD 250000 - Cls `A2A` Reg `S`	A	USBND	USD	250000.00000	G2283GAB7	025492501	REG			REGS	DBVSFR	XL21	
SCMST	U	2006/08/30	2014/01/30	405181	USG2283GAF84		101437	BND	FR NT REDEEM 21/05/2046 USD 250000 - Reg S Cls A2B	A	USBND	USD	250000.00000	G2283GAF8	025484266	REG			REGS	DBVSFR	XL21	
SCMST	U	2006/08/30	2014/01/30	405184	USG2283GAC53		101437	BND	FR NT REDEEM 21/05/2046 USD 250000 - Cls `B` Reg `S`	A	USBND	USD	250000.00000	G2283GAC5	025484428	REG			REGS	DBVSFR	XL21	
SCMST	U	2006/08/30	2014/01/30	405187	USG2283GAD37		101437	BND	FR NT REDEEM 21/05/2046 USD 250000 - Cls `C` Reg `S`	A	USBND	USD	250000.00000	G2283GAD3	025484479	REG			REGS	DBVSFR	XL21	
SCMST	U	2006/08/30	2014/01/30	405191	USG2283GAE10		101437	BND	FR NT REDEEM 21/05/2046 USD 250000 - Cls `D` Reg `S`	A	USBND	USD	250000.00000	G2283GAE1	025484525	REG			REGS	DBVSFR	XL21	
SCMST	U	2006/08/30	2013/06/25	405297	USG3641CAA39		101462	BND	FR NT REDEEM 22/03/2018 USD 1000000 - Cls `A1` Reg `S`	A	USBND	USD	1000000.00000	G3641CAA3		REG			REGS	DBVSFR	XL21	
SCMST	U	2006/08/30	2013/06/25	405310	USG3641CAC94		101462	BND	FR NT REDEEM 22/03/2018 USD 1000000 - Cls `A2`  Reg `S`	A	USBND	USD	1000000.00000	G3641CAC9		REG			REGS	DBVSFR	XL21	
SCMST	U	2006/08/30	2013/06/25	405317	USG3641CAD77		101462	BND	FR NT REDEEM 22/03/2018 USD 1000000 - Cls `B`  Reg `S`	A	USBND	USD	1000000.00000	G3641CAD7		REG			REGS	DBVSFR	XL21	
SCMST	U	2006/08/30	2013/06/25	405364	USG36407AA52		101464	BND	FR NT REDEEM 22/03/2018 USD 1000000 - Cls `A1` Reg `S`	A	USBND	USD	1000000.00000	G36407AA5		REG			REGS	DBVSFR	XL21	
SCMST	U	2006/08/30	2013/06/25	405384	USG36407AC19		101464	BND	FR NT REDEEM 22/03/2018 USD 1000000 - Cls `A2` Reg `S`	A	USBND	USD	1000000.00000	G36407AC1		REG			REGS	DBVSFR	XL21	
SCMST	U	2006/08/30	2013/06/25	405391	USG36407AD91		101464	BND	FR NT REDEEM 22/03/2018 USD 1000000 - Cls `B`  Reg `S`	A	USBND	USD	1000000.00000	G36407AD9		REG			REGS	DBVSFR	XL28	
SCMST	U	2006/08/31	2014/01/24	405653	USU58025AL80		139329	BND	FR NT REDEEM 20/04/2018 USD 250000 - Reg S Cls A 3	A	USBND	USD	250000.00000	U58025AL8		REG			REGS	DBVSFR	XL21	
SCMST	U	2006/09/02	2013/02/01	406773	US89413CAA53		101537	BND	FR NT REDEEM 06/07/2041 USD 100000 - 144A Cls A1	A	IEISE	USD	100000.00000	89413CAA5	025788893	REG			144A	DBVSGR	IE21	
SCMST	U	2006/09/02	2013/05/16	406824	USG57828AA67		101555	BND	FR NT REDEEM 30/12/2045 USD 200000 - Reg S	A	USBND	USD	200000.00000	G57828AA6	023958309	REG			REGS	DBVSFR	XL21	
SCMST	U	2006/09/02	2013/12/18	406826	US561765AA61		101555	BND	FR NT REDEEM 30/12/2045 USD 200000 - Cls A1LA 144A	A	USBND	USD	200000.00000	561765AA6	023958082	REG			144A		XL21	
SCMST	U	2006/09/02	2013/05/16	406830	USG57828AB41		101555	BND	FR NT REDEEM 30/12/2045 USD 200000 - Reg S Cls A/1LB	A	USBND	USD	200000.00000	G57828AB4	023958333	REG			REGS	DBVSFR	XL21	
SCMST	U	2006/09/02	2013/05/16	406833	USG57828AC24		101555	BND	FR NT REDEEM 30/12/2045 USD 200000 - Reg S Cls A/2L	A	USBND	USD	200000.00000	G57828AC2	023958350	REG			REGS	DBVSFR	XL21	
SCMST	U	2006/09/02	2013/05/16	406837	USG57828AD07		101555	BND	FR NT REDEEM 30/12/2045 USD 200000 - Reg S Cls A/3L	A	USBND	USD	200000.00000	G57828AD0	023958473	REG			REGS	DBVSFR	XL21	
SCMST	U	2006/09/02	2013/05/16	406839	USG57828AE89		101555	BND	FR NT REDEEM 30/12/2045 USD 200000 - Reg S Cls B/1L	A	USBND	USD	200000.00000	G57828AE8	023958619	REG			REGS	DBVSFR	XL21	
SCMST	U	2006/09/02	2013/05/16	406841	USG57828AF54		101555	BND	FR NT REDEEM 30/12/2045 USD 200000 - Reg S Cls B/2L	A	USBND	USD	200000.00000	G57828AF5	023958635	REG			REGS	DBVSFR	XL21	
SCMST	U	2006/09/04	2013/08/30	407007	USG9590FAB25		101571	BND	FR NT REDEEM 06/06/2044 USD 250000 - Reg S Cls A2	A	USBND	USD	250000.00000	G9590FAB2	025238591	DFR			REGS		XL21	
SCMST	U	2006/09/04	2013/09/19	407054	USG9590FAD80		101571	BND	FR NT REDEEM 06/06/2044 USD 250000 - Reg S Cls B	A	USBND	USD	250000.00000	G9590FAD8	025238664	DFR			REGS		XL21	
SCMST	U	2006/09/04	2014/04/22	407088	US62474XAA28		101572	BND	FR NT REDEEM 15/07/2018 USD 250000 - 144A	A	USBND	USD	250000.00000	62474XAA2		REG			144A	DBVSGR	XL21	
SCMST	U	2006/09/04	2014/04/22	407115	US62475AAA16		101572	BND	FR NT REDEEM 15/07/2018 USD 250000 - 144A Cls E	A	IEISE	USD	250000.00000	62475AAA1		REG			144A		IE21	
SCMST	U	2006/09/05	2013/08/30	407196	USG9590FAE63		101571	BND	FR NT REDEEM 06/06/2044 USD 250000 - Reg S Cls C	A	USBND	USD	250000.00000	G9590FAE6	025238826	DFR			REGS		XL21	
SCMST	U	2006/09/05	2013/08/30	407224	USG9590FAF39		101571	BND	FR NT REDEEM 06/06/2044 USD 250000 - Reg S Cls D	A	USBND	USD	250000.00000	G9590FAF3	025238893	DFR			REGS		XL21	
SCMST	U	2006/09/05	2013/08/30	407243	USG9590FAG12		101571	BND	FR NT REDEEM 06/06/2044 USD 250000 - Reg S Cls E	A	USBND	USD	250000.00000	G9590FAG1	025238958	DFR			REGS		XL21	
SCMST	U	2006/09/09	2013/11/18	408696	USG61325AB58		159620	BND	FR NT REDEEM 27/12/2051 USD 500000 - Reg S Cls A1/M	D	USBND	USD	500000.00000	G61325AB5	025612108	REG			REGS	DBVUGR	XL21	
SCMST	U	2006/09/09	2013/11/18	408699	USG61325AC32		159620	BND	FR NT REDEEM 27/12/2051 USD 500000 - Reg S Cls A/1Q	D	USBND	USD	500000.00000	G61325AC3	025612159	DFR			REGS	DBVUGR	XL21	
SCMST	U	2006/09/09	2013/11/18	408702	USG61325AD15		159620	BND	FR NT REDEEM 27/12/2051 USD 500000 - Reg S Cls A2	D	USBND	USD	500000.00000	G61325AD1	025523784	REG			REGS	DBVUFR	XL21	
SCMST	U	2006/09/09	2014/08/08	408708	USG61325AA75		159620	BND	FR NT REDEEM 27/12/2051 USD 500000 - Reg S Cls X	A	USBND	USD	500000.00000	G61325AA7	025612060	REG			REGS		XL21	
SCMST	U	2006/09/13	2013/11/18	409883	USG61324AA01		101705	BND	FR NT REDEEM 27/12/2051 USD 500000 - Reg S Cls C	D	USBND	USD	500000.00000	G61324AA0	025612299	REG			REGS	DBVUFR	XL21	
SCMST	U	2006/09/13	2013/11/18	409884	USG61324AB83		101705	BND	FR NT REDEEM 27/12/2051 USD 500000 - Reg S Cls D	D	USBND	USD	500000.00000	G61324AB8	025612329	REG			REGS	DBVUFR	XL21	
SCMST	U	2006/09/28	2013/10/08	417262	US46265BAA61		101170	BND	FR NT REDEEM 04/08/2046 USD 250000 - Cls A1 144A	D	USBND	USD	250000.00000	46265BAA6	032922767	REG			144A		XL21	
SCMST	U	2006/09/28	2013/10/08	417263	US46265BAC28		101170	BND	FR NT REDEEM 04/08/2046 USD 250000 - Cls A/1 144A	D	USBND	USD	250000.00000	46265BAC2		REG			144A		XL21	
SCMST	U	2006/09/29	2013/08/14	418057	USG37911AA59		102462	BND	FR NT REDEEM 17/08/2046 USD 500000 - Reg S Cls A1	A	USBND	USD	500000.00000	G37911AA5	026376769	REG			REGS	DBVUFR	XL21	
SCMST	U	2006/09/29	2013/08/14	418067	USG37911AB33		102462	BND	FR NT REDEEM 17/08/2046 USD 500000 - Cls `A_2` `Reg S`	A	USBND	USD	500000.00000	G37911AB3	026376831	REG			REGS	DBVUFR	XL21	
SCMST	U	2006/09/29	2013/08/14	418075	USG37911AD98		102462	BND	FR NT REDEEM 17/08/2046 USD 500000 - Cls `B` `Reg S`	A	USBND	USD	500000.00000	G37911AD9	026376858	REG			REGS	DBVUFR	XL21	
SCMST	U	2006/09/29	2013/08/14	418084	USG37911AE71		102462	BND	FR NT REDEEM 17/08/2046 USD 500000 - Cls`C` `Reg S`	A	USBND	USD	500000.00000	G37911AE7	026376904	REG			REGS	DBVUFR	XL21	
SCMST	U	2006/09/29	2013/08/14	418090	USG37911AF47		102462	BND	FR NT REDEEM 17/08/2046 USD 500000 - Reg S D	A	USBND	USD	500000.00000	G37911AF4	026376939	REG			REGS	DBVUFR	XL21	
SCMST	U	2006/09/29	2013/08/14	418094	USG37911AG20		102462	BND	FR NT REDEEM 17/08/2046 USD 500000 - Reg S E	A	USBND	USD	500000.00000	G37911AG2	026376971	REG			REGS	DBVUFR	XL21	
SCMST	U	2006/09/29	2013/10/08	418378	USG49363AA57		101170	BND	FR NT REDEEM 04/08/2046 USD 100000 - Reg S Cls E	D	USBND	USD	100000.00000	G49363AA5	025815068	REG			REGS		XL21	
SCMST	U	2006/09/29	2013/10/08	418402	USG4936YAD16		101170	BND	FR NT REDEEM 04/08/2046 USD 250000 - Reg `S` Cl `B`	D	USBND	USD	250000.00000	G4936YAD1					REGS		XL21	
SCMST	U	2006/09/29	2013/10/08	418422	USG4936YAC33		101170	BND	FR NT REDEEM 04/08/2046 USD 250000 - Reg S Cls A_2	D	USBND	USD	250000.00000	G4936YAC3	025814487	REG			REGS		XL21	
SCMST	U	2006/09/29	2013/10/08	418428	USG4936YAE98		101170	BND	FR NT REDEEM 04/08/2046 USD 250000 - Cls `C` Reg `S`	D	USBND	USD	250000.00000	G4936YAE9	025814754				REGS		XL21	
SCMST	U	2006/09/29	2013/10/08	418432	USG4936YAF63		101170	BND	FR NT REDEEM 04/08/2046 USD 250000 - Cls `D` Reg `S`	D	USBND	USD	250000.00000	G4936YAF6					REGS		XL21	
SCMST	U	2006/10/02	2013/10/10	418749	US157197AA25		101201	BND	FR NT REDEEM 16/10/2046 USD 500000 - Cls `A1` `144A`	A	USBND	USD	500000.00000	157197AA2	026221722	REG			144A	DBVSGR	XL21	
SCMST	U	2006/10/02	2013/10/10	418752	US157197AD63		101201	BND	FR NT REDEEM 16/10/2046 USD 500000 - Cls `C` `144A`	A	USBND	USD	500000.00000	157197AD6		REG			144A		XL21	
SCMST	U	2006/10/02	2013/10/10	418759	US157197AE47		101201	BND	FR NT REDEEM 16/10/2046 USD 500000 - Cls `D` `144A`	A	USBND	USD	500000.00000	157197AE4		REG			144A		XL21	
SCMST	U	2006/10/02	2013/10/10	418763	US157197AB08		101201	BND	FR NT REDEEM 16/10/2046 USD 500000 - Ser `2006_1/A2` 144A	A	USBND	USD	500000.00000	157197AB0	026223636	REG			144A		XL21	
SCMST	U	2006/10/02	2016/04/28	418764	US157196AA42		101201	BND	AFB NT REDEEM 16/10/2046 USD 250000	A	USBND	USD	250000.00000	157196AA4		BR					XL28	
SCMST	U	2006/10/02	2016/04/29	418768	USG20263AA00		101201	BND	AFB NT REDEEM 16/10/2046 USD 250000 - Reg S Ser 2006/1	A	USBND	USD	250000.00000	G20263AA0		REG			REGS		XL28	
SCMST	U	2006/10/02	2013/10/10	418769	US157197AC80		101201	BND	FR NT REDEEM 16/10/2046 USD 500000 - Cls` B` 144A	A	USBND	USD	500000.00000	157197AC8		REG			144A		XL28	
SCMST	U	2006/10/02	2013/10/15	418806	USG20264AE05		101201	BND	FR NT REDEEM 16/10/2046 USD 500000 - Cls `D` `Reg S`	A	USBND	USD	500000.00000	G20264AE0	026223172	REG			REGS		XL21	
SCMST	U	2006/10/03	2011/09/01	418990	USG5296WAD68		102519	BND	FR NT REDEEM 01/10/2046 USD 250000 - `B`	A	USBND	USD	250000.00000	G5296WAD6		REG					XL21	
SCMST	U	2006/10/04	2013/05/14	419934	USG0063NAB22		102569	BND	FR NT REDEEM 12/09/2046 USD 250000 - Reg S Cls A1J	A	USBND	USD	250000.00000	G0063NAB2		REG			REGS	DBVSBR	XL21	
SCMST	U	2006/10/04	2013/05/14	419936	USG0063NAC05		102569	BND	FR NT REDEEM 12/09/2046 USD 250000 - Reg S Cls A2	A	USBND	USD	250000.00000	G0063NAC0		REG			REGS		XL21	
SCMST	U	2006/10/04	2013/05/18	419938	USG0063NAD87		102569	BND	FR NT REDEEM 12/09/2046 USD 250000 - Reg S Cls A3	A	USBND	USD	250000.00000	G0063NAD8		REG			REGS		XL21	
SCMST	U	2006/10/19	2015/05/27	424254	USG71806AA49		95981	BND	AFB NT REDEEM 08/04/2041 USD 100000 - Reg S	A	USBND	USD	100000.00000	G71806AA4	023212447	REG			REGS	DBFUGR	XL28	
SCMST	U	2006/10/24	2014/08/07	425229	US601312AA97		101705	BND	FR NT REDEEM 27/12/2051 USD 500000 - 144A Cls C	D	USBND	USD	500000.00000	601312AA9	025523636	REG			144A		XL21	
SCMST	U	2006/10/24	2014/08/07	425236	US601313AD10		159620	BND	FR NT REDEEM 27/12/2051 USD 500000 - 144A Cls A2	D	USBND	USD	500000.00000	601313AD1	025613406	REG			144A		XL21	
SCMST	U	2006/10/24	2014/08/07	425241	US601313AC37		159620	BND	FR NT REDEEM 27/12/2051 USD 500000 - 144A Cls A1Q	D	USBND	USD	500000.00000	601313AC3	025613350	REG			144A		XL21	
SCMST	U	2006/10/24	2014/08/07	425245	US601312AB70		101705	BND	FR NT REDEEM 27/12/2051 USD 500000 - Cls `D` 144A	D	USBND	USD	500000.00000	601312AB7	025523709	REG			144A		XL21	
SCMST	U	2006/10/24	2014/08/07	425254	US601313AE92		159620	BND	FR NT REDEEM 27/12/2051 USD 500000 - 144A Cls B	D	USBND	USD	500000.00000	601313AE9	025613422	REG			144A		XL21	
SCMST	U	2006/10/24	2014/08/07	425257	US601313AB53		159620	BND	FR NT REDEEM 27/12/2051 USD 500000 - 144A Cls A1M	D	USBND	USD	500000.00000	601313AB5	025613295	REG			144A		XL21	
SCMST	U	2006/10/26	2015/05/27	426028	US861754AK58		100986	BND	FR NT REDEEM 16/07/2020 USD 250000 - 144A Cls D	A	IEISE	USD	250000.00000	861754AK5	026443822	REG			144A	DBVSGR	IE21	
SCMST	U	2006/11/02	2011/09/13	428216	USG6219FAB97		103443	BND	FR NT REDEEM 05/12/2051 USD 100000 - Reg S Cls A/2	A	USBND	USD	100000.00000	G6219FAB9	026292107	REG			REGS	DMVSBR	XL21	
SCMST	U	2006/11/02	2011/09/13	428218	USG6219FAC70		103443	BND	FR NT REDEEM 05/12/2051 USD 100000 - Reg S Cls B/1	A	USBND	USD	100000.00000	G6219FAC7	026292115	REG			REGS	DMVSBR	XL21	
SCMST	U	2006/11/02	2011/09/13	428220	USG6219FAD53		103443	BND	FR NT REDEEM 05/12/2051 USD 100000 - Reg S Cls B/2	A	USBND	USD	100000.00000	G6219FAD5	026292123	REG			REGS	DMVSBR	XL21	
SCMST	U	2006/11/02	2011/09/13	428222	USG6219FAE37		103443	BND	FR NT REDEEM 05/12/2051 USD 100000 - Reg S Cls C	A	USBND	USD	100000.00000	G6219FAE3	026292131	REG			REGS		XL21	
SCMST	U	2006/11/02	2012/04/17	428236	USG62195AA39		103443	BND	FR NT REDEEM 05/12/2051 USD 100000 - Reg S	A	USBND	USD	100000.00000	G62195AA3	026292140	REG			REGS	DMVSBR	XL21	
SCMST	U	2006/11/03	2013/05/18	428901	USG0063NAF36		102569	BND	FR NT REDEEM 12/09/2046 USD 250000 - Reg S Cls B2	A	USBND	USD	250000.00000	G0063NAF3		REG			REGS		XL21	
SCMST	U	2006/11/03	2013/05/18	428905	USG0063NAG19		102569	BND	FR NT REDEEM 12/09/2046 USD 250000 - Reg S Cls B3	A	USBND	USD	250000.00000	G0063NAG1		REG			REGS		XL21	
SCMST	U	2006/11/03	2013/05/21	428906	USG0063NAE60		102569	BND	FR NT REDEEM 12/09/2046 USD 250000 - Reg S Cls B1	A	USBND	USD	250000.00000	G0063NAE6		REG			REGS	DBVSGR	XL21	
SCMST	U	2006/11/09	2013/07/02	431319	US10620NAM02		97809	BND	FR NT REDEEM 25/03/2022 USD 100000 - 2006_I, A_1	A	USBND	USD	100000.00000	10620NAM0		REG				DBVGGR	XL21	
SCMST	U	2006/11/09	2013/07/02	431321	US10620NAN84		97809	BND	FR NT REDEEM 25/06/2023 USD 100000 - `2006` `I_A_2`	A	USBND	USD	100000.00000	10620NAN8	025307852	REG				DBVGGR	XL21	
SCMST	U	2006/11/09	2013/07/02	431325	US10620NAP33		97809	BND	FR NT REDEEM 25/12/2024 USD 100000 - 2006 I, A_3	A	USBND	USD	100000.00000	10620NAP3	025307917	REG				DBVGGR	XL21	
SCMST	U	2006/11/16	2013/04/23	433830	USG4065LAB65		103931	BND	FR NT REDEEM 20/04/2018 USD 500000 - Cls `A2` Reg S	A	USBND	USD	500000.00000	G4065LAB6					REGS	DBVUGR	XL21	
SCMST	U	2006/11/16	2013/04/23	433832	USG4065LAC49		103931	BND	FR NT REDEEM 20/04/2018 USD 500000 - Cls `B` Reg S	A	USBND	USD	500000.00000	G4065LAC4					REGS		XL28	
SCMST	U	2006/11/16	2014/05/01	433838	USG4065LAA82		103931	BND	FR NT REDEEM 20/04/2018 USD 500000 - Reg S Cls A1	A	USBND	USD	500000.00000	G4065LAA8	025196597				REGS	DBVUGR	XL21	
SCMST	U	2006/11/16	2013/04/23	433849	USG4065LAD22		103931	BND	FR NT REDEEM 20/04/2018 USD 500000 - Cls `C` Reg S	A	USBND	USD	500000.00000	G4065LAD2		BE			REGS		XL28	
SCMST	U	2006/11/16	2013/04/23	433989	USG4065LAE05		103931	BND	FR NT REDEEM 20/04/2018 USD 500000 - Cls`D` `Reg S`	A	USBND	USD	500000.00000	G4065LAE0	025196732	BE			REGS		XL28	
SCMST	U	2006/11/16	2010/11/18	434018	US543174AA49		102476	BND	FR NT REDEEM 06/11/2046 USD 250000 - 144A Cls P	A	USBND	USD	250000.00000	543174AA4		REG			144A		XL21	
SCMST	U	2006/11/17	2011/09/01	434749	USG5296WAC85		102519	BND	FR NT REDEEM 01/10/2046 USD 250000 - Cls `A_2` `Reg S`	A	USBND	USD	250000.00000	G5296WAC8		BR			REGS		XL21	
SCMST	U	2006/11/17	2010/08/10	434752	USG5296WAA20		102519	BND	FR NT REDEEM 01/10/2046 USD 250000 - A1 Reg S	A	USBND	USD	250000.00000	G5296WAA2		REG			REGS		XL21	
SCMST	U	2006/11/20	2012/06/25	436154	US749624AM44		99634	BND	FR NT REDEEM 12/06/2024 USD 100000 - 2006/NS3 `144A `A1b	A	USBND	USD	100000.00000	749624AM4	026865620	BR			144A		XL21	
SCMST	U	2006/11/22	2010/09/24	437085	USG17540AA68		104441	BND	AFB NT REDEEM 13/01/2047 USD 250000 - Reg S	A	USBND	USD	250000.00000	G17540AA6		REG			REGS		XL28	
SCMST	U	2006/11/22	2010/09/24	437086	USG17542AB08		104441	BND	FR NT REDEEM 13/01/2047 USD 250000 - Cls `A/J` Reg S	A		USD	250000.00000	G17542AB0		REG			REGS		XL21	
SCMST	U	2006/11/22	2010/09/24	437089	USG17542AE47		104441	BND	FR NT REDEEM 13/01/2047 USD 250000 - Cls `D` Reg S	A	USBND	USD	250000.00000	G17542AE4		REG			REGS		XL21	
SCMST	U	2006/11/22	2012/04/17	437090	USG17542AA25		104441	BND	FR NT REDEEM 13/01/2047 USD 250000 - Cls `A/S``Reg S`	A	USBND	USD	250000.00000	G17542AA2	026824184	REG			REGS		XL21	
SCMST	U	2006/11/22	2010/09/24	437091	USG17542AC80		104441	BND	FR NT REDEEM 13/01/2047 USD 250000 - Cls `B` Reg S	A	USBND	USD	250000.00000	G17542AC8		REG			REGS		XL21	
SCMST	U	2006/11/22	2010/09/24	437096	USG17542AD63		104441	BND	FR NT REDEEM 13/01/2047 USD 250000 - Cls `C` Reg S	A	USBND	USD	250000.00000	G17542AD6		REG			REGS		XL21	
SCMST	U	2006/11/23	2013/05/21	437842	USG0063NAA49		102569	BND	FR NT REDEEM 12/09/2046 USD - Reg S Cls A1S	A	USBND	USD		G0063NAA4		REG			REGS	DBVSBR	XL21	
SCMST	U	2006/11/23	2016/04/29	437888	USG0063MAA65		102569	BND	AFB NT REDEEM 12/09/2046 USD 250000 - Reg S Cls I	A	USBND	USD	250000.00000	G0063MAA6		REG			REGS	DBVXBR	XL28	
SCMST	U	2006/11/23	2013/05/21	437906	USG0063MAC22		102569	BND	AFB NT REDEEM 12/09/2046 USD 250000 - Reg S Cls II	A	USBND	USD	250000.00000	G0063MAC2		REG			REGS	DBVXBR	XL28	
SCMST	U	2006/11/23	2010/08/09	437945	US49858LAA17		102519	BND	FR NT REDEEM 01/10/2046 USD 250000 - 144A Cls A1	A	USBND	USD	250000.00000	49858LAA1		REG			144A		XL21	
SCMST	U	2006/11/23	2012/04/28	437946	US83586YAA10		104520	BND	FR NT REDEEM 28/10/2046 USD 500000 - 144A Cls A1	A	USBND	USD	500000.00000	83586YAA1		DFR			144A		XL21	
SCMST	U	2006/11/23	2013/05/03	437949	US83586YAB92		104520	BND	FR NT REDEEM 28/10/2046 USD 500000 - 144A Cls A2	A	USBND	USD	500000.00000	83586YAB9		DFR			144A	DBVSGR	XL21	
SCMST	U	2006/11/23	2016/01/04	437951	US49858LAE39		102519	BND	FR NT REDEEM 01/10/2046 USD 250000 - 144A Cls A2	A	USBND	USD	250000.00000	49858LAE3		REG			144A	DBVSGR	XL21	
SCMST	U	2006/11/23	2012/04/30	437953	US83586YAC75		104520	BND	FR NT REDEEM 28/10/2046 USD 500000 - 144A Cls A3	A	USBND	USD	500000.00000	83586YAC7		DFR			144A		XL21	
EDI_ENDOFFILE
