EDI_IFCHG_20161007
TableName	Actflag	Created	Changed	IfchgID	SecID	ISIN	NotificationDate	OldIntPayFrqncy	OldIntPayDate1	OldIntPayDate2	OldIntPayDate3	OldIntPayDate4	NewIntPayFrqncy	NewIntPayDate1	NewIntPayDate2	NewIntPayDate3	NewIntPayDate4	Eventtype
IFCHG	U	2004/09/08	2008/05/02	122	146285	GB0006241326	2004/04/16	SMA	1704	1710			SMA	1904	1910			CORR
IFCHG	U	2006/02/17	2008/05/02	876	141708	USG34346AA77	2006/02/17	SMA	0604	0610			SMA	3103	3009			CORR
IFCHG	U	2006/02/17	2008/05/02	877	141161	US31737RAA32	2006/02/17	SMA	3103	3109			SMA	3103	3009			CORR
IFCHG	U	2006/02/20	2008/05/02	882	139560	US74962TAG22	2003/03/12	QTR	1303	1306	1309	1312	QTR	1203	1206	1209	1212	CORR
IFCHG	U	2006/03/06	2008/05/02	941	164723	US74963RAB69	2006/03/06	QTR	1303	1306	1309	1312	QTR	1203	1206	1209	1212	CORR
IFCHG	U	2006/03/06	2008/05/02	943	164730	US74963RAC43	2006/03/06	QTR	1303	1306	1309	1312	QTR	1203	1206	1209	1212	CORR
IFCHG	U	2006/03/06	2008/05/02	945	164739	US74963RAD26	2006/03/06	QTR	1312	1303	1306	1309	QTR	1203	1206	1209	1212	CORR
IFCHG	U	2006/05/09	2008/05/02	1066	301698	USG5606WAA74	2006/05/09	QTR					MNT					CORR
IFCHG	U	2006/06/12	2008/05/02	1277	376321	USG81367AB30	2006/05/05	QTR	1107	1110	1101	1104	QTR	1807	1810	1801	1804	CORR
IFCHG	U	2006/07/24	2008/05/02	1458	354548	US71419XAB91	2006/03/22	QTR	2203	1206	1109	1212	QTR	1009	1012	1003	1006	CORR
IFCHG	U	2006/07/24	2008/05/02	1461	377999	US71419XAF06	2006/03/22	QTR	1206	1109	1212	1103	QTR	1009	1012	1003	1006	CORR
IFCHG	U	2006/07/29	2008/05/02	1604	139870	US76112RAL96	2006/07/19	QTR	1308	1311	1302	1105	QTR	1308	1311	1302	1305	CORR
IFCHG	U	2006/07/31	2008/05/02	1687	392364	US05354TAE73	2006/07/07	MNT					QTR	0801	0804	0807	0810	CORR
IFCHG	U	2006/07/31	2008/05/02	1703	157513	US74962EAJ91	2004/03/04	QTR	1312	1303	1306	1309	QTR	1209	1212	1203	1206	CORR
IFCHG	U	2006/07/31	2008/05/02	1705	164742	US74963RAG56	2006/07/19	QTR	1303	1306	1309	1312	QTR	1212	1203	1206	1209	CORR
IFCHG	U	2006/07/31	2008/05/02	1708	164730	US74963RAC43	2006/07/19	QTR	1203	1206	1209	1212	QTR	1212	1203	1206	1209	CORR
IFCHG	U	2006/07/31	2008/05/02	1710	164723	US74963RAB69	2006/07/19	QTR	1203	1206	1209	1212	QTR	1212	1203	1206	1209	CORR
IFCHG	U	2006/08/01	2008/05/02	1716	139990	US74962XAE85	2006/07/20	QTR	1303	1306	1309	1312	QTR	1203	1206	1209	1212	CORR
IFCHG	U	2006/08/25	2008/05/02	1781	231241	GB0040024555	2006/07/27	SMA	2904	2910			SMA	3004	3010			CORR
IFCHG	U	2006/09/02	2008/05/02	1806	142761	GB0000784164	1984/11/01	SMA	1505	1411			SMA	0105	0111			CORR
IFCHG	U	2006/09/02	2008/05/02	1807	145797	GB0005902332	1985/06/19	SMA	3112	3006			SMA	1906	1912			CORR
IFCHG	U	2006/09/02	2008/05/02	1810	146324	GB0004355490	1986/07/09	QTR	2204	2207	2210	2201	QTR	0907	0910	0901	0904	CORR
IFCHG	U	2006/09/29	2008/05/02	1921	401180	USG62982AB27	2006/08/10	QTR	0302	0305	0308	3111	QTR	0302	0305	0308	0311	CORR
IFCHG	U	2006/10/06	2008/05/02	1930	404712	USG05025AA26	2006/08/02	QTR	0201	1002	0205	0208	QTR	0211	0202	0205	0208	CORR
IFCHG	U	2006/10/06	2008/05/02	1931	404722	USG05025AE48	2006/08/02	QTR	0211	0202	0205	2008	QTR	0211	0202	0205	0208	CORR
IFCHG	U	2006/10/06	2008/05/02	1932	404739	USG06740AC18	2006/06/22	QTR	0202	0205	0208	0211	QTR	0203	0206	0209	0212	CORR
IFCHG	U	2006/10/06	2008/05/02	1933	420557	US09624XAC83	2006/07/26	QTR	2603	2606	2609	2612	QTR	0103	0106	0109	0112	CORR
IFCHG	U	2006/10/12	2008/05/02	1944	422284	US23910WAA80	2006/03/30	QTR	0907	0910	0901	0904	QTR	0709	0712	0703	0706	CORR
IFCHG	U	2006/11/15	2008/05/02	2173	428648	USG5698GAK97	2006/08/03	QTR	0302	0305	0308	0311	QTR	0602	0605	0608	0611	CORR
IFCHG	U	2006/11/22	2008/05/02	2190	229142	US78442GHU31	2003/08/29	QTR	1503	1506	1509	1512	QTR	1512	1503	1506	1509	CORR
IFCHG	U	2006/11/23	2008/05/02	2211	229144	US78442GHV14	2003/08/31	QTR	1503	1506	1509	1512	QTR	1512	1503	1506	1509	CORR
IFCHG	U	2006/12/01	2008/05/02	2324	431325	US10620NAP33	2006/04/27	QTR	2603	2606	2609	2612	QTR	2503	2506	2509	2512	CORR
IFCHG	U	2006/12/02	2008/05/02	2326	431854	USG23415AB18	2006/06/07	QTR	2802	2805	3008	3011	QTR	2802	3005	3008	3011	CORR
IFCHG	U	2006/12/18	2008/05/02	2441	429506	USG94125AE41	2006/10/20	QTR	0502	0505	0808	0511	QTR	0502	0505	0508	0511	CORR
IFCHG	I	2006/12/21	2006/12/21	2461	321220	USW25381DL07	2014/03/25	SMA	2503	2509			QTR	2503	2506	2509	2512	IFCHG
IFCHG	I	2007/01/04	2007/01/04	2514	435788	USP09645AA37	2016/11/07	SMA	0705	0711			QTR	0702	0705	0708	0711	IFCHG
IFCHG	U	2007/01/11	2008/05/02	2560	145951	GB0007547507	2006/03/14	SMA	1912	1906			SMA	1106	1112			CORR
IFCHG	U	2007/01/17	2008/05/02	2604	184288	US706451AG65	2002/02/01	QTR	0102	0105	0108	0111	SMA	0102	0108			CORR
IFCHG	I	2007/01/19	2007/01/19	2626	483034	US05960AAA25	2016/10/13	SMA	1304	1310			QTR	1301	1304	1307	1310	IFCHG
IFCHG	I	2007/01/19	2007/01/19	2629	483061	USP1393WAA38	2016/10/13	SMA	1304	1310			QTR	1304	1307	1310	1301	IFCHG
IFCHG	U	2007/02/13	2008/05/02	2677	450709	XS0272949016	2006/10/27	ANL	2710				SMA	2704	2710			CORR
IFCHG	U	2007/02/14	2008/05/02	2680	450706	XS0272948554	2006/10/27	ANL	2710				SMA	2704	2710			CORR
IFCHG	U	2007/02/23	2008/05/02	2715	421938	US85233YAD76	2006/07/27	QTR	2002	2005	2008	2011	QTR	1002	1005	1008	1011	CORR
IFCHG	U	2007/03/09	2008/05/02	2948	554550	US30238XAD03	2006/11/30	QTR	0501	0504	0507	0510	MNT					CORR
IFCHG	I	2007/03/14	2007/03/14	3126	490577	XS0259734530	2006/06/29	ANL	0511				ANL	0611				CORR
IFCHG	I	2007/03/22	2007/03/22	6268	406796	XS0254068264	2006/05/10	QTR	2001	2004	2007	2010	ANL	2010				CORR
IFCHG	I	2007/03/24	2007/03/24	9359	472230	XS0263169954	2006/08/17	QTR	2009	2012	2003	2006	ANL	2009				CORR
IFCHG	I	2007/03/24	2007/03/24	9880	410040	XS0264823567	2006/08/16	SMA	1502	1508			ANL	1704				CORR
IFCHG	I	2007/03/26	2007/03/26	11082	417953	XS0267870508	2006/09/20	SMA	2003	2009			ANL					CORR
IFCHG	I	2007/03/26	2007/03/26	11291	422372	XS0268226536	2006/09/21	SMA	2203	2209			ANL	2203				CORR
IFCHG	I	2007/03/26	2007/03/26	11482	563630	USF0609NAP36	2018/12/14	SMA	1406	1412			QTR	1403	1406	1409	1412	IFCHG
IFCHG	I	2007/03/26	2007/03/26	11570	563636	USF0609NAQ19	2036/12/14	SMA	1406	1412			QTR	1403	1406	1409	1412	IFCHG
IFCHG	I	2007/03/26	2007/03/26	11861	525839	XS0269263942	2006/09/22	SMA	2203	2209			ANL					CORR
IFCHG	I	2007/03/26	2007/03/26	11957	422712	XS0269453139	2006/09/28	ANL	2809				ANL	1512				CORR
IFCHG	I	2007/04/06	2007/04/06	15387	444415	XS0276148847	2007/01/04	SMA	2805	2811			ANL	2805				CORR
IFCHG	I	2007/04/11	2007/04/11	15448	229811	GB0047524268	1986/09/26	SMA	3009	3003			SMA	2603	2609			CORR
IFCHG	I	2007/04/12	2007/04/12	15454	406420	USY72570AK34	1997/01/15	SMA	1501	1507			SMA	1507	1501			CORR
IFCHG	I	2007/05/22	2007/05/22	16745	576393	XS0294208235	2007/03/30	SMA	0304	0310								CORR
IFCHG	I	2007/05/25	2007/05/25	16869	171067	USG4672CAC94	2003/11/24	SMA	2411	2405			SMA	2405	2411			CLEAN
IFCHG	I	2007/06/12	2007/06/12	17603	412183	USW5816FCM42	2005/04/20	SMA	2004	2010			SMA	2010	2004			CLEAN
IFCHG	I	2007/06/12	2007/06/12	17604	412183	USW5816FCM42	2015/04/20	SMA	2010	2004			QTR	2007	2010	2001	2004	IFCHG
IFCHG	I	2007/06/12	2007/06/12	17609	428820	USX3078NAA29	2011/06/15	SMA	1506	1512			QTR	1509	1512	1503	1506	IFCHG
IFCHG	I	2007/06/23	2007/06/23	17976	597352	XS0301888615	2007/05/24	ANL					SMA	2511	2505			CORR
IFCHG	I	2007/06/28	2007/06/28	18103	609658	US89352HAC34	2017/05/15	SMA	1511	1505			QTR	1502	1505	1508	1511	IFCHG
IFCHG	I	2007/06/29	2007/06/29	18131	610714	USG23491AA40	2016/12/31	SMA	3112	3006			QTR	3103	3006	3009	3112	IFCHG
IFCHG	I	2007/06/29	2007/06/29	18136	610830	US564759QB72	2016/12/01	SMA	0106	0112			QTR	0103	0106	0109	0112	IFCHG
IFCHG	I	2007/07/12	2007/07/12	18331	558896	XS0292530309	2007/03/19	ANL	2009				SMA	2009	2003			CORR
IFCHG	I	2007/07/12	2007/07/12	18344	611929	XS0303241615	2007/06/06	ANL	1412				SMA	1412	1406			CORR
IFCHG	I	2007/07/16	2007/07/16	18419	597352	XS0301888615	2007/05/25	SMA	2511				ANL	2511				CORR
IFCHG	I	2007/07/16	2007/07/16	18433	547940	XS0288690539	2007/02/22	ANL	2208				SMA	2208	2202			CLEAN
IFCHG	I	2007/07/17	2007/07/17	18459	551662	XS0290580595	2007/03/07	ANL	0709				SMA	0709	0703			CLEAN
IFCHG	I	2007/07/18	2007/07/18	18486	624997	US379308AB53	2016/09/14	SMA	1403	1409			QTR	1403	1406	1409	1412	IFCHG
IFCHG	I	2007/07/20	2007/07/20	18546	626427	US054536AC14	2018/12/14	SMA	1406	1412			QTR	1412	1403	1406	1409	IFCHG
IFCHG	I	2007/07/20	2007/07/20	18548	626485	US170228AB61	2012/02/14	SMA	1408	1402			QTR	1402	1405	1408	1411	IFCHG
IFCHG	I	2007/07/25	2007/07/25	18648	607769	XS0305204595	2007/06/13	ANL	1312				SMA	1306	1312			CORR
IFCHG	I	2007/07/26	2007/07/26	18663	627371	XS0308427581	2007/07/03	ANL	0201				SMA	0201	0207			CORR
IFCHG	I	2007/07/30	2007/07/30	18703	575784	US83367TAA79	2017/04/05	SMA	0510	0504			QTR	0507	0510	0501	0504	IFCHG
IFCHG	I	2007/08/06	2007/08/06	18806	422712	XS0269453139	2006/09/29	ANL	1512				SMA	1512	1506			CLEAN
IFCHG	I	2007/08/06	2007/08/06	18807	422712	XS0269453139	2016/12/15	SMA	1512	1506			QTR	1503	1506	1509	1512	IFCHG
IFCHG	I	2007/08/08	2007/08/08	18882	607769	XS0305204595	2007/06/14	SMA	1306	1312			ANL					CLEAN
IFCHG	I	2007/08/17	2007/08/17	19109	646920	USG1970AAA28	2007/01/18	SMA	1901	1907			QTR	1901	1904	1907	1910	CORR
IFCHG	I	2007/08/17	2007/08/17	19122	647051	US98372PAJ75	2017/04/15	SMA	1510	1504			QTR	1501	1504	1507	1510	IFCHG
IFCHG	I	2007/08/17	2007/08/17	19127	410040	XS0264823567	2006/08/26	ANL	1704				SMA	1704	1710			CLEAN
IFCHG	I	2007/08/20	2007/08/20	19131	563406	XS0264824375	2006/08/16	ANL	1702				SMA	1702	1708			CORR
IFCHG	I	2007/08/22	2007/08/22	19235	650100	XS0290135358	2017/05/31	ANL	3105				QTR	3105	3108	3011	2802	IFCHG
IFCHG	I	2007/08/23	2007/08/23	19264	649453	USG4637HAB45	2030/06/30	SMA	3006	3112			QTR	3103	3006	3009	3112	IFCHG
IFCHG	I	2007/08/23	2007/08/23	19270	650776	USU2445QAA68	2009/11/02	SMA	0205	0211			QTR	0202	0205	0208	0211	IFCHG
IFCHG	I	2007/08/28	2007/08/28	19370	455299	USW25381DM89	2015/03/23	SMA	2309	2303			QTR	2303	2306	2309	2312	IFCHG
IFCHG	I	2007/08/28	2007/08/28	19382	656277	USU073081064	2008/07/15	SMA	1501	1507			QTR	1510	1501	1504	1507	IFCHG
IFCHG	I	2007/09/06	2007/09/06	19584	646920	USG1970AAA28	2007/01/19	QTR	1901	1904	1907	1910	SMA	1901	1907			CLEAN
IFCHG	U	2007/09/11	2013/01/22	19696	668123	USY9695NBR36	2017/05/02	SMA	0211	0205			QTR	0202	0205	0208	0211	IFCHG
IFCHG	I	2007/09/28	2007/09/28	20132	642221	XS0316524130	2007/08/17	ANL	1808				ANL	1602				CORR
IFCHG	I	2007/10/01	2007/10/01	20199	266137	USY85479AB21	2016/09/22	SMA	0103	0109			QTR	2203	2206	2209	2212	IFCHG
IFCHG	I	2007/10/04	2007/10/04	20297	687302	US20825UAC80	2001/10/12	SMA					SMA	1504	1510			CORR
IFCHG	I	2007/10/04	2007/10/04	20313	260904	US268766BV33	2001/07/19	SMA					SMA	1501	1507			CORR
IFCHG	I	2007/10/08	2007/10/08	20348	681794	US590188JN99	1998/11/25	SMA					SMA	1505	1511			CLEAN
IFCHG	I	2007/10/10	2007/10/10	20507	583031	XS0298931287	2007/05/04	ANL	0311				SMA	0311	0305			CORR
IFCHG	I	2007/10/15	2007/10/15	20700	585809	XS0300998779	2007/05/15	ANL	1511				SMA	1511	1505			CORR
IFCHG	I	2007/10/30	2007/10/30	21758	494290	US515110AV64	2007/02/02	SMA					SMA	0108	0102			CORR
IFCHG	I	2007/10/31	2007/10/31	21895	417953	XS0267870508	2006/09/21	ANL	2003				SMA	2003	2009			CORR
IFCHG	I	2016/09/20	2016/09/20	21896	417953	XS0267870508	2016/09/20	SMA	2003	2009			SMA	2003	2009			REVERT
IFCHG	I	2007/11/05	2007/11/05	22111	255894	US459200BB69	2002/11/28	SMA					SMA	2905	2911			CORR
IFCHG	I	2007/11/05	2007/11/05	22114	443915	US172967BU43	2003/02/20	SMA					SMA	2208	2202			CORR
IFCHG	I	2007/11/05	2007/11/05	22122	443944	US904764AH00	2002/11/13	SMA					SMA	1505	1511			CORR
IFCHG	I	2007/11/05	2007/11/05	22128	558602	XS0291641420	2007/03/16	ANL	1509				SMA	1509	1503			CORR
IFCHG	I	2007/11/05	2007/11/05	22129	558602	XS0291641420	2017/03/15	SMA	1509	1503			QTR	1506	1509	1512	1503	IFCHG
IFCHG	I	2007/11/06	2007/11/06	22153	169812	US00184AAC99	2001/04/20	SMA	1504	1510			SMA	1510	1504			CORR
IFCHG	I	2007/11/06	2007/11/06	22243	627639	US52517PT685	2009/02/16	ANL	1602				SMA	1602	1608			CORR
IFCHG	I	2007/11/12	2007/11/12	22455	544108	XS0287338015	2007/02/22	ANL	2105				QTR	2105	2108	2111	2102	CORR
IFCHG	I	2007/11/12	2007/11/12	22525	262652	US655855FB58	2004/08/24	SMA					SMA	1511	1505			CORR
IFCHG	I	2007/11/15	2007/11/15	22722	262265	US345370BY59	1998/10/01	SMA					SMA	0104	0110			CORR
IFCHG	I	2007/11/15	2007/11/15	22725	262270	US345370BZ25	1999/02/10	SMA					SMA	0108	0102			CORR
IFCHG	I	2007/11/22	2007/11/22	23602	642221	XS0316524130	2007/08/19	ANL	1602				SMA	1602	1608			CLEAN
IFCHG	I	2007/11/23	2007/11/23	23646	682464	XS0323650787	2007/09/27	ANL	2603				SMA	2603	2609			CORR
IFCHG	I	2007/11/29	2007/11/29	24293	713820	USU0088TAA61	2002/03/21	SMA					SMA	1509	1503			CORR
IFCHG	I	2007/12/01	2007/12/01	24778	260828	US565849AB20	2002/03/05	SMA					SMA	1509	1503			CORR
IFCHG	I	2007/12/05	2007/12/05	25144	733924	US40427LAB09	2030/06/30	SMA	3112	3006			QTR	3009	3112	3103	3006	IFCHG
IFCHG	I	2007/12/05	2007/12/05	25173	261106	US00440FAA21	2000/04/01	SMA					SMA	0110	0104			CORR
IFCHG	I	2007/12/08	2007/12/08	26305	735477	US171232AP67	2017/04/15	SMA	1510	1504			QTR	1504	1507	1510	1501	IFCHG
IFCHG	I	2007/12/27	2007/12/27	27325	273709	US441812JZ87	2002/05/23	SMA					SMA	1711	1705			CORR
IFCHG	I	2007/12/31	2007/12/31	27395	215832	XS0122710857	2001/01/11	QTR	1207	1210	1201	1204	QTR	1004	1007	1010	1001	CORR
IFCHG	I	2008/01/05	2008/01/05	27558	255986	US059438AG67	2005/07/25	SMA					SMA	1501	1507			CORR
IFCHG	I	2008/01/05	2008/01/05	27559	444455	US172967BL44	2002/06/07	SMA					SMA	1506	1512			CORR
IFCHG	I	2008/01/07	2008/01/07	27568	253880	US406216AH42	1991/02/21	SMA					SMA	1508	1502			CORR
IFCHG	I	2008/01/07	2008/01/07	27576	249823	US780153AG79	1997/10/15	SMA					SMA	1504	1510			CORR
IFCHG	I	2008/01/08	2008/01/08	27657	626927	XS0312572984	2007/07/26	ANL	2501				SMA	2501	2507			CORR
IFCHG	I	2008/01/09	2008/01/09	27785	382982	US825870AA62	2006/05/04	QTR	2010	2001	2004	2007	QTR	2007	2010	2001	2004	CORR
IFCHG	I	2008/01/16	2008/01/16	28114	420182	USY85859AB54	1995/11/01	ANL	0111				SMA	0105	0111			CORR
IFCHG	I	2008/01/17	2008/01/17	28181	735977	XS0335444724	2008/01/14	SMA	1206	1212								CLEAN
IFCHG	I	2008/01/19	2008/01/19	28244	735977	XS0335444724	2008/01/18						SMA	1707	1701			CORR
IFCHG	I	2008/01/21	2008/01/21	28277	232860	FR0008202550	1986/11/25	SMA					SMA	2405	2411			CORR
IFCHG	I	2008/01/21	2008/01/21	28286	175281	FR0010101949	2004/08/01	QTR	3103	3006	3009	3112	QTR	3009	3112	3003	3006	CLEAN
IFCHG	I	2008/01/22	2008/01/22	28326	261060	US00080QAB14	2003/06/03	SMA					SMA	0406	0412			CORR
IFCHG	I	2008/01/22	2008/01/22	28345	261699	US30161NAC56	2005/06/10	SMA					SMA	1512	1506			CORR
IFCHG	I	2008/01/22	2008/01/22	28347	254100	US492386AK33	1997/10/22	SMA					SMA	1504	1510			CORR
IFCHG	I	2008/01/23	2008/01/23	28356	263395	US008685AB51	1999/04/30	SMA					SMA	0111	0105			CLEAN
IFCHG	I	2008/01/23	2008/01/23	28357	624198	XS0311369978	2007/07/19	ANL	1803				SMA	1801	1807			CORR
IFCHG	I	2008/01/23	2008/01/23	28393	254785	US501044BT76	1999/06/26	SMA					SMA	0112	0106			CORR
IFCHG	I	2008/01/23	2008/01/23	28409	255800	US131347BH88	2003/11/16	SMA					SMA	1505	1511			CORR
IFCHG	I	2008/01/24	2008/01/24	28418	266179	US570535AG99	2004/08/14	SMA					SMA	1502	1508			CORR
IFCHG	I	2008/01/24	2008/01/24	28431	264363	US36962GXZ26	2002/03/21	SMA					SMA	1503	1509			CORR
IFCHG	I	2008/01/24	2008/01/24	28432	264363	US36962GXZ26	2002/03/22	SMA	1503	1509			SMA	1509	1503			CORR
IFCHG	I	2008/01/28	2008/01/28	28520	289781	US87927VAM00	2005/03/31	SMA					SMA	3009	3003			CORR
IFCHG	I	2008/01/29	2008/01/29	28565	264576	US244199BA28	2001/03/03	SMA					SMA	0309	0303			CORR
IFCHG	I	2008/01/29	2008/01/29	28566	269453	US233331AJ63	2003/04/02	SMA					SMA	1510	1504			CORR
IFCHG	I	2008/01/29	2008/01/29	28575	254869	US459200AM34	1995/10/31	SMA					SMA	3004	3010			CORR
IFCHG	I	2008/01/29	2008/01/29	28576	254875	US459200AS04	1998/01/10	SMA					SMA	1507	1501			CORR
IFCHG	I	2008/01/31	2008/01/31	28637	723409	US80281YAA55	2017/10/24	SMA	2404	2410			QTR	2410	2401	2404	2407	IFCHG
IFCHG	I	2008/01/31	2008/01/31	28650	422716	US06739FEY34	2006/09/29	ANL	2809				SMA	1512	1506			CORR
IFCHG	I	2008/01/31	2008/01/31	28653	422716	US06739FEY34	2016/12/15	SMA	1512	1506			QTR	1503	1506	1509	1512	IFCHG
IFCHG	I	2008/01/31	2008/01/31	28687	738369	USU2492SAA43	2009/06/30	SMA	3006	3012			QTR	3009	3012	3003	3006	IFCHG
IFCHG	I	2008/02/01	2008/02/01	28692	715097	US834182AJ68	1999/01/28	ANL	2701									CLEAN
IFCHG	I	2008/02/07	2008/02/07	28957	263715	US149123BJ96	2001/05/12	SMA					SMA	0105	0111			CLEAN
IFCHG	I	2008/02/07	2008/02/07	28958	274506	US17248RAJ59	2002/12/13	SMA					SMA	1512	1506			CLEAN
IFCHG	I	2008/02/07	2008/02/07	28959	769675	USG12250AA77	2006/02/04	SMA	0408				SMA	0408	0402			CLEAN
IFCHG	I	2008/02/07	2008/02/07	28960	769675	USG12250AA77	2016/02/04	SMA	0408	0402			QTR	0402	0405	0408	0411	IFCHG
IFCHG	I	2008/02/07	2008/02/07	28971	681896	US891490AT14	2006/06/12	SMA					SMA	1508	1502			CORR
IFCHG	I	2008/02/13	2008/02/13	29203	582876	XS0299183250	2007/05/11	ANL	1011				SMA	1011	1005			CLEAN
IFCHG	I	2008/02/13	2008/02/13	29206	704294	USE86920AA84	2017/10/24	SMA	2404	2410			QTR	2410	2401	2404	2407	IFCHG
IFCHG	I	2008/02/18	2008/02/18	29358	778469	US026874BE68	2037/03/15	SMA	1509	1503			QTR	1506	1509	1512	1503	IFCHG
IFCHG	I	2008/03/03	2008/03/03	30278	691135	XS0324963932	2007/10/11	ANL	0304				SMA	1303	1309			CORR
IFCHG	I	2008/03/11	2008/03/11	30538	793246	US002927AA95	2030/06/30	SMA	3006	3112			QTR	3103	3006	3009	3112	IFCHG
IFCHG	I	2008/03/13	2008/03/13	30635	269190	USU7444PAC42	2001/04/17	SMA					SMA	1510	1504			CORR
IFCHG	I	2008/03/14	2008/03/14	30666	422372	XS0268226536	2006/09/22	ANL	2203				SMA	2203	2209			CORR
IFCHG	I	2008/03/17	2008/03/17	30722	262273	US345370CA64	1999/07/17	SMA					SMA	1601	1607			CORR
IFCHG	I	2008/03/17	2008/03/17	30725	249852	US356834AA97	1998/05/14	SMA					SMA	1511	1505			CORR
IFCHG	I	2008/03/18	2008/03/18	30748	273711	US441812KB90	2002/11/28	SMA					SMA	2705	2711			CLEAN
IFCHG	I	2008/03/20	2008/03/20	30811	254062	US487836AT55	2001/03/30	SMA					SMA	0110	0104			CORR
IFCHG	I	2008/03/20	2008/03/20	30812	254747	US50075NAC83	2001/11/03	SMA					SMA	0105	0111			CORR
IFCHG	I	2008/03/20	2008/03/20	30820	444552	US590188JF65	1998/07/16	SMA					SMA	1501	1507			CORR
IFCHG	I	2008/03/25	2008/03/25	30903	681881	US872649BH09	1999/06/03	SMA					SMA	0112	0106			CORR
IFCHG	I	2008/03/27	2008/03/27	30971	681686	US079860AD40	2001/10/26	SMA					SMA	1504	1510			CLEAN
IFCHG	I	2008/03/28	2008/03/28	30979	443755	US172967CC36	2003/10/31	SMA					SMA	3004	3010			CORR
IFCHG	I	2008/03/28	2008/03/28	30986	265223	US247126AE59	2003/07/26	SMA					SMA	1502	1508			CLEAN
IFCHG	I	2008/03/29	2008/03/29	31041	684828	XS0323865047	2007/10/05	ANL	0504				QTR	0501	0504	0507	0510	CLEAN
IFCHG	I	2008/04/01	2008/04/01	31082	274289	US172062AC57	1998/05/27	SMA					SMA	1511	1505			CORR
IFCHG	I	2008/04/01	2008/04/01	31086	727540	XS0329423346	2007/11/03	ANL	0205				SMA	0205	0211			CORR
IFCHG	I	2008/04/14	2008/04/14	31353	571112	XS0294364103	2007/04/13	ANL	1210				SMA	1210	1204			CORR
IFCHG	I	2008/04/14	2008/04/14	31354	571045	XS0294364954	2007/04/14	ANL	1210				SMA	1210	1204			CORR
IFCHG	I	2008/04/14	2008/04/14	31355	571046	XS0294367205	2007/04/13	ANL	1210				SMA	1210	1204			CORR
IFCHG	I	2008/04/18	2008/04/18	31447	263430	US26884AAD54	1996/08/14	SMA					SMA	1502	1508			CLEAN
IFCHG	I	2008/04/25	2008/04/25	31621	771051	US101137AD98	2004/11/20	SMA					SMA	1201	1207			CORR
IFCHG	I	2008/04/30	2008/04/30	31705	141885	US002928AA78	2030/06/30	SMA	3006	3112			QTR	3009	3112	3103	3006	IFCHG
IFCHG	I	2008/05/07	2008/05/07	31799	597352	XS0301888615	2007/05/26	ANL	2511				SMA	2505	2511			CORR
IFCHG	I	2008/05/14	2008/05/14	31955	810831	XS0357281558	2008/04/12	SMA	1310	1304			SMA	1110	1104			CORR
IFCHG	I	2008/06/05	2008/06/05	33208	258838	US52517PVU29	2008/06/05	SMA					SMA	1309	1303			CORR
IFCHG	I	2008/06/16	2008/06/16	33616	282288	USP3058XAE50	2005/07/01	SMA					SMA	1506	1512			CORR
IFCHG	I	2008/06/23	2008/06/23	33793	257208	US690368AB19	1993/12/10	SMA					SMA	0106	0112			CORR
IFCHG	I	2008/06/30	2008/06/30	34136	441586	US52517PF635	2006/03/30	SMA					SMA	0410	0404			CORR
IFCHG	I	2008/07/01	2008/07/01	34168	258811	US52517PUM12	2003/06/19	SMA					SMA	1812	1806			CORR
IFCHG	I	2008/07/02	2008/07/02	34207	779967	US617446C235	2007/01/10	SMA	0901	0903			SMA	0907	0901			CORR
IFCHG	I	2008/07/02	2008/07/02	34230	256188	US69563AGX37	1997/06/10	SMA					SMA	0109	0103			CORR
IFCHG	I	2008/07/02	2008/07/02	34234	255763	US31410HAH49	1997/07/15	SMA					SMA	1501	1507			CORR
IFCHG	I	2008/07/02	2008/07/02	34237	255687	US678858BB69	1997/07/22	SMA					SMA	1501	1507			CORR
IFCHG	I	2008/07/02	2008/07/02	34242	256191	US69563AHC80	1997/07/17	SMA					SMA	0109	0103			CORR
IFCHG	I	2008/07/03	2008/07/03	34247	259913	US69349LAA61	2004/12/11	SMA					SMA	1507	1501			CORR
IFCHG	I	2008/07/03	2008/07/03	34252	256776	US14040HAL96	2005/02/19	SMA					SMA	2108	2102			CORR
IFCHG	I	2008/07/03	2008/07/03	34268	256161	US69563AFR77	1997/01/14	SMA					SMA	0103	0109			CORR
IFCHG	I	2008/07/03	2008/07/03	34271	260027	US55259PAD87	2004/11/25	SMA					SMA	1707	1701			CORR
IFCHG	I	2008/07/03	2008/07/03	34282	263844	US064057BD36	2002/11/14	SMA					SMA	0106	0112			CORR
IFCHG	I	2008/07/03	2008/07/03	34294	264130	US01310QCF00	1997/07/22	SMA					SMA	0112	0106			CORR
IFCHG	I	2008/07/03	2008/07/03	34320	265200	US24710XAV01	1998/01/10	SMA					SMA	0104	0110			CORR
IFCHG	I	2008/07/03	2008/07/03	34330	274706	US126117AH38	1998/01/14	SMA					SMA	1507	1501			CORR
IFCHG	I	2008/07/03	2008/07/03	34331	266226	US254063AX81	1998/01/13	SMA					SMA	1507	1501			CORR
IFCHG	I	2008/07/03	2008/07/03	34345	260664	US65463PAB31	1997/03/28	SMA					SMA	1509	1503			CORR
IFCHG	I	2008/07/04	2008/07/04	34366	253868	US708160BQ86	1997/04/15	SMA					SMA	0110	0104			CORR
IFCHG	I	2008/07/04	2008/07/04	34395	265610	US432848AS82	1997/12/23	SMA					SMA	1506	1512			CORR
IFCHG	I	2008/07/04	2008/07/04	34430	266240	US254067AH46	2008/07/04	SMA					SMA	0102	0108			CLEAN
IFCHG	I	2008/07/04	2008/07/04	34434	260101	US652478AQ19	2008/07/04	SMA					SMA	1002	1008			CLEAN
IFCHG	I	2008/07/04	2008/07/04	34461	265403	US422317AC18	1998/01/14	SMA					SMA	1507	1501			CORR
IFCHG	I	2008/07/04	2008/07/04	34465	263243	US53117EAD04	1998/01/24	SMA					SMA	1503	1509			CORR
IFCHG	I	2008/07/04	2008/07/04	34481	694476	US36962G3H54	2007/09/25	SMA					SMA	1503	1509			CORR
IFCHG	I	2008/07/04	2008/07/04	34489	262780	US14911QVV03	2004/09/03	SMA					SMA	1503	1509			CORR
IFCHG	I	2008/07/05	2008/07/05	34504	263925	US06406JDJ16	2003/09/11	SMA					SMA	1503	1509			CORR
IFCHG	I	2008/07/05	2008/07/05	34543	257118	US2338E8HP70	2002/08/02	SMA					SMA	1502	1508			CORR
IFCHG	I	2008/07/05	2008/07/05	34558	254778	US501044BM24	1998/12/12	SMA					SMA	1506	1512			CORR
IFCHG	I	2008/07/07	2008/07/07	34562	264860	US984121BB88	1998/08/18	SMA					SMA	2110	2104			CORR
IFCHG	I	2008/07/07	2008/07/07	34569	254315	US674599BE44	1989/08/11	SMA					SMA	0102	0108			CORR
IFCHG	I	2008/07/07	2008/07/07	34580	262706	US14911QUS82	2004/07/02	SMA					SMA	1501	1507			CORR
IFCHG	I	2008/07/07	2008/07/07	34583	263190	US06050XRC91	2004/07/30	QTR					QTR	1510	1501	1504	1507	CORR
IFCHG	I	2008/07/07	2008/07/07	34596	263115	US14911QXZ98	2005/01/22	SMA					SMA	1507	1501			CORR
IFCHG	I	2008/07/08	2008/07/08	34610	780900	US112585AB03	2007/04/26	SMA					SMA	2510	2504			CORR
IFCHG	I	2008/07/08	2008/07/08	34612	263931	US15133KAC71	1989/10/24	SMA					SMA	1504	1510			CORR
IFCHG	I	2008/07/08	2008/07/08	34619	254886	US277432AG53	2003/11/13	SMA					SMA	1505	1511			CORR
IFCHG	I	2008/07/08	2008/07/08	34681	262200	US14911QRF09	2003/11/29	QTR					QTR	1502	1505	1508	1511	CORR
IFCHG	I	2008/07/08	2008/07/08	34703	265514	US427866AE85	1991/02/12	SMA					SMA	1508	1502			CORR
IFCHG	I	2008/07/08	2008/07/08	34705	265194	US404132AA03	2001/08/24	SMA					SMA	0103	0109			CORR
IFCHG	I	2008/07/09	2008/07/09	34715	264675	US244199AU90	1992/01/10	SMA					SMA	0907	0901			CORR
IFCHG	I	2008/07/09	2008/07/09	34721	725184	US254063AR14	1993/01/14	SMA					SMA	0107	0101			CLEAN
IFCHG	U	2008/07/09	2015/01/08	34723	261902	US345370BJ82	1992/01/17	SMA					SMA	1507	1501			CORR
IFCHG	I	2008/07/09	2008/07/09	34725	988540	US02687QDK13	2008/01/10	QTR					QTR	0904	0910			CORR
IFCHG	I	2008/07/09	2008/07/09	34735	257782	US144141BP22	1991/10/03	SMA					SMA	1503	1509			CORR
IFCHG	I	2008/07/09	2008/07/09	34737	269552	US260543BC66	1991/09/27	SMA					SMA	1503	1509			CORR
IFCHG	I	2008/07/09	2008/07/09	34743	263158	US530715AL56	2000/07/27	SMA					SMA	1508	1502			CORR
IFCHG	I	2008/07/10	2008/07/10	34748	274508	US165087AN75	1992/01/22	SMA					SMA	1507	1501			CORR
IFCHG	I	2008/07/10	2008/07/10	34749	274217	US125509AG45	1993/01/12	SMA					SMA	1507	1501			CORR
IFCHG	I	2008/07/10	2008/07/10	34750	254380	US67461FED50	1993/01/16	SMA					SMA	1507	1501			CORR
IFCHG	I	2008/07/10	2008/07/10	34751	273927	US543859AG78	1993/01/20	SMA					SMA	1507	1501			CORR
IFCHG	I	2008/07/10	2008/07/10	34823	261883	US345277AE74	1998/06/05	SMA					SMA	0109	0103			CORR
IFCHG	I	2008/07/10	2008/07/10	34852	263732	US06050XUB71	2005/03/04	SMA					SMA	1905	1903			CORR
IFCHG	I	2008/07/11	2008/07/11	34864	683013	US92344XAB55	2002/03/29	SMA					SMA	0110	0104			CORR
IFCHG	I	2008/07/11	2008/07/11	34989	270986	US668027AT26	1990/05/10	SMA					SMA	0111	0105			CORR
IFCHG	I	2008/07/11	2008/07/11	34993	264120	US013104AH74	2000/05/10	SMA					SMA	0111	0105			CORR
IFCHG	I	2008/07/11	2008/07/11	34996	254173	US49306SAA42	1998/04/30	SMA					SMA	1510	1504			CORR
IFCHG	I	2008/07/11	2008/07/11	34998	263779	US06050XUU52	2005/05/20	SMA					SMA	1511	1505			CORR
IFCHG	I	2008/07/11	2008/07/11	35011	262724	US664787AD07	2002/02/01	SMA					SMA	0104	0110			CORR
IFCHG	I	2008/07/11	2008/07/11	35012	261941	US345370BU38	1998/05/30	SMA					SMA	1509	1503			CORR
IFCHG	I	2008/07/15	2008/07/15	35068	264126	US013104AL86	2001/05/02	SMA					SMA	0111	0105			CLEAN
IFCHG	I	2008/07/15	2008/07/15	35069	264419	US017475AC89	2002/12/12	SMA					SMA	1106	1112			CORR
IFCHG	I	2008/07/15	2008/07/15	35077	681692	US079867AW73	1998/06/05	SMA					SMA	0412	0406			CORR
IFCHG	I	2008/07/15	2008/07/15	35078	259676	US080555AF20	1997/09/27	SMA					SMA	1503	1509			CORR
IFCHG	I	2008/07/15	2008/07/15	35086	770022	US117043AG45	1997/08/05	SMA	0108	0102			SMA	0102	0108			CORR
IFCHG	I	2008/07/15	2008/07/15	35089	263751	US124845AF59	1993/11/02	SMA					SMA	0105	0111			CORR
IFCHG	I	2008/07/15	2008/07/15	35091	274661	US12614QAK13	1997/10/25	SMA					SMA	1505	1510			CORR
IFCHG	I	2008/07/15	2008/07/15	35095	266248	US254067AN14	1998/12/08	SMA					SMA	0706	0712			CORR
IFCHG	I	2008/07/15	2008/07/15	35097	269578	US260543BJ10	1999/11/10	SMA					SMA	0105	0111			CORR
IFCHG	I	2008/07/15	2008/07/15	35100	255722	US278058AW21	1999/11/17	SMA					SMA	1505	1511			CORR
IFCHG	I	2008/07/15	2008/07/15	35103	260991	US338915AH41	1998/01/16	SMA					SMA	1507	1501			CORR
IFCHG	I	2008/07/15	2008/07/15	35106	681762	US345370BS81	2000/06/09	SMA					SMA	0812	0806			CORR
IFCHG	I	2008/07/15	2008/07/15	35117	265121	US418056AH08	2000/06/14	SMA					SMA	1507	1501			CORR
IFCHG	I	2008/07/16	2008/07/16	35130	681773	US448814DX88	2006/03/29	SMA					SMA	1507	1501			CORR
IFCHG	I	2008/07/16	2008/07/16	35131	681777	US448814EJ85	1995/01/08	SMA					SMA	0707	0701			CORR
IFCHG	I	2008/07/16	2008/07/16	35132	254070	US449669CD04	1999/11/08	SMA					SMA	0102	0108			CORR
IFCHG	I	2008/07/16	2008/07/16	35134	254155	US453258AR66	2004/04/28	SMA					SMA	1409	1403			CORR
IFCHG	I	2008/07/16	2008/07/16	35140	254107	US492386AT42	2001/10/04	SMA					SMA	1503	1509			CORR
IFCHG	I	2008/07/16	2008/07/16	35144	263357	US539830AK58	1999/11/24	SMA					SMA	2305	2311			CORR
IFCHG	I	2008/07/16	2008/07/16	35145	770112	US582834AP26	2000/06/14	SMA					SMA	1312	1306			CORR
IFCHG	I	2008/07/16	2008/07/16	35146	770117	US595620AB14	2002/12/12	SMA					SMA	1106	1112			CORR
IFCHG	I	2008/07/16	2008/07/16	35152	777593	US656531AM27	2000/05/27	SMA					SMA	2309	2303			CORR
IFCHG	I	2008/07/16	2008/07/16	35153	262774	US665810AB31	2000/06/14	SMA					SMA	1512	1506			CORR
IFCHG	I	2008/07/16	2008/07/16	35163	258134	US713409AC43	1999/08/05	SMA					SMA	0109	0103			CORR
IFCHG	I	2008/07/16	2008/07/16	35174	681828	US755111AF81	1997/08/13	SMA					SMA	1502	1508			CORR
IFCHG	I	2008/07/16	2008/07/16	35176	770167	US755111AP63	1998/11/06	SMA					SMA	0506	0511			CORR
IFCHG	I	2008/07/16	2008/07/16	35178	249835	US780153AJ19	1998/03/17	SMA					SMA	1509	1503			CORR
IFCHG	I	2008/07/16	2008/07/16	35180	770173	US786514AS84	1997/09/11	SMA					SMA	1003	1009			CORR
IFCHG	I	2008/07/16	2008/07/16	35194	770178	US902494AD54	1998/01/22	SMA					SMA	1507	1501			CORR
IFCHG	I	2008/07/22	2008/07/22	35465	780480	US462890AC84	2007/03/16	SMA					SMA	1509	1503			CORR
IFCHG	I	2008/07/28	2008/07/28	35939	263792	US06050XVB62	2005/06/17	SMA					SMA	1512	1506			CORR
IFCHG	I	2008/07/28	2008/07/28	35940	443712	US742718CB39	2004/01/28	SMA					SMA	0108	0102			CORR
IFCHG	I	2008/07/28	2008/07/28	35942	260640	US62913FAC68	2004/07/30	SMA					SMA	0108	0102			CORR
IFCHG	I	2008/07/28	2008/07/28	35971	275240	US834182AT41	2005/02/17	SMA					SMA	1508	1502			CORR
IFCHG	I	2008/07/28	2008/07/28	35982	255898	US694308GE15	2004/03/24	SMA					SMA	0109	0103			CORR
IFCHG	I	2008/07/28	2008/07/28	35989	253970	US45138LAP85	2004/03/27	SMA					SMA	1509	1503			CORR
IFCHG	I	2008/07/29	2008/07/29	36026	256751	US532457AP35	1996/01/11	SMA					SMA	0107	0101			CLEAN
IFCHG	I	2008/07/29	2008/07/29	36037	427367	US78442FDW59	2006/03/14	SMA					SMA	1309	1303			CLEAN
IFCHG	I	2008/07/29	2008/07/29	36038	263336	US538021AH96	1996/03/20	SMA					SMA	1509	1503			CLEAN
IFCHG	I	2008/07/29	2008/07/29	36043	783333	US89352HAB50	2008/03/21	SMA					SMA	1509	1503			CLEAN
IFCHG	I	2008/07/29	2008/07/29	36059	256024	US63858SBC26	1997/03/08	SMA					SMA	0709	0703			CORR
IFCHG	I	2008/07/29	2008/07/29	36060	441583	US404280AG49	2006/05/04	SMA					SMA	0211	0205			CLEAN
IFCHG	I	2008/07/29	2008/07/29	36061	263351	US539830AD16	1996/05/22	SMA					SMA	0111	0105			CLEAN
IFCHG	I	2008/07/29	2008/07/29	36071	254710	US500255AF12	2008/06/19	SMA					SMA	1106	1112			CORR
IFCHG	I	2008/07/29	2008/07/29	36074	269637	US26439XAC74	2000/08/17	SMA					SMA	1602	1608			CORR
IFCHG	I	2008/07/30	2008/07/30	36075	681836	US803111AM56	2002/12/13	SMA					SMA	1206	1212			CORR
IFCHG	I	2008/07/30	2008/07/30	36085	254859	US459200AG65	1989/11/09	SMA					SMA	0811	0805			CORR
IFCHG	I	2008/07/30	2008/07/30	36087	254859	US459200AG65	2008/07/30	SMA	0811	0805			SMA	0105	0105			CLEAN
IFCHG	I	2008/07/30	2008/07/30	36088	264477	US239753BM71	1992/05/19	SMA					SMA	1511	1505			CORR
IFCHG	I	2008/07/30	2008/07/30	36094	255544	US127687AB73	2004/11/23	QTR					QTR	1501	1504	1507	1510	CORR
IFCHG	I	2008/07/30	2008/07/30	36102	262293	US36962GFW96	1996/05/29	SMA					SMA	2811	2805			CLEAN
IFCHG	I	2008/07/30	2008/07/30	36117	253895	US708160BS43	1997/04/15	SMA					SMA	0110	0104			CORR
IFCHG	I	2008/07/30	2008/07/30	36126	262566	US655844AF53	1997/05/20	SMA					SMA	0111	0105			CORR
IFCHG	I	2008/07/30	2008/07/30	36128	447192	US78442FEB04	2006/07/08	SMA					SMA	0701	0707			CLEAN
IFCHG	I	2008/07/30	2008/07/30	36140	258262	US717265AM45	2004/03/05	SMA					SMA	1509	1503			CORR
IFCHG	I	2008/07/30	2008/07/30	36145	274006	US54866NBJ72	1997/05/16	SMA					SMA	0109	0103			CORR
IFCHG	I	2008/07/30	2008/07/30	36146	188512	US893526DF78	2004/03/26	SMA	3103	3009			SMA	3009	3103			CORR
IFCHG	I	2008/07/30	2008/07/30	36150	261614	US341081EQ63	2003/04/05	SMA					SMA	0110	0104			CORR
IFCHG	I	2008/07/30	2008/07/30	36162	260523	US737679CY47	2004/03/25	SMA					SMA	1510	1504			CORR
IFCHG	I	2008/07/30	2008/07/30	36169	254061	US505588BE27	2004/04/29	SMA					SMA	0111	0105			CORR
IFCHG	I	2008/07/30	2008/07/30	36170	259897	US461070AD61	2004/05/07	SMA					SMA	0111	0105			CORR
IFCHG	I	2008/07/30	2008/07/30	36171	274723	US12612WAB00	2004/08/12	SMA					SMA	0111	0105			CORR
IFCHG	I	2008/07/30	2008/07/30	36172	257528	US693304AG23	2004/04/24	SMA					SMA	0111	0105			CORR
IFCHG	I	2008/07/30	2008/07/30	36176	254130	US514936AD53	2005/03/11	SMA					SMA	1505	1511			CORR
IFCHG	I	2008/07/31	2008/07/31	36197	262284	US36962GG409	2004/02/28	SMA					SMA	2708	2702			CORR
IFCHG	I	2008/07/31	2008/07/31	36201	258846	US52517PWE77	2004/04/17	SMA					SMA	1610	1604			CORR
IFCHG	I	2008/07/31	2008/07/31	36227	254347	US303901AE28	1997/08/26	SMA					SMA	1501	1507			CORR
IFCHG	I	2008/07/31	2008/07/31	36229	260155	US652478BY34	1996/10/18	SMA					SMA	1704	1710			CLEAN
IFCHG	I	2008/07/31	2008/07/31	36232	262420	US36962GHP28	1996/10/29	SMA					SMA	0105	0111			CLEAN
IFCHG	I	2008/07/31	2008/07/31	36246	263516	US29267HAA77	2004/07/16	SMA					SMA	1501	1507			CORR
IFCHG	I	2008/07/31	2008/07/31	36247	262840	US36962GJA31	1996/12/11	SMA					SMA	0106	0112			CLEAN
IFCHG	I	2008/07/31	2008/07/31	36257	260114	US652478AW86	1994/08/06	SMA					SMA	0102	0108			CORR
IFCHG	I	2008/07/31	2008/07/31	36258	256566	US28368EAA47	2000/10/12	SMA					SMA	1504	1510			CORR
IFCHG	I	2008/07/31	2008/07/31	36260	256037	US695114BX59	2004/08/25	SMA					SMA	1502	1508			CORR
IFCHG	I	2008/07/31	2008/07/31	36261	263076	US742718DB20	2004/08/11	SMA					SMA	1502	1508			CORR
IFCHG	I	2008/07/31	2008/07/31	36263	253973	US45138LAQ68	2004/08/17	SMA					SMA	1502	1508			CORR
IFCHG	I	2008/07/31	2008/07/31	36264	273867	US549271AF19	2004/09/29	SMA					SMA	0104	0110			CORR
IFCHG	I	2008/07/31	2008/07/31	36267	263369	US001192AD50	2004/09/28	SMA					SMA	0104	0110			CORR
IFCHG	I	2008/07/31	2008/07/31	36268	263477	US293791AP47	2005/03/04	SMA					SMA	1504	1510			CORR
IFCHG	I	2008/07/31	2008/07/31	36269	255738	US278058AY86	2004/10/22	SMA					SMA	1504	1510			CORR
IFCHG	I	2008/07/31	2008/07/31	36272	274292	US172062AE14	2005/04/17	SMA					SMA	0105	0111			CORR
IFCHG	I	2008/08/01	2008/08/01	36284	770037	US143658AH53	1998/01/16	SMA	1501	1507			SMA	1507	1501			CORR
IFCHG	I	2008/08/01	2008/08/01	36312	256073	US63861QAZ19	1997/09/12	SMA					SMA	0104	0110			CLEAN
IFCHG	I	2008/08/01	2008/08/01	36313	263488	US36962GLH55	1997/10/01	SMA					SMA	3003	3009			CLEAN
IFCHG	I	2008/08/01	2008/08/01	36314	257306	US29250RAG11	2008/12/04	SMA					SMA	1506	1512			CORR
IFCHG	I	2008/08/01	2008/08/01	36323	255598	US26353LHK08	1998/02/26	QTR					QTR	1505	1508	1511	1502	CORR
IFCHG	I	2008/08/02	2008/08/02	36337	256849	US291011AK08	1999/05/21	QTR					QTR	2008	2011	2002	2005	CORR
IFCHG	I	2008/08/02	2008/08/02	36338	256108	US06050MAA53	1999/05/22	QTR					QTR	2108	2111	2102	2105	CORR
IFCHG	I	2008/08/02	2008/08/02	36341	256110	US06050MAB37	1999/07/01	QTR					QTR	3009	3012	3003	3006	CORR
IFCHG	I	2008/08/02	2008/08/02	36343	255906	US382388AL09	1998/04/29	SMA					SMA	1510	1504			CORR
IFCHG	I	2008/08/02	2008/08/02	36344	274273	US16161LCH50	1999/10/27	QTR					QTR	2601	2604	2607	2610	CORR
IFCHG	I	2008/08/02	2008/08/02	36345	256112	US06050MAD92	1999/10/27	QTR					QTR	2601	2604	2607	2610	CORR
IFCHG	I	2008/08/02	2008/08/02	36346	257148	US29101LAV27	1999/10/27	QTR					QTR	2601	2604	2607	2610	CORR
IFCHG	I	2008/08/02	2008/08/02	36350	263002	US742718BP34	1999/11/16	QTR					QTR	1611	1602	1605	1608	CORR
IFCHG	I	2008/08/02	2008/08/02	36351	256114	US06050MAG24	1999/12/18	QTR					QTR	1703	1706	1709	1712	CORR
IFCHG	I	2008/08/02	2008/08/02	36352	269446	US26353LHT17	1999/12/28	QTR					QTR	2703	2706	2709	2712	CORR
IFCHG	I	2008/08/02	2008/08/02	36354	265081	US020002AJ05	1998/05/27	SMA					SMA	1505	1511			CORR
IFCHG	I	2008/08/02	2008/08/02	36363	311871	US06406MAU27	1998/07/01	QTR					QTR	3009	3012	3003	3006	CORR
IFCHG	I	2008/08/04	2008/08/04	36370	262690	US14911QUL30	2004/06/18	SMA					SMA	1512	1506			CORR
IFCHG	I	2008/08/04	2008/08/04	36375	269457	US26353LHY02	2001/06/30	QTR					QTR	2109	2112	2103	2106	CORR
IFCHG	I	2008/08/04	2008/08/04	36376	256119	US06050MAZ05	2000/11/28	QTR					QTR	2702	2705	2708	2711	CLEAN
IFCHG	I	2008/08/04	2008/08/04	36377	257150	US29101LAW00	2000/03/28	QTR					QTR	2706	2709	2712	2703	CLEAN
IFCHG	I	2008/08/04	2008/08/04	36378	269467	US26353LHZ76	2001/10/10	QTR					QTR	0901	0904	0907	0910	CORR
IFCHG	I	2008/08/04	2008/08/04	36385	256123	US06050MBS52	2001/12/29	QTR					QTR	2803	2806	2809	2812	CORR
IFCHG	I	2008/08/04	2008/08/04	36400	264046	US36962GQY34	1998/10/21	SMA					SMA	2004	2010			CORR
IFCHG	I	2008/08/04	2008/08/04	36402	261905	US345370BM12	1993/06/18	SMA					SMA	1512	1506			CLEAN
IFCHG	I	2008/08/04	2008/08/04	36403	254548	US634902HP82	2003/04/01	QTR					QTR	0107	0110	0101	0104	CLEAN
IFCHG	I	2008/08/04	2008/08/04	36407	261945	US345370BW93	1998/05/30	SMA					SMA	1508	1502			CORR
IFCHG	I	2008/08/04	2008/08/04	36408	261926	US345370BR09	1996/11/05	SMA					SMA	0105	0111			CLEAN
IFCHG	I	2008/08/04	2008/08/04	36409	770112	US582834AP26	2000/06/15	SMA	1312	1306			SMA	0109	0103			CORR
IFCHG	I	2008/08/04	2008/08/04	36417	254112	US492520AB72	2004/09/11	SMA					SMA	1510	1504			CORR
IFCHG	I	2008/08/05	2008/08/05	36433	263342	US501940AF78	2003/06/10	SMA					SMA	0109	0103			CLEAN
IFCHG	I	2008/08/05	2008/08/05	36434	269557	US260543BE23	1993/03/04	SMA					SMA	0109	0103			CLEAN
IFCHG	I	2008/08/05	2008/08/05	36435	274221	US125509AH28	1993/03/12	SMA					SMA	0109	0103			CLEAN
IFCHG	I	2008/08/05	2008/08/05	36459	274101	US158525AQ85	1995/09/02	SMA					SMA	0103	0109			CORR
IFCHG	I	2008/08/05	2008/08/05	36468	256911	US696639AB92	2004/09/16	SMA					SMA	1511	1505			CORR
IFCHG	I	2008/08/05	2008/08/05	36472	259880	US645767AY05	1992/06/02	SMA					SMA	0112	0106			CORR
IFCHG	I	2008/08/05	2008/08/05	36474	254109	US492386AU15	2004/07/02	SMA					SMA	0101	0107			CORR
IFCHG	I	2008/08/05	2008/08/05	36476	781202	US38068NAB47	2007/05/19	SMA					SMA	1512	1506			CORR
IFCHG	I	2008/08/05	2008/08/05	36477	254574	US45664XAB55	2004/09/15	SMA					SMA	1501	1507			CORR
IFCHG	I	2008/08/05	2008/08/05	36478	261676	US00763MAG33	2004/10/13	SMA					SMA	1501	1507			CORR
IFCHG	I	2008/08/06	2008/08/06	36509	260792	US564055AE11	2003/09/03	SMA					SMA	1510	1504			CLEAN
IFCHG	I	2008/08/06	2008/08/06	36511	255987	US638585AP43	1995/10/24	SMA					SMA	1504	1510			CORR
IFCHG	I	2008/08/06	2008/08/06	36512	260125	US652478AZ18	1995/10/31	SMA					SMA	3004	3010			CORR
IFCHG	I	2008/08/06	2008/08/06	36513	274103	US158525AR68	1995/11/11	SMA					SMA	0105	0111			CORR
IFCHG	I	2008/08/06	2008/08/06	36515	255908	US38238QAH92	1995/11/08	SMA					SMA	1504	1510			CORR
IFCHG	I	2008/08/06	2008/08/06	36517	260097	US652478AL22	1993/04/27	SMA					SMA	2610	2604			CLEAN
IFCHG	I	2008/08/06	2008/08/06	36518	261913	US345370BN94	1995/11/15	SMA					SMA	1505	1511			CORR
IFCHG	I	2008/08/06	2008/08/06	36523	260110	US652478AV04	1994/07/16	SMA					SMA	1501	1507			CORR
IFCHG	I	2008/08/06	2008/08/06	36537	254023	US451713AA92	1995/12/12	SMA					SMA	0106	0112			CORR
IFCHG	I	2008/08/06	2008/08/06	36538	270820	US667748AF48	1995/12/06	SMA					SMA	0106	0112			CORR
IFCHG	I	2008/08/06	2008/08/06	36539	317552	US055291AC24	1995/12/12	SMA					SMA	0106	0112			CORR
IFCHG	I	2008/08/06	2008/08/06	36546	263019	US14911QWV93	2004/10/29	SMA					SMA	1504	1510			CORR
IFCHG	I	2008/08/07	2008/08/07	36562	266342	US667280AC52	2003/08/14	SMA					SMA	1511	1505			CLEAN
IFCHG	I	2008/08/07	2008/08/07	36564	260745	US69352JAE73	2003/07/15	SMA					SMA	1511	1505			CLEAN
IFCHG	I	2008/08/07	2008/08/07	36579	262278	US345397FK43	1988/09/16	SMA					SMA	1502	1508			CORR
IFCHG	I	2008/08/07	2008/08/07	36583	263633	US06050XSJ36	2004/10/29	QTR					QTR	1501	1504	1507	1510	CORR
IFCHG	I	2008/08/07	2008/08/07	36588	260886	US369622BT11	1988/09/09	SMA					SMA	0103	0109			CORR
IFCHG	I	2008/08/07	2008/08/07	36589	262285	US345397FL26	1988/09/23	SMA					SMA	1503	1509			CORR
IFCHG	I	2008/08/07	2008/08/07	36591	262801	US742718BL20	1998/11/05	QTR					QTR	0402	0405	0408	0411	CORR
IFCHG	I	2008/08/07	2008/08/07	36617	263045	US14911QXE69	2004/11/19	SMA					SMA	1505	1511			CORR
IFCHG	I	2008/08/07	2008/08/07	36620	255702	US278058AM49	1992/08/13	SMA					SMA	1502	1508			CORR
IFCHG	I	2008/08/07	2008/08/07	36629	256020	US63858SAA78	1994/11/18	SMA					SMA	1505	1511			CORR
IFCHG	I	2008/08/07	2008/08/07	36633	260550	US739363AD17	2005/05/05	SMA					SMA	1506	1512			CORR
IFCHG	I	2008/08/07	2008/08/07	36644	256205	US670874AF30	2005/02/11	SMA					SMA	0106	0112			CORR
IFCHG	I	2008/08/08	2008/08/08	36651	1069355	US17307XFJ54	2004/09/04	QTR	1512	1503	1507	1510	QTR	1512	1503	1506	1509	CORR
IFCHG	I	2008/08/08	2008/08/08	36691	256743	US68233DAR89	2003/02/27	SMA					SMA	0103	0109			CORR
IFCHG	I	2008/08/08	2008/08/08	36701	274014	US54866NAU37	1992/09/12	SMA					SMA	0110	0104			CORR
IFCHG	I	2008/08/09	2008/08/09	36709	263469	US36962GL854	2004/10/30	SMA					SMA	2904	2910			CORR
IFCHG	I	2008/08/09	2008/08/09	36714	264135	US01310QCL77	1997/07/25	SMA					SMA	0112	0106			CORR
IFCHG	I	2008/08/09	2008/08/09	36717	254101	US41163GAF81	1997/08/06	SMA					SMA	0102	0108			CORR
IFCHG	I	2008/08/09	2008/08/09	36718	265485	US427056AR72	1997/08/05	SMA					SMA	0102	0108			CORR
IFCHG	I	2008/08/09	2008/08/09	36719	255651	US313918AA22	1997/08/02	SMA					SMA	0102	0108			CORR
IFCHG	I	2008/08/09	2008/08/09	36720	254873	US459200AR21	1997/08/05	SMA					SMA	0102	0108			CORR
IFCHG	I	2008/08/09	2008/08/09	36723	265527	US427866AL29	1997/08/27	SMA					SMA	1502	1508			CORR
IFCHG	I	2008/08/11	2008/08/11	36737	260146	US652478BC14	1996/10/02	SMA					SMA	0104	0110			CORR
IFCHG	I	2008/08/11	2008/08/11	36758	270664	US15189XAH17	2004/01/09	SMA					SMA	0107	0101			CLEAN
IFCHG	I	2008/08/11	2008/08/11	36761	256704	US285661AF18	2004/01/24	SMA					SMA	1507	1501			CLEAN
IFCHG	I	2008/08/11	2008/08/11	36764	255989	US059438AH41	1996/10/30	SMA					SMA	1504	1510			CORR
IFCHG	I	2008/08/11	2008/08/11	36766	264419	US017475AC89	2002/12/13	SMA	1106	1112			SMA	1504	1510			CORR
IFCHG	I	2008/08/11	2008/08/11	36767	260382	US361582AD15	1993/07/15	SMA					SMA	1507	1501			CLEAN
IFCHG	I	2008/08/11	2008/08/11	36772	254317	US126924AB52	2004/05/25	SMA					SMA	1507	1501			CLEAN
IFCHG	I	2008/08/11	2008/08/11	36777	273996	US54866NBP33	1997/09/24	SMA					SMA	0103	0109			CORR
IFCHG	I	2008/08/11	2008/08/11	36778	274130	US158525AT25	1996/11/07	SMA					SMA	0105	0111			CORR
IFCHG	I	2008/08/11	2008/08/11	36780	259909	US64806QAD60	1996/10/10	SMA					SMA	1003	1009			CORR
IFCHG	I	2008/08/11	2008/08/11	36796	784229	US172967DC27	2005/10/08	SMA					SMA	1104	1110			CORR
IFCHG	I	2008/08/12	2008/08/12	36803	977967	XS0373641009	2008/07/03	SMA					SMA	0201	0207			CORR
IFCHG	I	2008/08/12	2008/08/12	36816	262382	US283695BE39	1996/11/14	SMA					SMA	1505	1511			CORR
IFCHG	I	2008/08/12	2008/08/12	36824	254456	US313043AC51	1997/02/01	SMA					SMA	1505	1511			CORR
IFCHG	I	2008/08/12	2008/08/12	36826	254248	US303250AB02	2004/01/10	SMA					SMA	1502	1508			CLEAN
IFCHG	I	2008/08/12	2008/08/12	36828	259815	US293561AU06	1993/08/26	SMA					SMA	1502	1508			CLEAN
IFCHG	I	2008/08/12	2008/08/12	36830	262525	US008117AG88	1993/08/18	SMA					SMA	1502	1508			CLEAN
IFCHG	I	2008/08/12	2008/08/12	36833	254292	US067383AA79	1996/12/10	SMA					SMA	0106	0112			CORR
IFCHG	I	2008/08/12	2008/08/12	36838	254264	US303250AD67	2005/03/30	SMA					SMA	1508	1502			CLEAN
IFCHG	I	2008/08/12	2008/08/12	36844	765466	US92928WAC91	1996/12/11	SMA					SMA	0106	0112			CORR
IFCHG	I	2008/08/12	2008/08/12	36845	256084	US69512EGB56	1993/08/17	SMA					SMA	0110	0104			CLEAN
IFCHG	I	2008/08/12	2008/08/12	36847	254694	US499040AH64	1997/11/05	SMA					SMA	0105	0111			CORR
IFCHG	I	2008/08/12	2008/08/12	36850	258259	US717265AJ16	1997/11/06	SMA					SMA	0105	0111			CORR
IFCHG	I	2008/08/12	2008/08/12	36851	253877	US482620AS08	1997/10/28	SMA					SMA	0105	0111			CORR
IFCHG	I	2008/08/12	2008/08/12	36852	270793	US66765RAZ91	1997/11/11	SMA					SMA	0112	0106			CORR
IFCHG	I	2008/08/12	2008/08/12	36861	273928	US543859AH51	1993/09/17	SMA					SMA	1503	1509			CLEAN
IFCHG	I	2008/08/12	2008/08/12	36867	261784	US007922AC14	1997/07/19	SMA					SMA	1712	1706			CORR
IFCHG	I	2008/08/12	2008/08/12	36880	260232	US26874QAB68	1997/11/26	SMA					SMA	1511	1505			CORR
IFCHG	I	2008/08/12	2008/08/12	36885	254602	US456866AM43	1997/11/26	SMA					SMA	1505	1511			CORR
IFCHG	I	2008/08/12	2008/08/12	36886	254596	US456866AK86	1997/11/25	SMA					SMA	1505	1511			CORR
IFCHG	I	2008/08/12	2008/08/12	36888	265400	US422317AB35	1997/11/14	SMA					SMA	1505	1511			CORR
IFCHG	I	2008/08/13	2008/08/13	36900	259583	US72018QAB77	1993/10/07	SMA					SMA	0101	0107			CLEAN
IFCHG	I	2008/08/13	2008/08/13	36905	253996	US761557AA51	2004/02/06	SMA					SMA	1504	1510			CLEAN
IFCHG	I	2008/08/13	2008/08/13	36909	255585	US129466AM08	1998/09/23	SMA					SMA	1503	1509			CORR
IFCHG	I	2008/08/13	2008/08/13	36911	256685	US682680AB90	1998/10/01	SMA					SMA	0104	0110			CORR
IFCHG	I	2008/08/13	2008/08/13	36914	256098	US63935RAB42	2004/06/22	SMA					SMA	0111	0105			CLEAN
IFCHG	I	2008/08/13	2008/08/13	36916	257687	US460146AP85	1993/11/05	SMA					SMA	0105	0111			CLEAN
IFCHG	I	2008/08/13	2008/08/13	36918	260928	US369622CF08	1990/02/02	SMA					SMA	0108	0102			CORR
IFCHG	I	2008/08/13	2008/08/13	36922	265526	US98934KAB61	1993/11/18	SMA					SMA	1505	1511			CLEAN
IFCHG	I	2008/08/13	2008/08/13	36925	253851	US708160BE56	1993/11/24	SMA					SMA	1505	1511			CLEAN
IFCHG	I	2008/08/13	2008/08/13	36926	270771	US667280AE19	2004/05/22	SMA					SMA	1511	1505			CLEAN
IFCHG	I	2008/08/13	2008/08/13	36927	770167	US755111AP63	1998/11/07	SMA	0506	0511			SMA	0105	0111			CORR
IFCHG	I	2008/08/13	2008/08/13	36928	265231	US984245AF78	1998/11/13	SMA					SMA	0205	0211			CORR
IFCHG	I	2008/08/13	2008/08/13	36929	259561	US718592AB40	1993/11/16	SMA					SMA	1505	1511			CLEAN
IFCHG	I	2008/08/13	2008/08/13	36930	265154	US985509AQ16	2004/03/17	SMA					SMA	2505	2511			CLEAN
IFCHG	I	2008/08/13	2008/08/13	36933	274060	US546268AG84	1993/12/09	SMA					SMA	0106	0112			CLEAN
IFCHG	I	2008/08/13	2008/08/13	36934	254399	US305204AB53	2004/04/09	SMA					SMA	0106	0112			CLEAN
IFCHG	I	2008/08/13	2008/08/13	36936	263110	US530512AB87	1998/11/13	SMA					SMA	1505	1511			CORR
IFCHG	I	2008/08/13	2008/08/13	36939	274268	US17187QAB77	1993/12/10	SMA					SMA	1506	1512			CLEAN
IFCHG	I	2008/08/13	2008/08/13	36942	256085	US63861QBH02	1998/11/21	SMA					SMA	0104	0110			CORR
IFCHG	I	2008/08/13	2008/08/13	36946	260527	US652482AX89	1999/04/28	SMA					SMA	3005	3011			CORR
IFCHG	I	2008/08/13	2008/08/13	36948	274186	US17163BAB80	2004/05/27	SMA					SMA	1506	1512			CLEAN
IFCHG	I	2008/08/13	2008/08/13	36951	255811	US679574AH65	2003/07/30	SMA					SMA	0112	0106			CORR
IFCHG	I	2008/08/13	2008/08/13	36952	257261	US292475AD20	2004/06/19	SMA					SMA	1512	1506			CLEAN
IFCHG	I	2008/08/13	2008/08/13	36953	274266	US171875AD97	1998/12/01	SMA					SMA	0106	0112			CORR
IFCHG	I	2008/08/13	2008/08/13	36954	269495	US264399DK95	1998/12/05	SMA					SMA	0106	0112			CORR
IFCHG	I	2008/08/13	2008/08/13	36956	266248	US254067AN14	1998/12/09	SMA	0706	0712			SMA	0106	0112			CORR
IFCHG	I	2008/08/13	2008/08/13	36958	261113	US339099AD58	2004/06/19	SMA					SMA	1512	1506			CLEAN
IFCHG	I	2008/08/13	2008/08/13	36959	255801	US679574AG82	2002/12/18	SMA					SMA	0106	0112			CORR
IFCHG	I	2008/08/14	2008/08/14	36963	262809	US742718BN85	1999/10/27	QTR					QTR	2610	2601	2604	2607	CORR
IFCHG	I	2008/08/14	2008/08/14	36964	260939	US369622CK92	1990/04/10	SMA					SMA	0110	0104			CORR
IFCHG	I	2008/08/14	2008/08/14	36965	260951	US369622CL75	1990/05/01	SMA					SMA	0111	0105			CORR
IFCHG	I	2008/08/14	2008/08/14	36966	260917	US369622CC76	1989/10/26	SMA					SMA	0105	0111			CORR
IFCHG	I	2008/08/14	2008/08/14	36967	263016	US742718BU29	2000/08/15	QTR					QTR	1511	1502	1505	1508	CORR
IFCHG	I	2008/08/14	2008/08/14	36973	270796	US66765RBQ83	2002/09/25	SMA					SMA	0112	0106			CLEAN
IFCHG	I	2008/08/14	2008/08/14	36984	255934	US695112AG79	2003/02/25	SMA					SMA	1504	1510			CLEAN
IFCHG	I	2008/08/14	2008/08/14	36985	265531	US250847DU17	2002/10/24	SMA					SMA	1504	1510			CLEAN
IFCHG	I	2008/08/14	2008/08/14	36986	681836	US803111AM56	2002/12/14	SMA	1206	1212			SMA	0105	0111			CLEAN
IFCHG	I	2008/08/14	2008/08/14	36987	253949	US45138LAL71	2002/11/16	SMA					SMA	1504	1510			CLEAN
IFCHG	I	2008/08/14	2008/08/14	36988	263133	US743315AL75	2002/11/22	SMA					SMA	0106	0112			CLEAN
IFCHG	I	2008/08/14	2008/08/14	36990	254082	US491386AL26	2003/06/14	SMA					SMA	0112	0106			CLEAN
IFCHG	I	2008/08/14	2008/08/14	36991	264013	US010392EB08	2002/12/13	SMA					SMA	0106	0112			CORR
IFCHG	I	2008/08/14	2008/08/14	36992	265144	US020002AP64	2002/12/18	SMA					SMA	1506	1512			CLEAN
IFCHG	I	2008/08/14	2008/08/14	37000	269668	US257469AG10	2002/12/17	SMA					SMA	1506	1512			CLEAN
IFCHG	I	2008/08/14	2008/08/14	37013	263063	US742718CA55	2003/12/05	QTR					QTR	0403	0406	0409	0412	CLEAN
IFCHG	I	2008/08/15	2008/08/15	37048	256695	US139733AB56	2004/05/13	SMA					SMA	1511	1505			CORR
IFCHG	I	2008/08/18	2008/08/18	37077	258816	US52517PUQ26	2003/06/27	SMA					SMA	2612	2606			CORR
IFCHG	I	2008/08/18	2008/08/18	37078	780099	US035229CV36	2007/02/09	SMA	1510	1504			SMA	1504	1510			CORR
IFCHG	I	2008/08/19	2008/08/19	37101	1111176	US172070CG77	1998/06/10	SMA	1506	1512			SMA	1512	1506			CLEAN
IFCHG	I	2008/08/23	2008/08/23	37260	977334	US913275AC73	2007/05/12	SMA	1505	1511			SMA	1511	1505			CLEAN
IFCHG	I	2008/09/27	2008/09/27	38047	154057	US71419QAE89	2004/03/13	QTR	1203	1206	1209	1212	QTR	1003	1006	1009	1012	CLEAN
IFCHG	I	2008/11/01	2008/11/01	38809	723797	XS0328781728	2007/11/03	SMA	0202	0208			SMA	0208	0202			CLEAN
IFCHG	I	2008/11/06	2008/11/06	38911	467321	USM8222MAA01	2005/08/10	SMA	3103	3009			SMA	3009	3103			CLEAN
IFCHG	I	2008/11/19	2008/11/19	39133	866574	XS0365923977	2008/05/29	SMA	2911	2905			SMA	2811	2805			CORR
IFCHG	I	2008/11/19	2008/11/19	39134	1239769	US78454CAA80	2017/01/25	ANL	2501				SMA	2507	2501			IFCHG
IFCHG	I	2008/11/21	2008/11/21	39210	458605	US20445RAA95	2006/12/21	QTR					SMA	1506	1512			CLEAN
IFCHG	I	2008/11/21	2008/11/21	39212	544087	US46601WAH88	2006/11/01	QTR					QTR	1001	1004	1007	1010	CORR
IFCHG	I	2008/11/21	2008/11/21	39221	1243089	US054536AB31	2018/12/14	SMA	1406	1412			QTR	1406	1409	1412	1403	IFCHG
IFCHG	U	2008/12/04	2016/04/08	39390	588912	XS0300013462	2007/05/11	ITM					SMA					CORR
IFCHG	I	2008/12/10	2008/12/10	39498	1264637	US63872AAA88	2018/04/30	SMA	3010	3004			QTR	3007	3010	3001	3004	IFCHG
IFCHG	I	2008/12/17	2008/12/17	39671	731057	XS0334249223	2007/12/05	ANL	0406				SMA	0406	0412			CORR
IFCHG	I	2008/12/18	2008/12/18	39721	413580	US30239XAD93	2005/06/29	SMA	1506	1512			SMA	1512	1506			CLEAN
IFCHG	I	2008/12/19	2008/12/19	39734	429162	US93933WAC01	2004/11/13	SMA	1501	1507			SMA	1507	1501			CORR
IFCHG	I	2008/12/19	2008/12/19	39759	348514	US55311HAE09	2005/08/19	MNT					ANL	1512				CLEAN
IFCHG	I	2008/12/19	2008/12/19	39762	348788	US55311HAJ95	2005/08/26	MNT					ANL	1512				CLEAN
IFCHG	I	2008/12/19	2008/12/19	39766	429148	US70645JAQ58	2005/06/09	SMA	1506	1512			SMA	1512	1506			CLEAN
IFCHG	I	2008/12/19	2008/12/19	39767	348507	US55311HAF73	2005/08/19	MNT					ANL	1512				CLEAN
IFCHG	I	2008/12/19	2008/12/19	39770	348784	US55311HAH30	2005/08/26	MNT					ANL	1512				CORR
EDI_ENDOFFILE
