EDI_RCONV_20161007
TableName	Actflag	Created	Changed	RconvID	SecID	ISIN	EffectiveDate	OldInterestAccrualConvention	NewInterestAccrualConvention	OldConvMethod	NewConvMethod	Eventtype	Notes
RCONV	U	2005/11/12	2008/05/02	163	139731	USG77395AA27	2003/08/14	A360	30360			CORR	
RCONV	U	2005/11/12	2008/05/02	164	139728	US78572MAA36	2003/08/14	A360	30360			CORR	
RCONV	U	2005/12/05	2008/05/02	186	253173	US78442FAT57	2005/12/05	A360	30360			CORR	
RCONV	U	2006/02/15	2008/05/02	256	207832	USG21886AB53	2006/02/15	A360	30360			CORR	
RCONV	U	2006/02/15	2008/05/02	258	276245	US12615TAB44	2006/02/15	A360	30360			CORR	
RCONV	U	2006/03/04	2008/05/02	307	342781	US89413AAA97	2006/02/25	30360	A360			CORR	
RCONV	U	2006/03/04	2008/05/02	311	342835	US89413AAC53	2006/02/25	30360	A360			CORR	
RCONV	U	2006/03/06	2008/05/02	317	164723	US74963RAB69	2006/03/06	AA	A365			CORR	
RCONV	U	2006/03/09	2008/05/02	334	164963	US76112SAE37	2006/03/09	AA	A365			CORR	
RCONV	U	2006/07/22	2008/05/02	668	136685	US707190AB07	1997/06/13	A360	30360			CORR	
RCONV	U	2006/07/29	2008/05/02	758	169503	US84359VAJ17	2004/08/09	AA	A365			CORR	
RCONV	U	2006/07/29	2008/05/02	760	169513	US84359VAM46	2004/08/09	AA	A365			CORR	
RCONV	U	2006/07/29	2008/05/02	762	169525	US84359VAQ59	2004/08/09	AA	A365			CORR	
RCONV	U	2006/07/31	2008/05/02	780	227518	US84359WAE03	2005/02/23	AA	A365			CORR	
RCONV	U	2006/07/31	2008/05/02	783	227432	US84359WAF77	2005/02/23	AA	A365			CORR	
RCONV	U	2006/07/31	2008/05/02	787	157513	US74962EAJ91	2006/07/19	AA	A365			CORR	
RCONV	U	2006/07/31	2008/05/02	793	164742	US74963RAG56	2006/07/19	AA	A365			CORR	
RCONV	U	2006/07/31	2008/05/02	810	235928	US749627AB10	2005/03/02	AA	A365			CORR	
RCONV	U	2006/07/31	2008/05/02	812	235840	US749627AD75	2005/03/02	AA	A365			CORR	
RCONV	U	2006/07/31	2008/05/02	814	235835	US749627AE58	2005/03/02	AA	A365			CORR	
RCONV	U	2006/08/01	2008/05/02	821	394443	US76113CAL19	2006/07/07	A365	A360			CORR	
RCONV	U	2006/08/01	2008/05/02	827	139990	US74962XAE85	2006/07/20	AA	A365			CORR	
RCONV	U	2006/08/10	2008/05/02	843	232860	FR0008202550	2006/08/08	AA	A360			CORR	
RCONV	U	2006/08/12	2008/05/02	854	293536	USN02627AR30	2003/06/02	AA	30360			CORR	
RCONV	U	2006/08/12	2008/05/02	855	299416	US00080QAA31	2003/06/02	AA	30360			CORR	
RCONV	U	2006/08/28	2008/05/02	936	138198	US501819AA48	2006/07/27	A360	AA			CORR	
RCONV	I	2006/08/31	2006/08/31	963	405892	US74042MAG15	2009/06/22	30360	A360			RCONV	
RCONV	I	2006/08/31	2006/08/31	965	405901	US74042MAQ96	2011/06/22	30360	A360			RCONV	
RCONV	I	2006/08/31	2006/08/31	966	405899	US74042MAH97	2009/06/22	30360	A360			RCONV	
RCONV	I	2006/08/31	2006/08/31	968	405928	US74042MAL00	2011/06/22	30360	A360			RCONV	
RCONV	I	2006/08/31	2006/08/31	970	405934	US74042MAM82	2011/06/22	30360	A360			RCONV	
RCONV	U	2006/09/04	2008/05/02	977	401051	USG56581AB08	2006/07/06	30360	A360			CORR	
RCONV	U	2006/09/04	2008/05/02	980	406973	USG56581AA25	2006/07/06	30360	A360			CORR	
RCONV	U	2006/10/03	2008/05/02	1121	268933	NL0000116168	2004/10/15	AA	30360			CORR	
RCONV	U	2006/11/17	2008/05/02	1434	434698	US52902WAF68	2006/09/19	30360	A360			CORR	
RCONV	U	2006/12/07	2008/05/02	1614	445616	US298805AC60	2006/10/11	A360	A365			CORR	
RCONV	U	2006/12/08	2008/05/02	1617	429518	USG94125AF16	2006/09/28	30360	A360			CORR	
RCONV	U	2006/12/15	2008/05/02	1637	445601	US298805AF91	2006/10/11	A360	A365			CORR	
RCONV	I	2006/12/21	2006/12/21	1690	321220	USW25381DL07	2014/03/25	30360	A360			RCONV	
RCONV	I	2007/01/04	2007/01/04	1732	435788	USP09645AA37	2016/11/07	30360	A360			RCONV	
RCONV	I	2007/01/19	2007/01/19	1898	483034	US05960AAA25	2016/10/13	30360	A360			RCONV	
RCONV	I	2007/01/19	2007/01/19	1900	483061	USP1393WAA38	2016/10/13	30360	A360			RCONV	
RCONV	I	2007/01/25	2007/01/25	1935	488987	US049731AG70	2016/10/09	30360	A360			RCONV	
RCONV	I	2007/01/25	2007/01/25	1936	489093	XS0274732295	2016/11/16	30360	A360			RCONV	
RCONV	U	2007/03/01	2008/05/02	2029	457434	USG3683QAD54	2006/09/21	30360	A360			CORR	
RCONV	I	2007/03/10	2007/03/10	2244	554706	US74040XAD66	2006/04/03	30360	A360			CORR	
RCONV	I	2007/03/10	2007/03/10	2247	554708	US74040XAE40	2008/04/03	30360	A360			RCONV	
RCONV	I	2007/03/10	2007/03/10	2249	554709	US74040XAF15	2008/04/03	30360	A360			RCONV	
RCONV	I	2007/03/10	2007/03/10	2251	554796	US74040XAJ37	2008/04/03	30360	A360			RCONV	
RCONV	I	2007/03/10	2007/03/10	2256	357259	USG7220PAE63	2008/04/03	30360	A360			RCONV	
RCONV	I	2007/03/10	2007/03/10	2258	357255	USG7220PAF39	2008/04/03	30360	A360			RCONV	
RCONV	I	2007/03/26	2007/03/26	2925	563630	USF0609NAP36	2018/12/14	30360	A360			RCONV	
RCONV	I	2007/03/26	2007/03/26	2927	563636	USF0609NAQ19	2036/12/14	30360	A360			RCONV	
RCONV	I	2007/04/10	2007/04/10	3595	145797	GB0005902332	1985/06/19	30360	A360			CLEAN	
RCONV	I	2007/04/10	2007/04/10	3596	340401	US74038YAC03	2006/02/23	30360	A365			CLEAN	
RCONV	I	2007/04/10	2007/04/10	3601	340543	US74038YAQ98	2006/02/23	30360	A365			CLEAN	
RCONV	I	2007/04/11	2007/04/11	3662	229811	GB0047524268	1986/09/26	AA	A360			CORR	
RCONV	I	2007/04/19	2007/04/19	4057	494149	XS0284982922	2007/01/31	30360	AA			CORR	
RCONV	I	2007/05/04	2007/05/04	5313	382546	XS0138294201	2001/11/14	30360	30E/360			CLEAN	
RCONV	I	2007/05/14	2007/05/14	5736	392333	XS0155141830	2032/06/15	30360	A360			RCONV	
RCONV	I	2007/05/22	2007/05/22	6176	576393	XS0294208235	2007/03/30	30360				CORR	
RCONV	I	2007/05/23	2007/05/23	6328	410040	XS0264823567	2006/08/16	A360	30360			CORR	
RCONV	I	2007/05/25	2007/05/25	6423	171067	USG4672CAC94	2003/11/24	A360	30360			CLEAN	
RCONV	I	2007/05/31	2007/05/31	7033	324566	USN7637QAC70	2000/10/04	A365	30360			CORR	
RCONV	I	2007/06/04	2007/06/04	7268	250248	US749628AM57	2007/03/19	AA	A360			CLEAN	
RCONV	I	2007/06/12	2007/06/12	8157	428820	USX3078NAA29	2011/06/15	30360	A360			RCONV	
RCONV	I	2007/06/13	2007/06/13	8228	494149	XS0284982922	2007/02/01	AA	30360			CORR	
RCONV	I	2007/06/20	2007/06/20	8876	582876	XS0299183250	2007/05/10	30E/360	30360			CORR	
RCONV	I	2007/06/22	2007/06/22	9131	585809	XS0300998779	2007/05/14	30E/360	30360			CORR	
RCONV	I	2007/06/27	2007/06/27	9683	582876	XS0299183250	2007/05/11	30360	30E/360			CORR	
RCONV	I	2007/06/28	2007/06/28	9806	609658	US89352HAC34	2017/05/15	30360	A360			RCONV	
RCONV	I	2007/06/29	2007/06/29	9883	610714	USG23491AA40	2016/12/31	30360	A360			RCONV	
RCONV	I	2007/06/29	2007/06/29	9886	610830	US564759QB72	2016/12/01	30360	A360			RCONV	
RCONV	I	2007/07/02	2007/07/02	10005	582876	XS0299183250	2007/05/12	30E/360	30360			CLEAN	
RCONV	I	2007/07/09	2007/07/09	10592	582876	XS0299183250	2007/05/13	30360	30E/360			CORR	
RCONV	I	2007/07/10	2007/07/10	10722	582876	XS0299183250	2007/05/14	30E/360	30360			CORR	
RCONV	I	2007/07/12	2007/07/12	10992	585809	XS0300998779	2007/05/15	30360	30E/360			CORR	
RCONV	I	2007/07/12	2007/07/12	11101	604454	XS0303324585	2007/06/06	30360	30S360			CORR	
RCONV	I	2007/07/12	2007/07/12	11102	611929	XS0303241615	2007/06/06	30E/360	30360			CORR	
RCONV	I	2007/07/13	2007/07/13	11167	585809	XS0300998779	2007/05/16	30E/360	30360			CORR	
RCONV	I	2007/07/14	2007/07/14	11254	604454	XS0303324585	2007/06/07	30S360	30360			CORR	
RCONV	I	2007/07/14	2007/07/14	11404	582876	XS0299183250	2007/05/15	30360	30E/360			CLEAN	
RCONV	I	2007/07/14	2007/07/14	11406	412183	USW5816FCM42	2015/04/20	30360	A360			RCONV	
RCONV	I	2007/07/16	2007/07/16	11549	597352	XS0301888615	2007/05/24	A360	30360			CORR	
RCONV	I	2007/07/17	2007/07/17	11720	551662	XS0290580595	2007/03/07	30E/360	30360			CLEAN	
RCONV	I	2007/07/17	2007/07/17	11725	558896	XS0292530309	2007/03/19	30E/360	30360			CORR	
RCONV	I	2007/07/18	2007/07/18	11870	624997	US379308AB53	2016/09/14	30360	A360			RCONV	
RCONV	I	2007/07/18	2007/07/18	11871	624615	USF8586CAA02	2017/04/05	30360	A360			RCONV	
RCONV	I	2007/07/21	2007/07/21	12086	583031	XS0298931287	2007/05/03	30E/360	30360			CLEAN	
RCONV	I	2007/07/30	2007/07/30	12717	582876	XS0299183250	2007/05/16	30E/360	30360			CORR	
RCONV	I	2007/07/30	2007/07/30	12745	575784	US83367TAA79	2017/04/05	30360	A360			RCONV	
RCONV	I	2007/08/06	2007/08/06	13151	422712	XS0269453139	2016/12/15	30360	A360			RCONV	
RCONV	I	2007/08/09	2007/08/09	13432	571112	XS0294364103	2007/04/12	30E/360	30360			CLEAN	
RCONV	I	2007/08/09	2007/08/09	13433	571045	XS0294364954	2007/04/12	30E/360	30360			CLEAN	
RCONV	I	2007/08/09	2007/08/09	13434	571046	XS0294367205	2007/04/12	30E/360	30360			CLEAN	
RCONV	I	2007/08/17	2007/08/17	14020	646842	USG12255AA64	2016/02/01	30360	A360			RCONV	
RCONV	I	2007/08/17	2007/08/17	14042	646920	USG1970AAA28	2007/01/18	30360	A360			CORR	
RCONV	I	2007/08/17	2007/08/17	14079	647051	US98372PAJ75	2017/04/15	30360	A360			RCONV	
RCONV	I	2007/08/20	2007/08/20	14247	648186	USU8038MAA54	2008/06/30	30360	A360			RCONV	
RCONV	I	2007/08/22	2007/08/22	14432	553824	XS0290534212	2007/03/08	30E/360	30360			CORR	
RCONV	I	2007/08/22	2007/08/22	14560	650100	XS0290135358	2017/05/31	AA	A360			RCONV	
RCONV	I	2007/08/23	2007/08/23	14615	649453	USG4637HAB45	2030/06/30	30360	A360			RCONV	
RCONV	I	2007/08/23	2007/08/23	14625	650776	USU2445QAA68	2009/11/02	30360	A360			RCONV	
RCONV	I	2007/08/28	2007/08/28	14979	455299	USW25381DM89	2015/03/23	30360	A360			RCONV	
RCONV	I	2007/09/05	2007/09/05	15514	656192	USG9463GAA60	2006/03/07	30360	A360			CORR	
RCONV	I	2007/09/06	2007/09/06	15673	646920	USG1970AAA28	2007/01/19	A360	30360			CLEAN	
RCONV	I	2007/09/06	2007/09/06	15674	646920	USG1970AAA28	2017/01/19	30360	A360			RCONV	
RCONV	I	2007/09/18	2007/09/18	16467	558602	XS0291641420	2007/09/17	A365	30360			CORR	
RCONV	I	2007/09/20	2007/09/20	16587	675551	USY38575CZ07	2016/10/31	30360	A360			RCONV	
RCONV	I	2007/09/25	2007/09/25	16879	250259	US749628AK91	2007/09/12	AA	A360			CORR	
RCONV	I	2007/09/26	2007/09/26	16886	556709	DE000A0LPMX0	2007/09/26	30S360	30360			CORR	
RCONV	I	2007/09/26	2007/09/26	16889	250238	US749628AH62	2007/09/12	AA	A360			CORR	
RCONV	I	2007/09/26	2007/09/26	16891	250267	US749628AF07	2007/09/12	AA	A360			CORR	
RCONV	I	2007/09/28	2007/09/28	16991	642221	XS0316524130	2007/08/17	30E/360	30360			CORR	
RCONV	I	2007/10/22	2007/10/22	17924	652492	XS0318517009	2007/09/29	30E/360	AA			CORR	
RCONV	I	2016/09/20	2016/09/20	18352	417953	XS0267870508	2016/09/20	30360	30360			REVERT	
RCONV	I	2007/11/05	2007/11/05	18503	558602	XS0291641420	2007/09/18	30360	AA			CORR	
RCONV	I	2007/11/05	2007/11/05	18505	558602	XS0291641420	2017/03/15	AA	A365			RCONV	
RCONV	I	2007/11/17	2007/11/17	18930	714477	XS0329522246	2007/11/07	AA	30E/360	ICMA	ICMA	CORR	
RCONV	I	2007/11/23	2007/11/23	19173	682464	XS0323650787	2007/09/27	30E/360	30360			CORR	
RCONV	I	2007/12/05	2007/12/05	19694	733924	US40427LAB09	2030/06/30	30360	A360			RCONV	
RCONV	I	2007/12/14	2007/12/14	20028	627371	XS0308427581	2007/07/04	30E/360	30360			CORR	
RCONV	I	2007/12/28	2007/12/28	20565	142735	US78004VAB99	1999/10/02	A360	30360			CORR	
RCONV	I	2008/01/11	2008/01/11	21036	735977	XS0335444724	2008/01/18	A360				CORR	
RCONV	I	2008/01/11	2008/01/11	21072	751556	US74041EAL92	2009/12/23	30360	A360			RCONV	
RCONV	I	2008/01/16	2008/01/16	21219	626927	XS0312572984	2007/07/26	30E/360	30360			CORR	
RCONV	I	2008/01/17	2008/01/17	21311	625367	USG09077AB73	2017/05/17	30360	A360			RCONV	
RCONV	I	2008/01/17	2008/01/17	21315	625371	US055295AB54	2017/05/17	30360	A360			RCONV	
RCONV	I	2008/01/21	2008/01/21	21418	175281	FR0010101949	2004/08/01	AA	30360			CLEAN	
RCONV	I	2008/01/22	2008/01/22	21451	261060	US00080QAB14	2003/06/03	AA	30360			CORR	
RCONV	I	2008/01/31	2008/01/31	21765	738369	USU2492SAA43	2009/06/30	30360	A360			RCONV	
RCONV	I	2008/02/01	2008/02/01	21769	715097	US834182AJ68	1999/01/28	30360				CLEAN	
RCONV	I	2008/03/03	2008/03/03	22721	691135	XS0324963932	2007/10/11	A360	30360			CORR	
RCONV	I	2008/03/08	2008/03/08	22915	624198	XS0311369978	2008/03/07	30E/360	30360			CORR	
RCONV	I	2016/09/22	2016/09/22	23220	422372	XS0268226536	2016/09/22	30360	30360			REVERT	
RCONV	I	2008/03/14	2008/03/14	23237	797471	XS0277382650	2016/12/12	30360	A360			RCONV	
RCONV	I	2008/03/18	2008/03/18	23310	348785	US404280AD18	2004/12/04	A360	30360			CLEAN	
RCONV	I	2008/03/25	2008/03/25	23531	297153	US879385AD49	2000/09/15	AA	30360			CLEAN	
RCONV	I	2008/03/25	2008/03/25	23533	141755	US92857TAH05	2000/02/11	A360	30360			CORR	
RCONV	I	2008/03/29	2008/03/29	23633	684828	XS0323865047	2007/10/05	30E/360	30360		ICMA	CORR	
RCONV	I	2008/04/03	2008/04/03	23762	810070	USG8227UAA46	2017/01/25	30360	A360			RCONV	
RCONV	I	2008/04/30	2008/04/30	24362	141885	US002928AA78	2030/06/30	30360	A360			RCONV	
RCONV	I	2008/05/01	2008/05/01	24386	760920	XS0343832605	2008/02/08	A360	30360			CORR	
RCONV	I	2008/05/14	2008/05/14	24790	810831	XS0357281558	2008/04/12	30E/360	30360			CORR	
RCONV	I	2008/08/12	2008/08/12	27254	977967	XS0373641009	2008/07/03	30E/360	30360			CORR	
RCONV	I	2008/09/18	2008/09/18	28496	1105669	XS0383001640	2008/08/19	30E/360	AA			CORR	
RCONV	I	2008/09/22	2008/09/22	28636	777169	US914261AA04	2006/04/14	A365L				CLEAN	
RCONV	I	2008/09/24	2008/09/24	28741	808988	XS0356521160	2008/04/11	30E/360	30360			CORR	
RCONV	I	2008/10/14	2008/10/14	29098	820970	XS0359089512	2008/04/19	A360	30360			CORR	
RCONV	I	2008/10/16	2008/10/16	29241	825837	XS0359381331	2008/04/25	30E/360	30360			CORR	
RCONV	I	2008/10/24	2008/10/24	29723	1202234	US25154H6999	2008/02/23	A360	A365			CLEAN	
RCONV	I	2008/11/18	2008/11/18	30450	1098292	XS0381439305	2008/08/08	30E/360	30360			CORR	
RCONV	I	2008/11/19	2008/11/19	30560	1239773	US69350JAA79	2012/03/15	30360	A360			RCONV	
RCONV	I	2008/11/21	2008/11/21	30702	1242972	US78454AAA25	2017/01/25	30360	A360			RCONV	
RCONV	I	2008/12/10	2008/12/10	31232	1264637	US63872AAA88	2018/04/30	30360	A360			RCONV	
RCONV	I	2008/12/17	2008/12/17	31356	731057	XS0334249223	2007/12/05	30E/360	30360			CORR	
RCONV	I	2008/12/30	2008/12/30	31739	644960	US225313AA37	2017/05/31	30360	A360			RCONV	
RCONV	I	2009/01/02	2009/01/02	31756	1273843	US172967ER86	2018/04/30	30360	A360			RCONV	
RCONV	I	2009/01/02	2009/01/02	31760	669738	US749769AA35	2016/12/31	30360	A360			RCONV	
RCONV	I	2009/01/03	2009/01/03	31772	428801	US379308AA70	2011/06/15	30360	A360			RCONV	
RCONV	I	2009/01/05	2009/01/05	31782	1274501	US45104GAB05	2016/10/31	30360	A360			RCONV	
RCONV	I	2009/01/05	2009/01/05	31783	392351	US06738CAG42	2032/06/15	30360	A360			RCONV	
RCONV	I	2009/01/08	2009/01/08	31873	143620	US753035AC82	1998/01/14	A360	30360			CORR	
RCONV	I	2009/01/08	2009/01/08	31885	626002	US023139AF58	2007/02/13	30360	A360			RCONV	
RCONV	I	2009/01/08	2009/01/08	31886	626002	US023139AF58	2007/02/14	A360	30360			CLEAN	
RCONV	I	2009/01/08	2009/01/08	31887	626002	US023139AF58	2037/02/15	30360	A360			RCONV	
RCONV	I	2009/01/12	2009/01/12	31955	1286992	US74730UAA34	2017/06/01	30360	A360			RCONV	
RCONV	I	2009/01/15	2009/01/15	32022	269018	US89989EAD94	2004/03/25	AA	30360			CORR	
RCONV	I	2009/01/17	2009/01/17	32076	1231566	US5150X4AA17	2017/10/19	30360	A360			RCONV	
RCONV	I	2009/01/17	2009/01/17	32081	1291156	US225448AA76	2017/05/15	30360	A360			RCONV	
RCONV	I	2009/01/19	2009/01/19	32084	1291165	US70212JAA34	2016/12/01	30360	A360			RCONV	
RCONV	I	2009/01/24	2009/01/24	32163	1296158	US05565AAB98	2037/06/25	30360	A360			RCONV	
RCONV	I	2009/02/04	2009/02/04	32281	1119811	US524908WH98	2027/05/03	30360	A360			RCONV	
RCONV	I	2009/02/04	2009/02/04	32287	1048846	US78454HAA77	2008/07/20	AA	30360			CORR	
RCONV	I	2009/02/04	2009/02/04	32288	1048846	US78454HAA77	2018/07/25	30360	A360			RCONV	
RCONV	I	2009/02/05	2009/02/05	32306	609346	US500769CH58	2007/06/28	30S360				CLEAN	
RCONV	I	2009/02/06	2009/02/06	32317	1116800	US06739HAA59	2018/04/25	30360	A360			RCONV	
RCONV	I	2009/02/06	2009/02/06	32328	1318722	US05518VAA35	2012/03/15	30360	A360			RCONV	
RCONV	I	2009/02/21	2009/02/21	32533	686032	US06739GAD16	2017/12/15	30360	A360			RCONV	
RCONV	I	2009/02/25	2009/02/25	32578	1334028	XS0306711473	2017/06/28	AA	A365			RCONV	
RCONV	I	2009/02/25	2009/02/25	32597	681541	US05963GAB41	2016/12/18	30360	A360			RCONV	
RCONV	I	2009/02/26	2009/02/26	32622	1330569	XS0414345974	2009/02/25	AA	A365			CLEAN	
RCONV	I	2009/03/13	2009/03/13	32843	287683	US749629AH46	2005/09/13	30360	A360			CORR	
RCONV	I	2009/03/13	2009/03/13	32844	287671	US749629AK74	2005/09/13	30360	A360			CORR	
RCONV	I	2009/03/13	2009/03/13	32845	1330569	XS0414345974	2009/02/26	A365	AA		ICMA	CORR	
RCONV	I	2009/03/19	2009/03/19	32915	287669	US749629AJ02	2005/09/13	30360	A365			CLEAN	
RCONV	I	2009/03/19	2009/03/19	32926	1364310	US78389RAA59	2008/06/30	30360	A360			RCONV	
RCONV	I	2009/03/20	2009/03/20	32937	1364751	US74927PAA75	2034/01/03	30360	A360			RCONV	
RCONV	I	2009/03/20	2009/03/20	32947	1365141	US780097AH44	2031/09/30	30360	A360			RCONV	
RCONV	I	2009/03/23	2009/03/23	32961	1110083	US852891AB60	2017/06/01	30360	A360			RCONV	
RCONV	I	2009/03/24	2009/03/24	32978	1366525	US854624AA12	2010/12/01	30360	A365			RCONV	
RCONV	I	2009/03/24	2009/03/24	32979	1366570	US854624AC77	2005/11/23	30360	A365			RCONV	
RCONV	I	2009/03/24	2009/03/24	32980	1366570	US854624AC77	2005/11/24	A365	30360			CLEAN	
RCONV	I	2009/03/24	2009/03/24	32981	1366570	US854624AC77	2010/12/01	30360	A365			RCONV	
RCONV	I	2009/04/01	2009/04/01	33046	665980	US976657AH99	2017/05/15	30360	A360			RCONV	
RCONV	I	2009/04/24	2009/04/24	33267	381625	US880591DP40	2001/07/10	A365				CLEAN	
RCONV	I	2009/05/14	2009/05/14	33424	253195	US78442FAZ18	2003/07/22	A360	30360			CORR	
RCONV	I	2009/05/14	2009/05/14	33425	253187	US78442FAX69	2003/06/17	A360	30360			CORR	
RCONV	I	2009/05/18	2009/05/18	33490	1433964	US45104SAD09	2009/06/10	30360	A360			RCONV	
RCONV	I	2009/05/30	2009/05/30	33714	727540	XS0329423346	2007/11/03	30E/360	A360			CORR	
RCONV	I	2009/06/03	2009/06/03	33838	1098292	XS0381439305	2008/08/09	30360	AA			CORR	
RCONV	I	2009/06/10	2009/06/10	34062	1463016	XS0431744282	2019/06/30	30360	A360			RCONV	
RCONV	I	2009/06/10	2009/06/10	34074	1463530	US749770AQ67	2019/06/30	30360	A360			RCONV	
RCONV	I	2009/07/04	2009/07/04	34803	825837	XS0359381331	2008/04/26	30360	AA		ICMA	CORR	
RCONV	I	2009/07/08	2009/07/08	35034	611929	XS0303241615	2007/06/07	30360	AA		ICMA	CORR	
RCONV	I	2009/07/27	2009/07/27	35806	961148	USF6483LHM57	2018/04/30	30360	A360			RCONV	
RCONV	I	2009/07/27	2009/07/27	35862	825837	XS0359381331	2008/04/27	AA	30360	ICMA	ICMA	CORR	
RCONV	I	2009/07/29	2009/07/29	36074	1504546	XS0440041191	2009/07/17	A360	30E/360			CORR	
RCONV	I	2009/07/30	2009/07/30	36201	491059	USP1047VAC11	2007/01/30	30360				CLEAN	
RCONV	I	2009/08/05	2009/08/05	36862	933626	XS0366630902	2008/05/30	30E/360	30360			CLEAN	
RCONV	I	2009/08/10	2009/08/10	37006	481267	USG9079RAC46	2006/08/17	30360	A360			CLEAN	
RCONV	I	2009/08/27	2009/08/27	37621	1504546	XS0440041191	2009/07/18	30E/360	30360			CORR	
RCONV	I	2009/08/29	2009/08/29	37734	1541321	XS0446665886	2009/08/20	A360	30360			CORR	
RCONV	I	2009/09/05	2009/09/05	38025	714477	XS0329522246	2007/11/08	30E/360	AA	ICMA	ICMA	CORR	
RCONV	I	2009/09/10	2009/09/10	38328	954209	US500769CU69	2008/06/11	30S360	30360			CORR	
RCONV	I	2009/09/25	2009/09/25	38914	1589672	XS0453908377	2009/09/24	A360	AA		ICMA	CORR	
RCONV	I	2009/09/26	2009/09/26	38946	1048850	USG82281AA73	2018/07/25	30360	A360			RCONV	
RCONV	I	2009/09/28	2009/09/28	38997	825494	USN3033QAT96	2008/04/23	30S360	30360			CORR	
RCONV	I	2009/10/01	2009/10/01	39238	1123990	USG2024RAA98	2014/12/31	30360	A360			RCONV	
RCONV	I	2009/10/05	2009/10/05	39363	1603660	US12518TAA43	2014/12/31	30360	A360			RCONV	
RCONV	I	2009/10/06	2009/10/06	39456	576393	XS0294208235	2007/03/31	30E/360	30360			CORR	
RCONV	I	2009/10/09	2009/10/09	39623	898746	XS0366672730	2008/06/20	A360	30360			CORR	
RCONV	I	2009/10/15	2009/10/15	39840	778469	US026874BE68	2037/03/15	30360	A360			RCONV	
RCONV	I	2009/10/21	2009/10/21	40006	1630423	US302570AY26	2017/09/01	30360	A360			RCONV	
RCONV	I	2009/10/21	2009/10/21	40024	1630681	US302570AW69	2016/10/01	30360	A360			RCONV	
RCONV	I	2009/10/22	2009/10/22	40120	1562234	XS0450933873	2009/09/12	30E/360	30360			CORR	
RCONV	I	2009/10/26	2009/10/26	40191	665680	US534187AU31	2017/04/20	30360	A360			RCONV	
RCONV	I	2009/10/26	2009/10/26	40204	1301412	US59156RAP38	2036/12/15	30360	A360			RCONV	
RCONV	I	2009/10/26	2009/10/26	40206	1633913	US58551TAA51	2012/06/20	30360	A360			RCONV	
RCONV	I	2009/10/30	2009/10/30	40349	1637307	US302570AX43	2017/06/15	30360	A360			RCONV	
RCONV	I	2009/10/31	2009/10/31	40397	1109969	US759351AE91	2015/12/15	30360	A360			RCONV	
RCONV	I	2009/11/03	2009/11/03	40408	325360	US91911TAE38	2004/01/16	A360	30360			CORR	
RCONV	I	2009/11/03	2009/11/03	40409	1125777	US92978AAA07	2011/03/15	30360	A360			RCONV	
RCONV	I	2009/11/04	2009/11/04	40447	1110038	US92931BAC00	2016/12/01	30360	A360			RCONV	
RCONV	I	2009/11/06	2009/11/06	40499	1110109	US743315AM58	2007/06/22	30360	A360			CORR	
RCONV	I	2009/11/06	2009/11/06	40500	1110109	US743315AM58	2007/06/23	A360	30360			CLEAN	
RCONV	I	2009/11/06	2009/11/06	40501	1110109	US743315AM58	2017/06/15	30360	A360			RCONV	
RCONV	I	2009/11/07	2009/11/07	40565	1585953	XS0452300402	2009/09/15	30E/360	30360			CORR	
RCONV	I	2009/11/09	2009/11/09	40603	324567	US780641AC08	2000/10/05	A365	30360			CORR	
RCONV	I	2009/11/10	2009/11/10	40615	1658404	US01039XAA81	2009/10/01	30360	A360			RCONV	
RCONV	I	2009/11/11	2009/11/11	40688	1110050	US04622DAA90	2016/12/15	30360	A360			RCONV	
RCONV	I	2009/11/12	2009/11/12	40737	626485	US170228AB61	2012/02/14	30360	A360			RCONV	
RCONV	I	2009/11/13	2009/11/13	40760	973190	US229899AA72	2012/02/15	30360	A360			RCONV	
RCONV	I	2009/11/14	2009/11/14	40798	1594775	US24717RAA23	2008/11/15	30360	A360			RCONV	
RCONV	I	2009/11/14	2009/11/14	40812	1110125	US293791AW97	2018/01/15	30360	A360			RCONV	
RCONV	I	2009/11/14	2009/11/14	40821	1110115	US29250RAK23	2017/10/01	30360	A360			RCONV	
RCONV	I	2009/11/16	2009/11/16	40868	1662883	US40430L2088	2015/11/30	30360	A360			RCONV	
RCONV	I	2009/11/17	2009/11/17	40892	1663183	US25153RAA05	2016/01/19	30360	A360			RCONV	
RCONV	I	2009/11/17	2009/11/17	40911	1663488	US46626YAA01	2004/09/24	A365L	A360			CLEAN	
RCONV	I	2009/11/20	2009/11/20	41070	1074421	US64031NAB47	2011/09/29	30360	A360			RCONV	
RCONV	I	2009/11/21	2009/11/21	41131	1665789	US745332BY16	2017/12/01	30360	A360			RCONV	
RCONV	I	2009/11/23	2009/11/23	41153	1110026	US844030AH97	2011/11/01	30360	A360			RCONV	
RCONV	I	2009/11/24	2009/11/24	41155	1110085	US872384AC61	2017/06/01	30360	A360			RCONV	
RCONV	I	2009/11/26	2009/11/26	41278	1114782	USG73055AA68	2017/06/01	30360	A360			RCONV	
RCONV	I	2009/11/26	2009/11/26	41283	1607234	XS0457559838	2009/10/16	30E/360	30360			CORR	
RCONV	I	2009/11/27	2009/11/27	41290	1606481	XS0457137841	2009/10/16	30E/360	30360			CORR	
RCONV	I	2009/12/01	2009/12/01	41361	1671041	US74043CAJ62	2011/12/22	30360	A360			RCONV	
RCONV	I	2009/12/01	2009/12/01	41363	1671069	US74043CAK36	2011/12/22	30360	A360			RCONV	
RCONV	I	2009/12/01	2009/12/01	41364	1671119	US74043CAF41	2011/12/22	30360	A360			RCONV	
RCONV	I	2009/12/01	2009/12/01	41368	1409299	XS0426513031	2009/05/01	30S360	AA		ICMA	CORR	
RCONV	I	2009/12/16	2009/12/16	41750	612162	US37247DAG16	2016/11/15	30360	A360			RCONV	
RCONV	I	2009/12/16	2009/12/16	41755	1597338	XS0455643394	2009/09/30	30E/360	AA		ICMA	CORR	
RCONV	I	2009/12/16	2009/12/16	41763	1698483	US60688HAN52	2009/12/16	A360	30360			CLEAN	
RCONV	I	2009/12/16	2009/12/16	41768	1698876	US399279AL21	2007/01/20	A360	30360			CORR	
RCONV	I	2009/12/17	2009/12/17	41805	1700102	US014498AF60	2011/12/23	30360	A360			RCONV	
RCONV	I	2010/01/04	2010/01/04	42178	1719231	US74042FAK75	2012/03/22	30360	A360			RCONV	
RCONV	I	2010/01/04	2010/01/04	42179	1718525	US74042FAJ03	2007/03/23	A360	30360			CLEAN	
RCONV	I	2010/01/04	2010/01/04	42180	1718525	US74042FAJ03	2012/03/22	30360	A360			RCONV	
RCONV	I	2010/01/04	2010/01/04	42185	1719289	US74042FAE16	2012/03/22	30360	A360			RCONV	
RCONV	I	2010/01/04	2010/01/04	42186	1719308	US74042FAF80	2012/03/22	30360	A360			RCONV	
RCONV	I	2010/01/04	2010/01/04	42190	1719379	US04973PAH29	2012/07/11	30360	A360			RCONV	
RCONV	I	2010/01/04	2010/01/04	42191	1719405	US04973PAF62	2012/07/11	30360	A360			RCONV	
RCONV	I	2010/01/06	2010/01/06	42262	1721667	US01449AAB08	2005/04/20	A360	30360			CLEAN	
RCONV	I	2010/01/06	2010/01/06	42281	1597344	XS0455643808	2009/09/30	30E/360	30360			CORR	
RCONV	U	2010/01/07	2011/03/03	42306	1722565	US89156EAM66	2010/04/10	A360	30360			RCONV	
RCONV	I	2010/01/13	2010/01/13	42612	1732188	US74042QAE70	2012/06/22	30360	A360			RCONV	
RCONV	I	2010/01/13	2010/01/13	42613	1732212	US74042QAJ67	2012/06/22	30360	A360			RCONV	
RCONV	I	2010/01/13	2010/01/13	42614	1732215	US74042QAK31	2012/06/22	30360	A360			RCONV	
RCONV	I	2010/01/13	2010/01/13	42618	1732222	US74042QAF46	2012/06/22	30360	A360			RCONV	
RCONV	I	2010/01/14	2010/01/14	42676	1744383	US903428AE03	2017/04/10	30360	A360			RCONV	
RCONV	I	2010/01/14	2010/01/14	42678	1744422	US903428AC47	2017/04/10	30360	A360			RCONV	
RCONV	I	2010/01/15	2010/01/15	42710	1745372	US601295AG35	2007/06/26	A360	30360			CORR	
RCONV	I	2010/01/18	2010/01/18	42722	1746324	US01450GAB32	2017/06/23	30360	A360			RCONV	
RCONV	I	2010/01/22	2010/01/22	42868	1668471	XS0470473231	2009/12/03	30E/360	30360			CORR	
RCONV	I	2010/01/22	2010/01/22	42904	1636121	XS0463305366	2009/11/06	30E/360	AA		ICMA	CORR	
RCONV	I	2010/01/23	2010/01/23	42915	1751711	US83438JAJ51	2012/07/07	30360	A360			RCONV	
RCONV	I	2010/01/27	2010/01/27	43068	1355934	USU02687BW75	2038/05/15	30360	A360			RCONV	
RCONV	I	2010/01/27	2010/01/27	43103	1756572	US74042CAJ71	2007/11/09	A360	30360			CLEAN	
RCONV	I	2010/01/27	2010/01/27	43104	1756572	US74042CAJ71	2012/09/22	30360	A360			RCONV	
RCONV	I	2010/01/27	2010/01/27	43105	1756582	US74042CAK45	2017/09/22	30360	A360			RCONV	
RCONV	I	2010/02/02	2010/02/02	43234	1440667	US78442GQR01	2006/01/25	30360	A360			RCONV	
RCONV	I	2010/02/17	2010/02/17	43759	1639668	XS0461926569	2009/11/06	30E/360	30360			CORR	
RCONV	I	2010/02/26	2010/02/26	44188	841098	USG6179RAE56	2011/12/26	30360	A360			RCONV	
RCONV	I	2010/02/26	2010/02/26	44197	617325	USG6178HAE83	2006/11/17	A360	30360			CORR	
RCONV	I	2010/03/02	2010/03/02	44296	351856	USG30405AF45	2005/09/23	A360	30360			CORR	
RCONV	I	2010/03/09	2010/03/09	44694	1398180	USG6709MAF26	2003/01/15	A360	30360			CORR	
RCONV	I	2010/03/20	2010/03/20	45067	1318978	US22608PAC86	2001/03/08	A360	30360			CLEAN	
RCONV	I	2010/04/16	2010/04/16	46134	724497	US456837AC74	2015/12/08	30360	A360			RCONV	
RCONV	I	2010/04/17	2010/04/17	46159	724209	US44978NAA37	2010/12/31	30360	A360			RCONV	
RCONV	I	2010/04/19	2010/04/19	46199	1110130	US744320AK85	2018/06/15	30360	A360			RCONV	
RCONV	I	2010/04/22	2010/04/22	46278	1567083	US78442GHH20	2003/07/23	30360	A360			CORR	
RCONV	I	2010/05/06	2010/05/06	46580	662060	US63543LAD73	2007/06/15	30360	A360			CORR	
RCONV	I	2010/05/07	2010/05/07	46626	626104	USG6133FAG12	2007/06/26	A360	30360			CORR	
RCONV	I	2010/05/07	2010/05/07	46629	626111	USG6133FAH94	2007/06/26	30360	A360			CORR	
RCONV	I	2010/05/08	2010/05/08	46769	444415	XS0276148847	2006/11/28	30360	A360			CORR	
RCONV	I	2010/05/27	2010/05/27	47205	262153	KYG735374020	2010/07/15	30360	A360			RCONV	
RCONV	U	2010/06/03	2012/12/13	47380	781288	US72908QAA22	2007/05/15	A365	AA			CORR	
RCONV	I	2010/06/07	2010/06/07	47509	1948712	US2471313039	2017/05/15	30360	A360			RCONV	
RCONV	I	2010/06/07	2010/06/07	47511	1948736	US020002AU59	2037/05/15	30360	A360			RCONV	
RCONV	I	2010/06/09	2010/06/09	47553	1110073	US638612AJ06	2037/05/15	30360	A360			RCONV	
RCONV	I	2010/07/01	2010/07/01	48138	351891	US44984SAD80	2003/10/30	30360	A360			CORR	
RCONV	I	2010/07/02	2010/07/02	48141	1987497	US44984SAH94	2006/11/05	30360	A360			RCONV	
RCONV	I	2010/07/02	2010/07/02	48142	1987503	US44984SAJ50	2008/11/05	30360	A360			RCONV	
RCONV	I	2010/07/06	2010/07/06	48173	1981119	XS0520490672	2010/06/25	A360	30E/360			CORR	
RCONV	I	2010/07/13	2010/07/13	48316	1595823	XS0454935395	2009/09/30	30E/360	30360			CORR	
RCONV	I	2010/07/14	2010/07/14	48363	1551039	US83162CMQ32	2002/11/14	30360	AA			CORR	
RCONV	I	2010/07/14	2010/07/14	48365	1553930	US662826DD50	2003/01/17	A360	AA			CORR	
RCONV	I	2010/07/16	2010/07/16	48444	428242	US87331BAF94	2011/02/05	30360	A360			RCONV	
RCONV	I	2010/07/16	2010/07/16	48445	428247	US87331BAG77	2016/02/05	30360	A360			RCONV	
RCONV	I	2010/07/16	2010/07/16	48451	2003706	USG8653TAB82	2016/02/05	30360	A360			RCONV	
RCONV	I	2010/07/16	2010/07/16	48454	428367	US87331CAB63	2009/03/30	A360	30360			CORR	
RCONV	I	2010/07/16	2010/07/16	48455	428367	US87331CAB63	2016/02/05	30360	A360			RCONV	
RCONV	I	2010/07/16	2010/07/16	48487	1981851	XS0520042416	2010/06/25	30E/360	30360			CORR	
RCONV	I	2010/07/21	2010/07/21	48665	351816	US40166QAB41	2005/08/26	30360	A360			CORR	
RCONV	I	2010/07/21	2010/07/21	48666	351819	US40166QAC24	2005/08/26	30360	A360			CORR	
RCONV	I	2010/07/21	2010/07/21	48667	351821	US40166QAD07	2005/08/26	30360	A360			CORR	
RCONV	I	2010/07/21	2010/07/21	48668	351826	US40166QAE89	2005/08/26	30360	A360			CORR	
RCONV	I	2010/07/21	2010/07/21	48671	351831	US40166QAF54	2005/08/26	30360	A360			CORR	
RCONV	I	2010/07/21	2010/07/21	48673	351793	USG4204UAB82	2005/08/26	30360	A360			CORR	
RCONV	I	2010/07/21	2010/07/21	48674	351797	USG4204UAC65	2005/08/26	30360	A360			CORR	
RCONV	I	2010/07/21	2010/07/21	48709	351803	USG4204UAD49	2005/08/26	30360	A360			CORR	
RCONV	I	2010/07/21	2010/07/21	48721	351806	USG4204UAE22	2005/08/26	30360	A360			CLEAN	
RCONV	I	2010/07/21	2010/07/21	48726	351812	USG4204UAF96	2005/08/26	30360	A360			CORR	
RCONV	I	2010/07/23	2010/07/23	48802	1990638	US4042808026	2010/06/25	A360	30360			CORR	
RCONV	I	2010/07/27	2010/07/27	48943	1979937	XS0513723873	2010/06/23	30E/360	30360			CORR	
RCONV	I	2010/08/05	2010/08/05	49118	1981119	XS0520490672	2010/06/26	30E/360	30360			CORR	
RCONV	I	2010/08/05	2010/08/05	49150	1235618	US026874BR71	2038/05/15	30360	A360			RCONV	
RCONV	I	2010/08/07	2010/08/07	49235	747653	US06050TKN18	2007/03/14	30360	AA			CORR	
RCONV	I	2010/08/10	2010/08/10	49381	2025409	XS0527351653	2010/07/22	30360	30E/360			CORR	
RCONV	I	2010/08/21	2010/08/21	49686	1838603	XS0495755646	2010/03/26	30360	AA		ICMA	CORR	
RCONV	I	2010/08/28	2010/08/28	49876	1838603	XS0495755646	2010/03/27	AA	30360	ICMA	ICMA	CORR	
RCONV	I	2010/09/07	2010/09/07	50355	2002916	XS0526235535	2010/07/16	30E/360	30360			CORR	
RCONV	I	2010/09/07	2010/09/07	50368	444415	XS0276148847	2010/09/06	A360	30360			CORR	
RCONV	I	2010/09/07	2010/09/07	50373	1851722	XS0499245180	2010/04/02	30E/360	30360			CORR	
RCONV	I	2010/09/15	2010/09/15	50617	2003745	XS0524598181	2010/07/24	30E/360	30360			CORR	
RCONV	I	2010/09/15	2010/09/15	50638	611929	XS0303241615	2007/06/08	AA	30360	ICMA	ICMA	CORR	
RCONV	I	2010/09/15	2010/09/15	50644	1595823	XS0454935395	2009/10/01	30360	AA		ICMA	CORR	
RCONV	I	2010/09/16	2010/09/16	50670	959394	XS0368899695	2008/06/19	30E/360	30360			CORR	
RCONV	I	2010/09/22	2010/09/22	50880	2028663	XS0528721623	2010/07/29	30E/360	AA		ICMA	CORR	
RCONV	I	2010/09/25	2010/09/25	51027	2122116	US46625HHA14	2018/04/30	30360	A360			RCONV	
RCONV	I	2010/09/28	2010/09/28	51052	1996983	XS0521073428	2010/07/17	30E/360	30360			CORR	
RCONV	I	2010/09/29	2010/09/29	51075	1838603	XS0495755646	2010/03/28	30360	AA	ICMA	ICMA	CORR	
RCONV	I	2010/09/30	2010/09/30	51109	1736723	US172967ED90	2007/06/27	A365	30360			CORR	
RCONV	I	2010/09/30	2010/09/30	51111	1736736	US172967EE73	2007/06/27	A365	30360			CORR	
RCONV	I	2010/09/30	2010/09/30	51113	1736745	US172967EF49	2007/06/27	A365	30360			CORR	
RCONV	I	2010/10/01	2010/10/01	51160	2040535	XS0531622404	2010/08/12	30E/360	30360			CORR	
RCONV	I	2010/10/05	2010/10/05	51204	1189141	XS0392499280	2008/10/21	A360	AA		ISDA	CORR	
RCONV	I	2010/10/05	2010/10/05	51210	2129165	US60688HAE53	2011/12/26	30360	A360			RCONV	
RCONV	I	2010/10/06	2010/10/06	51261	2130374	US1730802014	2015/10/30	30360	A360			RCONV	
RCONV	I	2010/10/07	2010/10/07	51303	1595823	XS0454935395	2009/10/02	AA	30360	ICMA	ICMA	CORR	
RCONV	I	2010/10/11	2010/10/11	51413	290004	FR0010239368	2005/10/18	AA	30360			CORR	
RCONV	I	2010/10/11	2010/10/11	51428	2044012	XS0531284080	2010/08/13	30E/360	30360			RCONV	
RCONV	I	2010/10/15	2010/10/15	51559	1887783	XS0504981746	2010/04/29	30E/360	AA		ICMA	CORR	
RCONV	I	2010/10/25	2010/10/25	51857	2078135	XS0536405169	2010/09/16	A360	30E/360			CORR	
RCONV	I	2010/10/25	2010/10/25	51888	597352	XS0301888615	2007/05/25	30360	A360			RCONV	
RCONV	I	2010/10/26	2010/10/26	51913	269018	US89989EAD94	2004/03/26	30360				CORR	
RCONV	I	2010/10/29	2010/10/29	52036	154042	XS0086229811	1998/04/17	A360	30360			CORR	
RCONV	I	2010/10/30	2010/10/30	52082	2028663	XS0528721623	2010/07/30	AA	30360	ICMA		CORR	
RCONV	I	2010/10/30	2010/10/30	52096	2118926	XS0543956717	2010/09/25	30E/360	30360			CORR	
RCONV	I	2010/10/30	2010/10/30	52097	2026770	XS0528191058	2010/07/24	30E/360	30360			CORR	
RCONV	I	2010/11/17	2010/11/17	52568	291242	US12667XAG16	2005/05/12	30360	A360			CORR	
RCONV	I	2010/11/20	2010/11/20	52701	365741	USG8961TAF69	2005/09/30	A360	30360			CORR	
RCONV	I	2010/11/20	2010/11/20	52702	365757	USG8961TAG43	2005/09/30	A360	30360			CORR	
RCONV	U	2010/11/22	2010/11/22	52732	2119075	XS0544362972	2010/09/25	30E/360	30360			CORR	
RCONV	U	2010/11/22	2010/11/22	52753	2119075	XS0544362972	2010/09/26	30360	AA		ICMA	CORR	
RCONV	U	2010/11/22	2010/11/22	52759	293160	USG5407JAB55	2005/08/03	A360				CORR	
RCONV	U	2010/11/22	2010/11/22	52762	293162	USG5407JAA72	2005/08/03	A360	30360			CORR	
RCONV	U	2010/11/23	2010/11/23	52802	2123337	XS0543477821	2010/09/30	30E/360	A360			CORR	
RCONV	U	2010/11/26	2010/11/26	52939	1595823	XS0454935395	2010/09/30	30360	AA	ICMA	ICMA	CORR	
RCONV	U	2010/11/27	2010/11/27	52976	1902591	XS0508012092	2010/11/11	30E/360	30360			CORR	
RCONV	U	2010/11/29	2010/11/29	53048	2135207	XS0547082973	2010/10/08	30E/360	30360			CORR	
RCONV	U	2010/11/30	2010/11/30	53072	1902591	XS0508012092	2010/11/12	30360	AA		ICMA	CORR	
RCONV	U	2010/11/30	2010/11/30	53086	2123337	XS0543477821	2010/10/01	A360	30360			CORR	
RCONV	U	2010/11/30	2010/11/30	53088	2220061	XS0559800122	2010/11/23	A360	30E/360			CORR	
RCONV	U	2010/12/01	2010/12/01	53145	840334	USG52044AC15	2006/06/30	30S360	A360			CLEAN	
RCONV	U	2010/12/03	2010/12/03	53218	338049	USG4160EAC42	2005/03/17	30360	A360			CORR	
RCONV	U	2010/12/03	2010/12/03	53223	338048	USG4160EAB68	2005/03/17	30360	A360			CORR	
RCONV	U	2010/12/03	2010/12/03	53225	338054	USG4160EAE08	2005/03/17	30360	A360			CORR	
RCONV	U	2010/12/03	2010/12/03	53226	2229698	US73755LAK35	2011/06/01	A360	AA			RCONV	
RCONV	U	2010/12/03	2010/12/03	53234	835857	USG4161LAD58	2004/12/16	W252	30360			CLEAN	
RCONV	U	2010/12/10	2010/12/10	53496	1643343	XS0462883603	2019/11/05	30360	A360			RCONV	
RCONV	U	2010/12/11	2010/12/11	53514	2174366	XS0552679879	2010/10/29	30E/360	30360			CORR	
RCONV	U	2010/12/16	2010/12/16	53745	2190851	XS0550702889	2010/11/04	30E/360	30360			CORR	
RCONV	U	2010/12/17	2010/12/17	53776	2282282	US060505DT81	2018/05/15	30360	A360			RCONV	
RCONV	U	2010/12/17	2010/12/17	53779	2282293	US060505DR26	2018/01/30	30360	A360			RCONV	
RCONV	U	2010/12/17	2010/12/17	53781	2226169	XS0558547260	2010/11/11	30E/360	30360			CORR	
RCONV	U	2010/12/17	2010/12/17	53796	2190851	XS0550702889	2010/11/05	30360	AA		ICMA	CORR	
RCONV	U	2010/12/18	2010/12/18	53852	2126102	XS0543421100	2010/10/14	30E/360	30360			CORR	
RCONV	U	2010/12/23	2010/12/23	53954	2212354	XS0554659671	2010/11/10	30E/360	30360			CORR	
RCONV	U	2010/12/27	2010/12/27	54018	1646617	USP09646AB92	2019/11/06	30360	A360			RCONV	
RCONV	U	2010/12/27	2010/12/27	54022	1657346	US05954TAC53	2019/11/06	30360	A360			RCONV	
RCONV	U	2010/12/27	2010/12/27	54052	1886921	US05960BAA08	2020/04/23	30360	A360			RCONV	
RCONV	U	2010/12/28	2010/12/28	54092	2218454	XS0558774161	2010/11/16	30E/360	30360			CORR	
RCONV	U	2010/12/29	2010/12/29	54119	1922143	USG4490RAA08	2011/12/31	30360	A360			RCONV	
RCONV	U	2010/12/29	2010/12/29	54128	2219170	XS0558268891	2010/11/16	30E/360	30360			CORR	
RCONV	U	2010/12/30	2010/12/30	54143	2296426	US784735AX02	2007/06/08	30360	A360			CLEAN	
RCONV	U	2010/12/30	2010/12/30	54144	2296419	US784735AU62	2007/06/08	30360	A360			CLEAN	
RCONV	U	2011/01/03	2011/01/03	54200	1595823	XS0454935395	2010/10/01	AA	30360	ICMA	ICMA	CORR	
RCONV	U	2011/01/04	2011/01/04	54236	1816192	US36830GAA22	2017/11/15	30360	A360			RCONV	
RCONV	U	2011/01/04	2011/01/04	54237	649443	USF22797FJ25	2017/05/31	30360	A360			RCONV	
RCONV	U	2011/01/04	2011/01/04	54265	2035222	US14844QAG82	2005/10/28	A360	30360			CORR	
RCONV	U	2011/01/04	2011/01/04	54267	2035228	US14844QAJ22	2005/10/28	A360	30360			CORR	
RCONV	U	2011/01/05	2011/01/05	54293	1857927	USP78954AC19	2009/08/15	AA	30360			CORR	
RCONV	U	2011/01/07	2011/01/07	54376	2220067	XS0559915961	2010/11/23	A360	30360			CORR	
RCONV	U	2011/01/07	2011/01/07	54409	444415	XS0276148847	2016/11/28	30360	A360			RCONV	
RCONV	U	2011/01/07	2011/01/07	54420	2136134	XS0548633659	2010/10/14	A360	30360			CORR	
RCONV	U	2011/01/08	2011/01/08	54468	2220061	XS0559800122	2010/11/24	30E/360	30360			CORR	
RCONV	U	2011/01/08	2011/01/08	54471	2228464	XS0561639211	2010/12/01	30E/360	30360			CORR	
RCONV	U	2011/01/08	2011/01/08	54472	1994487	XS0524610812	2010/07/10	30E/360	30360			CORR	
RCONV	U	2011/01/12	2011/01/12	54572	2231675	XS0563742138	2010/12/01	30E/360	30360			CORR	
RCONV	U	2011/01/13	2011/01/13	54601	656192	USG9463GAA60	2006/03/08	A360	30360			CORR	
RCONV	U	2011/01/13	2011/01/13	54619	1838603	XS0495755646	2010/03/29	AA	30360	ICMA	ICMA	CORR	
RCONV	U	2011/01/13	2011/01/13	54628	2119075	XS0544362972	2010/09/27	AA	30360	ICMA	ICMA	CORR	
RCONV	U	2011/01/13	2011/01/13	54636	2190849	XS0555493203	2010/11/04	30E/360	30360			CORR	
RCONV	U	2011/01/14	2011/01/14	54683	547601	US37930KAB89	2007/01/19	30360	A360			CORR	
RCONV	U	2011/01/14	2011/01/14	54684	606702	USF1058YHX97	2037/06/25	30360	A360			RCONV	
RCONV	U	2011/01/18	2011/01/18	54790	2132844	XS0549116530	2010/10/15	30E/360	30360			CORR	
RCONV	U	2011/01/24	2011/01/24	54900	2378272	XS0580467875	2011/01/22	A360	30E/360			CORR	
RCONV	U	2011/01/28	2011/01/28	54997	2351076	CA44925LAC78	2011/06/30	A365	AA			RCONV	
RCONV	U	2011/01/31	2011/01/31	55046	2225688	XS0562326214	2010/11/24	A365	AA	ICMA	ICMA	CORR	
RCONV	U	2011/01/31	2011/01/31	55058	1298138	USF2893TAB29	2009/01/27	30360	AA			CORR	
RCONV	U	2011/02/09	2011/02/09	55319	1632142	XS0460546798	2009/10/29	30E/360	30360			CORR	
RCONV	U	2011/03/11	2011/03/11	56197	2510717	US3618602086	2016/02/15	30360	A360			RCONV	
RCONV	U	2011/03/15	2011/03/15	56282	1599109	US831641EK70	2008/02/28	30360	A365			CORR	
RCONV	U	2011/03/16	2011/03/16	56315	572535	XS0034394709	1991/11/05	30360				CLEAN	
RCONV	U	2011/03/17	2011/03/17	56349	2169387	XS0551315384	2010/10/26	A360	30360			CORR	
RCONV	U	2011/03/25	2011/03/25	56589	2097094	US437076AT91	2010/09/11	AA	30360			CORR	
RCONV	U	2011/03/25	2011/03/25	56604	2159987	XS0551313926	2010/10/22	30E/360	30360			CORR	
RCONV	U	2011/03/25	2011/03/25	56605	2159993	XS0551313686	2010/10/22	30E/360	30360			CORR	
RCONV	U	2011/03/28	2011/03/28	56698	1540640	USF11494AA36	2019/09/30	30360	A360			RCONV	
RCONV	U	2011/03/29	2011/03/29	56710	1595823	XS0454935395	2010/10/02	30360	AA	ICMA	ICMA	CORR	
RCONV	U	2011/03/29	2011/03/29	56756	576393	XS0294208235	2007/04/01	30360	A360			CORR	
RCONV	U	2011/03/30	2011/03/30	56772	1595823	XS0454935395	2010/10/03	AA	30360	ICMA	ICMA	CORR	
RCONV	U	2011/03/30	2011/03/30	56819	686023	XS0322792010	2017/12/15	30360	A360			RCONV	
RCONV	U	2011/03/30	2011/03/30	56829	1715699	XS0474660676	2009/12/17	30E/360	30360			CORR	
RCONV	U	2011/03/30	2011/03/30	56830	1715699	XS0474660676	2024/12/16	30360	A360			RCONV	
RCONV	U	2011/04/01	2011/04/01	56874	1597338	XS0455643394	2009/10/01	AA	30360	ICMA		CORR	
RCONV	U	2011/04/01	2011/04/01	56879	2136166	XS0549116290	2010/10/15	30E/360	30360			CORR	
RCONV	U	2011/04/01	2011/04/01	56885	1641450	US29379VAN38	2017/06/01	30360	A360			RCONV	
RCONV	U	2011/04/04	2011/04/04	56908	2170900	US931142CZ44	2010/10/26	AA	30360			CLEAN	
RCONV	U	2011/04/04	2011/04/04	56916	2218454	XS0558774161	2017/11/15	30360	A360			RCONV	
RCONV	U	2011/04/06	2011/04/06	56931	1595823	XS0454935395	2010/10/04	30360	AA	ICMA	ICMA	CORR	
RCONV	I	2011/04/15	2011/04/15	57185	576393	XS0294208235	2007/04/02	A360	30360			CORR	
RCONV	I	2011/04/18	2011/04/18	57218	2434373	XS0592238876	2011/02/17	30E/360	30360			CORR	
RCONV	I	2011/04/29	2011/04/29	57549	2372854	XS0575947642	2011/01/21	30E/360	30360			CORR	
RCONV	I	2011/04/29	2011/04/29	57554	1289242	US55276GAA31	2013/01/15	30360	A360			RCONV	
RCONV	I	2011/05/12	2011/05/12	58004	2226264	XS0559140875	2011/03/31	30E/360	AA		ICMA	CORR	
RCONV	I	2011/05/17	2011/05/17	58211	587703	USG8962KAC11	2007/04/06	30360	A360			CORR	
RCONV	I	2011/05/23	2011/05/23	58379	2680543	US126650BX71	2011/11/15	A365	AA			RCONV	
RCONV	I	2011/05/23	2011/05/23	58403	656277	USU073081064	2008/07/16	A365	AA			CORR	
RCONV	I	2011/05/25	2011/05/25	58464	363632	USG52683AA05	2005/07/15	30360	A360			CORR	
RCONV	I	2011/06/02	2011/06/02	58805	2723649	CA64045YAA60	2011/12/31	A360	AA			RCONV	
RCONV	I	2011/06/04	2011/06/04	58899	2604797	XS0611586263	2011/04/16	30E/360	30360			CORR	
RCONV	I	2011/06/07	2011/06/07	59065	2749705	US929903EF56	2018/03/15	30360	A360			RCONV	
RCONV	I	2011/06/10	2011/06/10	59258	684828	XS0323865047	2017/10/05	30360	A360	ICMA		RCONV	
RCONV	I	2011/06/17	2011/06/17	59566	229755	FR0008131403	1986/09/23	AA	A360			CORR	
RCONV	I	2011/06/22	2011/06/22	59687	769675	USG12250AA77	2016/02/04	30360	A360			RCONV	
RCONV	I	2011/06/28	2011/06/28	59899	1442608	USU31745AA71	2036/12/15	30360	A360			RCONV	
RCONV	I	2011/07/07	2011/07/07	60278	298550	XS0234398245	2005/11/10	AA	30360			CLEAN	
RCONV	I	2011/07/09	2011/07/09	60395	2389347	XS0585211591	2011/01/28	30E/360	AA		ICMA	CORR	
RCONV	I	2011/07/09	2011/07/09	60407	1502030	US05530RAB42	2017/04/18	30360	A360			RCONV	
RCONV	I	2011/07/15	2011/07/15	60664	436713	XS0274618247	2006/11/11	A360	30360			CLEAN	
RCONV	I	2011/07/15	2011/07/15	60665	436713	XS0274618247	2016/11/10	30360	A360			RCONV	
RCONV	I	2011/07/16	2011/07/16	60755	2406472	XS0588433267	2011/02/04	30E/360	AA		ICMA	CORR	
RCONV	I	2011/07/19	2011/07/19	60865	547940	XS0288690539	2007/02/23	30E/360	30360			CORR	
RCONV	I	2011/07/26	2011/07/26	61111	2383600	XS0579851949	2011/01/27	30360	AA		ICMA	CORR	
RCONV	I	2011/07/26	2011/07/26	61119	2432952	XS0592582653	2011/02/18	30E/360	30360			CORR	
RCONV	I	2011/08/03	2011/08/03	61295	681777	US448814EJ85	1995/01/08	30360	AA			CORR	
RCONV	I	2011/08/16	2011/08/16	61734	2587078	XS0611607879	2011/04/07	30E/360	30360			CORR	
RCONV	I	2011/08/18	2011/08/18	61827	2427618	XS0591549232	2011/02/15	30E/360	30360			CORR	
RCONV	I	2011/08/22	2011/08/22	61985	2288088	US49456AAA16	2010/12/21	AA	30360			CORR	
RCONV	I	2011/08/24	2011/08/24	62125	1595823	XS0454935395	2010/10/05	AA	30360	ICMA		CORR	
RCONV	I	2011/08/25	2011/08/25	62184	2466862	XS0596919026	2011/03/02	30E/360	30360			CORR	
RCONV	I	2011/09/01	2011/09/01	62516	1296356	USX3078NAR53	2016/09/14	30360	A360			RCONV	
RCONV	I	2011/09/07	2011/09/07	62708	1893002	XS0506398352	2010/05/07	30E/360	30360			CORR	
RCONV	I	2011/09/09	2011/09/09	62937	758709	USG67262AB43	2011/06/30	30360	A360			RCONV	
RCONV	I	2011/09/09	2011/09/09	62957	758705	US677879CE62	2011/06/30	30360	A360			CORR	
RCONV	I	2011/09/12	2011/09/12	63015	1591956	USU52932AL10	2038/06/15	30360	A360			RCONV	
RCONV	I	2011/09/13	2011/09/13	63052	481946	USY38575DE68	2017/04/30	30360	A360			RCONV	
RCONV	I	2011/09/13	2011/09/13	63053	481950	US45104GAE44	2017/04/30	30360	A360			RCONV	
RCONV	I	2011/09/13	2011/09/13	63110	2746740	XS0635017196	2011/07/13	30E/360	30360			CORR	
RCONV	I	2011/09/13	2011/09/13	63126	1444893	USU88321AC55	2017/02/15	30360	A360			RCONV	
RCONV	I	2011/09/14	2011/09/14	63127	1436339	USG82401AE33	2009/05/15	AA	30360			CORR	
RCONV	I	2011/09/20	2011/09/20	63461	1595574	US83545GAQ55	2010/04/01	A365	AA			RCONV	
RCONV	I	2011/09/21	2011/09/21	63560	162067	US377372AB33	2004/04/07	A360	30360			CLEAN	
RCONV	I	2011/09/21	2011/09/21	63567	183021	US25156PAC77	2000/07/07	A360	30360			CLEAN	
RCONV	I	2011/09/21	2011/09/21	63582	485771	US78442GKW59	2004/01/30	30360				CORR	
RCONV	I	2011/09/22	2011/09/22	63642	367332	USG66728AB50	2005/12/08	A360				CORR	
RCONV	I	2011/09/23	2011/09/23	63787	1665062	US78442GFK76	2005/06/15	30360	A360			RCONV	
RCONV	I	2011/09/24	2011/09/24	63823	1110122	US36962G3M40	2017/11/15	30360	A360			RCONV	
EDI_ENDOFFILE
