EDI_ISSUR_20161007
TableName	Actflag	Created	Changed	IssID	SIC	CIK	GICS	IssuerName	IndusID	CntryofIncorp	FinancialYearEnd	Shortname	LegalName	isstype	CntryofDom	StateofDom	LEI	NAICS	Notes
ISSUR	U	2004/03/10	2011/02/01	80294				Bank Of Scotland Plc	8	GB			F	CORP					
ISSUR	I	2008/05/16	2008/05/16	121446				Air 2 US		KY			F	CORP					
ISSUR	U	2007/12/07	2009/06/03	115967				Spring Road CLO 2007-1, Ltd.		KY			F	CORP					
ISSUR	U	2001/05/05	2016/10/06	29586	3350	0000004281	15104010	Alcoa Inc.	96	US	3112	Alcoa INc	F	CORP			ABPN11VOHLHX6QR7XQ48		
ISSUR	U	2001/05/05	2013/12/13	29406	8051	0001004724	35102020	Adcare Health Systems Inc.	53	US	3112		F	CORP	US	GA			
ISSUR	U	2008/07/04	2013/11/10	123242		0000009521		Bancroft Fund Ltd	40	US	3110		F	CORP					
ISSUR	U	2013/11/28	2016/09/05	159859	6798	0001442626	60101060	Bluerock Residential Growth REIT Inc	120	US	3112		F	CORP				525990	
ISSUR	I	2005/08/26	2005/08/26	94228				British Transco Intl Finance B.V.		NL			F	CORP					
ISSUR	U	2003/12/06	2014/07/05	78589	1311	0000008504	10102020	Enerjex Resources Inc	110	US	3112		F	CORP				211111	
ISSUR	U	2001/05/05	2013/11/13	38228	1311	0001006655	10102020	Evolution Petroleum Corporation	110	US	3006		F	CORP			549300P9ZXGJZ6SSM116	211111	
ISSUR	U	2006/02/24	2014/03/28	97797		0001313510		GAMCO Global Gold Natural Resources & Income Trust	40	US	3112		F	CORP					
ISSUR	U	2008/07/05	2013/11/07	123291		0001282957		Gabelli Global Utility & Income Trust.	40	US	3112		F	CORP					
ISSUR	U	2009/07/21	2015/11/17	130648	1311	0001431372	10102020	Gastar Exploration Inc.	110	US	3112		F	CORP				211111	
ISSUR	U	2006/02/13	2015/09/08	97580				Hillman Group Capital Trust	66	US	3112		F	CORP					
ISSUR	U	2014/05/08	2014/09/08	163739	8011	0001503518	35102015	21st Century Oncology Holdings Inc	57	US	3112		F	CORP	US	DE			
ISSUR	U	2008/11/05	2013/11/10	125554	6189	0001040240		Merrill Lynch Depositor, Inc.	8	US	3112		F	CORP					
ISSUR	U	2001/05/05	2013/11/06	35557	6211	0000806085		Lehman Brothers Holdings Inc.	42	US	3112	Lehman Brothers Hold	F	CORP					
ISSUR	I	2016/04/20	2016/04/20	182175				MBC Funding II Corp		US			F	CORP					
ISSUR	U	2001/06/19	2013/11/06	33722	6200	0001029730	40203020	Ladenburg Thalmann Financial Services, Inc.	77	US	3112		F	CORP					
ISSUR	U	2002/12/12	2013/11/08	72036	4931	0000075488	55101010	Pacific Gas & Electric Co	159	US	3112		F	CORP					
ISSUR	U	2005/03/30	2016/09/05	90832	6798	0001532619	60101080	Power REIT	120	US	3112		F	CORP	US	MD		525990	
ISSUR	U	2005/02/09	2016/07/12	89645	4731	0001171155	20301010	Radiant Logistics, Inc.	66	US	3006		F	CORP					
ISSUR	U	2002/12/31	2016/07/06	72244	4911	0000092103	55101010	Southern California Edison Co	159	US	3112		F	CORP			9R1Z5I36FERIBVKW4P77		
ISSUR	U	2001/05/05	2015/04/07	38067	1311	0000081318	10102020	Yuma Energy Inc	110	US	3112		F	CORP	US	DE		211111	
ISSUR	U	2006/12/01	2013/11/14	104746	3674	0001282631	45203020	Netlist Inc	136	US	3112		F	CORP				334413	
ISSUR	I	2015/10/16	2015/10/16	177030				LStar Cayman Loan Company Ltd		US			F	CORP					
ISSUR	I	2004/03/12	2004/03/12	80370				Bankers Trust International		GB			F	CORP					
ISSUR	U	2004/03/15	2014/03/07	80581	6189	0001209398		Granite Mortgages 03-01		GB			F	CORP					
ISSUR	U	2004/06/03	2014/03/07	82421	6189	0001274203		Permanent Financing No. 4		GB			F	CORP					
ISSUR	U	2004/07/24	2014/03/07	83492	6189	0001289840		Permanent Financing No.5		GB			F	CORP					
ISSUR	I	2004/09/30	2004/09/30	85708				A4 Funding LP		KY			F	CORP					
ISSUR	U	2005/04/08	2014/03/07	90943	6189	0001314476		Permanent Financing No.7		GB			F	CORP					
ISSUR	U	2005/06/22	2014/03/07	92337	6189	0001325154		Permanent Financing No.8		GB			F	CORP					
ISSUR	U	2004/12/29	2012/09/28	88480				Turanalem Finance B.V	8	NL			F	CORP					
ISSUR	I	2013/10/22	2013/10/22	159136				Pacifica CDO IV (Delaware) Corp.		US			F	CORP					
ISSUR	I	2005/07/12	2005/07/12	93041				Pacifica CDO IV		KY			F	CORP					
ISSUR	I	2005/07/12	2005/07/12	93046				Orchid Structurd Fin CDO II		KY			F	CORP					
ISSUR	I	2005/07/16	2005/07/16	93217				CMB Spoke 2005-I		KY			F	CORP					
ISSUR	U	2005/08/09	2005/08/23	93897				UBS AG, Stamford Branch		GB			F	CORP					
ISSUR	U	2004/03/08	2015/05/18	80199				UBS AG Jersey	40	JE	3112		F	CORP					
ISSUR	U	2005/08/24	2015/10/05	94174	6722			Marathon CLO I Ltd.		KY			F	CORP				525910	
ISSUR	U	2005/11/09	2016/07/06	95607				Leopard Clo III B.V.		NL			F	CORP			549300P67YFIURUW0W21		
ISSUR	I	2005/11/11	2005/11/11	95674				Endeavour Funding		KY			F	CORP					
ISSUR	I	2005/11/12	2005/11/12	95720				LNR Cdo III Ltd		KY			F	CORP					
ISSUR	I	2005/09/24	2005/09/24	94801				Taberna Preferred Funding III Ltd		KY			F	CORP					
ISSUR	U	2005/12/29	2008/08/21	96680				Raffles Place Funding Ltd Corp		KY			F	CORP					
ISSUR	U	2006/01/16	2008/08/21	97022				Ambassador Struct Fin Cdo Ltd Corp		KY			F	CORP					
ISSUR	I	2014/02/15	2014/02/15	161494				ABS Capital Funding II Corp.		US			F	CORP					
ISSUR	I	2006/01/21	2006/01/21	97129				ABS Capital Funding II Ltd.		KY			F	CORP					
ISSUR	U	2006/01/27	2008/08/21	97274				Adirondack 2005-2 Ltd Corp		KY			F	CORP					
ISSUR	U	2006/01/23	2016/07/06	97152				South Coast Funding V ltd		KY			F	CORP			549300I3Z2M62207VX15		
ISSUR	U	2006/02/22	2008/08/21	97728				G-Star 2005-5 Ltd Corp		KY			F	CORP					
ISSUR	U	2006/02/25	2015/10/05	97809	6141			Brazos Higher Education Authority Inc		US			F	CORP				522291	
ISSUR	U	2006/03/04	2008/08/21	97997				Trapeza CDO IX Ltd Inc		KY			F	CORP					
ISSUR	U	2006/03/06	2008/08/21	98017				Tabs 2005 4 Ltd Corp		KY			F	CORP					
ISSUR	I	2006/03/22	2006/03/22	98416				Permanent Financing (NO.9)		GB			F	CORP					
ISSUR	U	2006/03/24	2016/03/21	98436				Gennaker I CDO Ltd Inc	40	US			F	CORP					
ISSUR	U	2006/03/28	2008/08/21	98491				Longshore Cdo Funding 06-1 Ltd Llc		KY			F	CORP					
ISSUR	I	2006/03/28	2006/03/28	98500				G-Star 2004-4 Ltd		KY			F	CORP					
ISSUR	U	2006/03/29	2006/03/31	98527				Guggenheim Structured Real Estate Funding Ltd.		KY			F	CORP					
ISSUR	I	2005/11/12	2005/11/12	95718				Carlyle High Yield Partner VII Ltd		KY			F	CORP					
ISSUR	U	2006/03/29	2014/03/07	98560		0001449859		Ares IIR Clo Ltd Corp		KY			F	CORP					
ISSUR	I	2006/03/29	2006/03/29	98552				C-Bass CBO XV Ltd.		KY			F	CORP					
ISSUR	U	2006/04/04	2013/08/08	98755				Fort Dearborn CDO I Ltd Corp		KY			F	CORP					
ISSUR	U	2006/04/04	2013/10/23	98756				ALESCO Preferred Funding VIII, Ltd.		US			F	CORP					
ISSUR	I	2005/11/02	2005/11/02	95475				Duane Street CLO 1 Ltd		KY			F	CORP					
ISSUR	I	2006/04/05	2006/04/05	98772				Hereford Street Abs Cdo I Ltd		US			F	CORP					
ISSUR	U	2006/04/08	2013/10/28	98872				Long Hill 2006-1 Ltd		KY			F	CORP					
ISSUR	I	2013/10/28	2013/10/28	159248				Long Hill 2006-1, LLC		US			F	CORP					
ISSUR	U	2009/10/02	2016/07/06	132150				Stone Tower CLO IV Ltd.		KY			F	CORP			07E0OS324BS4YWEU6P89		
ISSUR	U	2006/01/14	2008/08/21	96995				Pacifica CDO V Ltd Corp		KY			F	CORP					
ISSUR	I	2005/01/30	2005/01/30	89303				Clydesdale CLO 2001-1 Ltd		KY			F	CORP					
ISSUR	U	2006/04/21	2008/08/21	99059				Chatham Light Clo Ltd Corp		KY			F	CORP					
ISSUR	U	2006/04/24	2015/10/12	99121	6722			Nylim Flatiron Clo 2004-1 Ltd Inc		KY			F	CORP				525910	
ISSUR	U	2006/04/25	2016/03/21	99171				Neptune Cdo III Ltd	40	US			F	CORP					
ISSUR	U	2013/09/21	2016/03/21	158648				Neptune CDO III, Inc.	40	US			F	CORP					
ISSUR	U	2006/04/04	2008/08/21	98738				Duke Funding IX Ltd Corp		KY			F	CORP					
ISSUR	U	2006/04/25	2008/08/21	99180				Montauk Point CDO Ltd Inc		KY			F	CORP					
ISSUR	I	2006/04/25	2006/04/25	99185				Fortress Credit Funding I LP		US			F	CORP					
ISSUR	I	2006/04/25	2006/04/25	99187				Fortress Credit Funding II LP		US			F	CORP					
ISSUR	U	2006/04/27	2008/08/21	99246				Clydesdale CLO 2005, Ltd. Inc		KY			F	CORP					
ISSUR	U	2006/03/30	2016/07/06	98600				Galaxy V Clo Ltd Inc		US			F	CORP			549300KXKN7RNFRZ5A20		
ISSUR	U	2006/05/03	2008/08/21	99338				Mckinley II Funding Ltd Corp		US			F	CORP					
ISSUR	U	2006/05/03	2008/08/21	99344				Pascal CDO Ltd Corp		US			F	CORP					
ISSUR	U	2006/05/03	2008/08/21	99342				Saturn Ventures 2005-1 Ltd Inc		KY			F	CORP					
ISSUR	I	2006/05/04	2006/05/04	99346				Pioneer Valley Structured Credit CDO I Ltd		KY			F	CORP					
ISSUR	U	2009/04/20	2014/03/07	128751		0001520757		KKR Financial CLO 2005-2 Ltd-Corp		KY			F	CORP					
ISSUR	U	2006/01/21	2006/03/30	97128				The National Collegiate Student Loan Trust		IE			F	CORP					
ISSUR	U	2006/05/04	2013/11/10	99382		0001340146		MMCapS Funding XVII Corp.		US			F	CORP					
ISSUR	U	2006/05/05	2013/08/24	99408				Altius I Funding, Ltd.		KY			F	CORP					
ISSUR	I	2006/05/05	2006/05/05	99409				Navigator CDO 2005 Ltd		KY			F	CORP					
ISSUR	U	2006/05/09	2013/12/04	99454				Brascan Structured Notes 2005-2, LLC,		US			F	CORP					
ISSUR	U	2006/05/09	2016/03/21	99449				Lightpoint Clo III Ltd	77	US			F	CORP					
ISSUR	U	2005/11/23	2013/08/08	95919				Whinstone Capital Management Ltd		JE			F	CORP					
ISSUR	I	2005/11/12	2005/11/12	95727				Zais Investment Grade VII Ltd		KY			F	CORP					
ISSUR	I	2004/07/31	2004/07/31	83811				Salisbury International Investments Limited		KY			F	CORP					
ISSUR	U	2006/05/13	2016/03/21	99566				Khaleej II Cdo Ltd	77	US			F	CORP					
ISSUR	U	2006/05/13	2008/08/21	99593				Tourmaline Cdo I Ltd Corp		US			F	CORP					
ISSUR	U	2006/05/13	2008/08/21	99600				Orchid Structured Finance CDO III Ltd Inc		KY			F	CORP					
ISSUR	U	2006/05/13	2008/08/21	99596				Nautilus RMBS CDO II Ltd Llc		KY			F	CORP			549300PSKNN2VGJKQD31		
ISSUR	I	2006/05/15	2006/05/15	99603				Cavalry Clo I Ltd		US			F	CORP					
ISSUR	U	2005/12/06	2014/03/07	96222		0001349859		Symphony Clo I Ltd		KY			F	CORP					
ISSUR	U	2006/03/17	2008/08/21	98324				Liberty CLO Ltd Corp		KY			F	CORP					
ISSUR	U	2005/04/30	2016/09/05	91247	6798	0001330969	40204010	CV Holdings Inc	120	US	3112		F	CORP				525990	
ISSUR	U	2006/06/12	2008/08/21	100031				Glacier Funding Cdo IV Ltd Inc		KY			F	CORP					
ISSUR	I	2009/11/09	2009/11/09	133115				Vertical ABS CDO 2006-1 Ltd/Corp		KY			F	CORP					
ISSUR	U	2006/06/13	2013/09/20	100043				Bernoulli High Grade Cdo I Ltd		KY			F	CORP					
ISSUR	U	2006/06/22	2008/08/21	100202				Tierra Alta Funding I Ltd Corp		US			F	CORP					
ISSUR	U	2006/06/27	2014/03/07	100256		0001367302		Kent Funding II Ltd		KY			F	CORP					
ISSUR	U	2006/06/28	2008/08/21	100276				GSC Partners CDO Fund VII Ltd Corp		KY			F	CORP					
ISSUR	I	2011/09/26	2011/09/26	146810				GSC ABS CDO 2006-2m, Ltd		KY			F	CORP			549300IG2DMNW88NH917		
ISSUR	I	2006/06/10	2006/06/10	100018				1776 CLO I Ltd		IE			F	CORP					
ISSUR	I	2006/07/24	2006/07/24	100823				Avebury Finance Cdo Plc		IE			F	CORP					
ISSUR	I	2006/06/07	2006/06/07	99978				Harp High Grade CDO I Ltd		KY			F	CORP					
ISSUR	U	2006/07/31	2013/10/28	100921				Toro Abs Cdo II, Ltd		KY			F	CORP					
ISSUR	U	2006/07/31	2008/08/21	100925				Madaket Funding I Ltd Corp		KY			F	CORP					
ISSUR	U	2006/05/19	2015/10/12	99683	6722	0001495306		Maps Clo Fund I LLC		US			F	CORP				525910	
ISSUR	U	2006/08/14	2013/10/28	101176				Bridgeport CLO Ltd		KY			F	CORP					
ISSUR	U	2006/08/17	2008/08/21	101237				Zais Investment Grade VIII Ltd Corp		KY			F	CORP					
ISSUR	U	2006/08/17	2010/10/01	101240				Carlyle Azure CLO, Ltd/Corp		KY			F	CORP					
ISSUR	U	2006/08/23	2013/09/04	101320				ALESCO Preferred Funding XI, Inc		KY			F	CORP					
ISSUR	I	2006/08/26	2006/08/26	101396				ABSpoke 2006-IIIB		KY			F	CORP					
ISSUR	I	2006/08/26	2006/08/26	101397				ABSpoke 2006-IIIA		KY			F	CORP					
ISSUR	I	2006/08/26	2006/08/26	101399				ABSpoke 2006-IIIC		KY			F	CORP					
ISSUR	I	2006/08/28	2006/08/28	101403				SLSpoke 2006-I		KY			F	CORP					
ISSUR	U	2006/08/28	2008/08/21	101405				BFC Genesee Cdo Ltd (Delaware) Corp		KY			F	CORP					
ISSUR	U	2006/08/28	2008/08/21	101411				Tricadia Cdo 2006-5 Ltd Corp.		KY			F	CORP					
ISSUR	U	2006/08/29	2008/08/21	101420				Art Cdo 2006-1 Ltd Llc		KY			F	CORP					
ISSUR	U	2006/08/29	2008/08/21	101419				Diversey Harbor ABS CDO Ltd Inc.		KY			F	CORP					
ISSUR	U	2006/08/28	2013/08/12	101416				Eaton Vance CDO VII		IE			F	CORP					
ISSUR	U	2006/08/29	2008/08/21	101437				Class V Funding II Ltd Corp		KY			F	CORP					
ISSUR	I	2006/08/30	2006/08/30	101452				Parkridge Lane Structured Finance Special Opportunities CDO I		US			F	CORP					
ISSUR	I	2006/08/30	2006/08/30	101462				Fortress Credit Investments II Ltd.		KY			F	CORP					
ISSUR	I	2006/08/30	2006/08/30	101464				Fortress Credit Investments I Ltd.		KY			F	CORP					
ISSUR	U	2010/07/23	2013/12/12	139329		0001440227		MCG Commercial Loan Trust 2006-1		US			F	CORP					
ISSUR	U	2006/09/01	2008/08/21	101537				Trapeza CDO X Ltd Inc		KY			F	CORP					
ISSUR	U	2006/09/02	2008/08/21	101555				Manasquan Cdo 2005-1 Ltd (Delware) Corp.		US			F	CORP					
ISSUR	U	2006/09/04	2008/08/21	101571				West Trade Funding CDO I Ltd LLC		KY			F	CORP					
ISSUR	U	2006/09/04	2008/08/21	101572				MT Wilson Clo Ltd Corp.		US			F	CORP					
ISSUR	I	2013/11/16	2013/11/16	159620				Millstone II CDO LLC		US			F	CORP					
ISSUR	U	2006/09/09	2013/11/16	101705				Millstone II CDO Ltd		KY			F	CORP					
ISSUR	I	2006/08/14	2006/08/14	101170				Ipswich Street Cdo Ltd		KY			F	CORP					
ISSUR	I	2006/09/29	2006/09/29	102462				Gemstone Cdo VI		KY			F	CORP					
ISSUR	U	2006/08/16	2008/08/21	101201				Cetus Abs Cdo Ltd Corp		KY			F	CORP					
ISSUR	U	2006/10/03	2008/08/21	102519				Kleros Real Estate Cdo I Ltd Llc		KY			F	CORP					
ISSUR	U	2006/10/04	2008/08/21	102569				ACA Aquarius 2006-1 Ltd Llc		KY			F	CORP					
ISSUR	I	2005/11/24	2005/11/24	95981				Porter Square CDO III Ltd		KY			F	CORP					
ISSUR	U	2006/08/03	2016/07/06	100986				Stone Tower CLO V Ltd		KY			F	CORP			MMT2WR9JI555PV1RBO42		
ISSUR	U	2006/11/02	2008/08/21	103443				Montrose Harbour Cdo I Ltd Inc		KY			F	CORP					
ISSUR	U	2006/11/16	2014/06/21	103931		0001365914		Granite Ventures III Ltd		KY			F	CORP					
ISSUR	I	2006/10/02	2006/10/02	102476				Longstreet Cdo I		KY			F	CORP					
ISSUR	U	2006/05/17	2016/07/06	99634				RMAC Securities No. 1 Plc		GB			F	CORP			213800C48M2JTBGZT736		
ISSUR	U	2006/11/22	2008/08/21	104441				Cairn High Grade ABS CDO II Ltd Inc		KY			F	CORP					
ISSUR	U	2006/11/23	2008/08/21	104520				Sorin Real Estate Cdo IV Ltd Corp.		KY			F	CORP					
ISSUR	U	2006/10/02	2014/03/07	102484		0001376387		West Coast Funding I		KY			F	CORP					
ISSUR	U	2006/11/25	2008/08/21	104581				Duke Funding XII Ltd Corp		KY			F	CORP					
ISSUR	I	2006/12/12	2006/12/12	105039				Goldman Sachs Specialty Lending CLO-I, LTD.		KY			F	CORP					
ISSUR	I	2006/12/05	2006/12/05	104822				Camber 6 Plc		IE			F	CORP					
ISSUR	I	2006/12/15	2006/12/15	105153				USP Spc Act Ac Jacksn 06-I Seg Pf		KY			F	CORP					
ISSUR	U	2006/12/18	2013/11/07	105231		0001525657		ARCC Commercial Loan Trust 2006		US	3112		F	CORP					
ISSUR	U	2006/11/09	2008/08/21	103686				Octans I Cdo Ltd Llc		KY			F	CORP					
ISSUR	U	2006/10/28	2008/08/21	103388				G-Force CDO 2006-1 Ltd Corp		KY			F	CORP					
ISSUR	I	2006/12/20	2006/12/20	105296				Fort Duquesne Cdo 2006-1		KY			F	CORP					
ISSUR	U	2006/12/21	2008/08/21	105364				Halcyon Securitized Products Investors Abs Cdo I Ltd Corp		KY			F	CORP					
ISSUR	I	2006/12/21	2006/12/21	105387				Logan Cdo II Limited		KY			F	CORP					
ISSUR	U	2006/12/22	2014/06/24	105417		0001359364		Ischus Synthetic Abs Cdo 2006-1 Ltd		KY			F	CORP					
ISSUR	U	2007/01/02	2008/08/21	105608				Nassau Cdo I ltd Llc		KY			F	CORP					
ISSUR	I	2016/07/11	2016/07/11	184934				Regions Bank		US			F	CORP					
ISSUR	U	2007/01/04	2008/08/21	105675				Mayflower Cdo I Ltd Corp		KY			F	CORP					
ISSUR	I	2009/04/17	2009/04/17	128647				Cetus ABS CDO 2006-2, Ltd.		US			F	CORP					
ISSUR	I	2007/01/12	2007/01/12	105960				6th Avenue Funding 2006-1 Ltd		KY			F	CORP					
ISSUR	I	2008/05/16	2008/05/16	121439				Cetus Abs Cdo 2006-4 Ltd-Corp		KY			F	CORP					
ISSUR	U	2007/01/15	2008/08/21	106174				Primus Clo I Ltd Corp		KY			F	CORP					
ISSUR	U	2007/01/16	2014/03/07	106344		0001386336		Ansley Park Abs Cdo Ltd		KY			F	CORP					
ISSUR	U	2007/01/16	2008/08/21	106362				Imac Cdo 2006-1 Ltd Llc		KY			F	CORP					
ISSUR	I	2006/06/15	2006/06/15	100078				Eurocredit Opportunities I Plc		IE			F	CORP					
ISSUR	U	2007/01/17	2009/12/02	106387				TABS 2006-6 Ltd		KY			F	CORP					
ISSUR	U	2007/01/17	2008/08/21	106395				Singa Funding Ltd Corp		KY			F	CORP					
ISSUR	U	2007/01/17	2008/08/21	106431				Libra Cdo Ltd Llc		KY			F	CORP					
ISSUR	U	2007/01/17	2008/08/21	106453				Rockville Cdo I Ltd Llc		KY			F	CORP					
ISSUR	U	2007/01/18	2008/08/21	106491				Dillon Read Cmbs Cdo 2006-1 Ltd Corp		KY			F	CORP					
ISSUR	U	2006/11/09	2007/01/08	103688				Blue City Investments 1 Limited		KY			F	CORP					
ISSUR	I	2007/01/19	2007/01/19	106615				CapitalSource Commercial Loan Trust 2006-2		US			F	CORP					
ISSUR	U	2007/01/19	2008/08/21	106627				Static Residential Cdo 2006-C Ltd Corp		KY			F	CORP					
ISSUR	U	2007/01/19	2008/08/21	106632				Sharps Cdo I Ltd Corp		KY			F	CORP					
ISSUR	U	2006/11/30	2016/07/06	104691				Attentus Cdo II Ltd Llc		KY			F	CORP			5493004LCHYCJ6PS2T52		
ISSUR	I	2007/01/26	2007/01/26	107103				Adams Square Funding I Limited		KY			F	CORP					
ISSUR	U	2007/01/29	2014/03/07	107182		0001378643		Kimberlite Cdo I Ltd Llc		KY			F	CORP					
ISSUR	U	2007/01/29	2015/12/08	107186				Mantoloking CDO 2006-1 LLC		US			F	CORP					
ISSUR	U	2007/01/29	2008/08/21	107189				Maxim High Grade Cdo I Ltd Llc		KY			F	CORP					
ISSUR	U	2007/01/29	2008/08/21	107192				Pacific Pinnacle Cdo Ltd Corp		KY			F	CORP					
ISSUR	I	2007/02/10	2007/02/10	107586				Barramundi Cdo I Ltd		KY			F	CORP					
ISSUR	I	2007/02/15	2007/02/15	107702				Bfc Silverton Cdo Ltd		IE			F	CORP					
ISSUR	U	2007/02/16	2008/08/21	107736				Octans II Cdo Ltd Llc		IE			F	CORP					
ISSUR	I	2013/10/28	2013/10/28	159251				West Trade Funding Cdo II Llc		US			F	CORP					
ISSUR	U	2007/02/17	2013/10/28	107770				West Trade Funding Cdo II Ltd		KY			F	CORP					
ISSUR	U	2007/02/19	2008/08/21	107793				Cetus Abs Cdo 2006-3 Ltd Corp		KY			F	CORP					
ISSUR	U	2007/02/20	2008/08/21	107833				Topanga Cdo II Ltd Corp		KY			F	CORP					
ISSUR	I	2007/02/21	2007/02/21	107868				N-Star Rel Cdo VIII Ltd		KY			F	CORP					
ISSUR	U	2007/02/23	2008/08/21	107934				Auriga Cdo Ltd Llc		KY			F	CORP					
ISSUR	U	2007/02/28	2011/12/16	108085				Eurosail 2006-4NP Plc		GB			F	CORP			21380013477BR2UW8M54		
ISSUR	I	2007/01/19	2007/01/19	106604				Visage CDO I Plc.		IE			F	CORP					
ISSUR	U	2007/01/02	2008/08/21	105613				Davis Square Funding II Ltd Corp		KY			F	CORP					
ISSUR	U	2007/03/09	2008/08/21	108314				FAB US 2006-1 PLC Corp.		IE			F	CORP					
ISSUR	U	2007/02/01	2016/07/06	107289				Landmark VIII Cdo Ltd Corp		KY			F	CORP			549300TDY1KQIEF8WB24		
ISSUR	U	2001/05/05	2013/12/12	31064	5122	0000721371	35102010	Cardinal Health, Inc.	129	US	3006		F	CORP					
ISSUR	I	2007/03/15	2007/03/15	108424				Gulf Stream-Atlantic Cdo 2007-1 Ltd		KY			F	CORP					
ISSUR	I	2007/02/21	2007/02/21	107883				Marathon Financing I B.V Corp		NL			F	CORP					
ISSUR	U	2007/01/29	2016/07/06	107194				Rfc Cdo III Ltd		KY			F	CORP			5493006N2YY521QKSP51		
ISSUR	U	2007/01/02	2013/10/22	105615				Commodore Cdo V Ltd		KY			F	CORP					
ISSUR	U	2007/03/28	2011/12/16	108729				Eurosail-UK 2007-1NC Plc		GB			F	CORP			213800HEU63KH3XHB844		
ISSUR	U	2007/03/30	2008/08/21	108780				Norma Cdo I Ltd Llc		KY			F	CORP					
ISSUR	U	2007/03/01	2008/08/21	108125				Altius III Funding Ltd Corp		KY			F	CORP					
ISSUR	I	2007/04/06	2007/04/06	108927				Su Casita Trust		MX			F	CORP					
ISSUR	I	2007/04/09	2007/04/09	108955				Aardvark Abs Cdo 2007-1		KY			F	CORP					
ISSUR	U	2007/04/10	2008/08/21	108986				Libertas Preferred Funding II Ltd Corp		KY			F	CORP					
ISSUR	U	2007/05/15	2008/08/21	109539				Stack 2007-2 Ltd Corp		KY			F	CORP					
ISSUR	I	2007/05/21	2007/05/21	109638				CapitalSource Commercial Loan Trust 2007-1		US			F	CORP					
ISSUR	U	2007/05/21	2008/08/21	109639				Kleros Real Estate Cdo IV Ltd Llc		KY			F	CORP					
ISSUR	U	2007/05/21	2008/08/21	109643				Tourmaline Cdo III Ltd Corp		KY			F	CORP					
ISSUR	U	2007/05/25	2008/08/21	109709				Kefton Cdo I Ltd Corp		KY			F	CORP					
ISSUR	U	2007/05/25	2008/08/21	109719				Neptune Cdo IV Ltd Llc		KY			F	CORP					
ISSUR	U	2007/05/25	2008/08/21	109722				Nautilus RMBS CDO IV Ltd Llc		KY			F	CORP					
ISSUR	U	2007/04/03	2011/12/16	108830				Eurosail UK 2007 2NP Plc		GB			F	CORP			213800NEJVUXH4MS6Y78		
ISSUR	U	2007/06/13	2014/03/07	110093		0001387969		Sherwood III Abs Cdo Ltd		KY			F	CORP					
ISSUR	I	2007/07/24	2007/07/24	111140				Halcyon Loan Investors CLO II, Ltd & Inc		KY			F	CORP					
ISSUR	I	2007/06/22	2007/06/22	110339				Costa Bella CDO Ltd		KY			F	CORP					
ISSUR	I	2007/06/23	2007/06/23	110357				West Trade Funding CDO III Ltd		KY			F	CORP					
ISSUR	I	2007/06/23	2007/06/23	110358				Cherry Creek Cdo II LTD		KY			F	CORP					
ISSUR	I	2007/07/06	2007/07/06	110634				Newbury Street cdo Ltd		KY			F	CORP					
ISSUR	I	2007/07/06	2007/07/06	110637				Sagittarius Cdo I Ltd		KY			F	CORP					
ISSUR	I	2007/07/06	2007/07/06	110646				Pasa Funding 2007 Ltd		KY			F	CORP					
ISSUR	I	2007/07/07	2007/07/07	110668				Carina CDO Ltd		KY			F	CORP					
ISSUR	U	2007/07/07	2009/08/31	110674				Webster CDO I Ltd/Corp		KY			F	CORP					
ISSUR	I	2007/07/07	2007/07/07	110676				Silver Marlin CDO I Ltd		KY			F	CORP					
ISSUR	I	2007/07/10	2007/07/10	110736				Stack 2007-1 LTD		KY			F	CORP					
ISSUR	U	2007/07/11	2009/12/22	110752				Kleros Preferred Funding VI LTD Llc		KY			F	CORP					
ISSUR	I	2007/07/11	2007/07/11	110768				Acacia Option ARM 1 CDO LTD		KY			F	CORP					
ISSUR	U	2007/07/11	2009/12/22	110772				CTX Cdo I Ltd Llc		KY			F	CORP					
ISSUR	I	2007/07/12	2007/07/12	110789				Markov CDO I LTD		KY			F	CORP					
ISSUR	I	2007/07/12	2007/07/12	110793				Mars CDO I LTD		KY			F	CORP					
ISSUR	I	2009/04/27	2009/04/27	128993				Halcyon Securitized Products Investors Abs Cdo II Ltd Corp		KY			F	CORP					
ISSUR	I	2007/07/13	2007/07/13	110827				Kleros Preferred Funding VII LTD		KY			F	CORP					
ISSUR	I	2007/05/07	2007/05/07	109391				Le Monde Cdo l Plc		IE			F	CORP					
ISSUR	I	2007/07/16	2007/07/16	110900				Lenox Street 2007-1, Ltd & LLC		KY			F	CORP					
ISSUR	I	2007/07/17	2007/07/17	110914				Vertical ABS CDO 2007-1 LTD		KY			F	CORP					
ISSUR	U	2007/07/17	2009/12/22	110912				Durant Cdo 2007-1 Ltd Llc		KY			F	CORP					
ISSUR	I	2007/07/18	2007/07/18	110957				Longshore CDO Funding 07-3 LTD		KY			F	CORP					
ISSUR	I	2009/04/23	2009/04/23	128895				GE Commercial Loan Trust 2006-1		US			F	CORP					
ISSUR	I	2007/07/18	2007/07/18	110974				Jupiter High-Grade CDO V, Ltd & LLC		IE			F	CORP					
ISSUR	I	2007/07/19	2007/07/19	110984				Logan CDO III LTD		KY			F	CORP					
ISSUR	U	2007/07/19	2009/12/21	111003				Hartshorne CDO I, Ltd & LLC		KY			F	CORP					
ISSUR	I	2007/07/19	2007/07/19	111016				Imac CDO 2007-2, Ltd & LLC		KY			F	CORP					
ISSUR	U	2007/07/20	2014/06/12	111020	6189	0001383231		GSAMP Trust 2006-FM3		US			F	CORP					
ISSUR	I	2007/07/20	2007/07/20	111025				Millstone IV CDO LTD		KY			F	CORP					
ISSUR	I	2007/07/20	2007/07/20	111023				Maxim High Grade CDO II LTD		KY			F	CORP					
ISSUR	I	2007/07/20	2007/07/20	111052				Plettenberg Bay CDO Limited & Corp		IE			F	CORP					
ISSUR	U	2002/12/19	2015/05/18	72127		0001167713		Deutsche Bank AG London	40	GB			F	CORP					
ISSUR	I	2007/07/20	2007/07/20	111028				Tazlina Funding CDO II LTD		KY			F	CORP					
ISSUR	U	2007/07/20	2015/10/20	111021	6722			Corona Borealis CDO LTD		KY			F	CORP				525910	
ISSUR	I	2007/07/24	2007/07/24	111147				Summer Street 2007-1, Ltd		KY			F	CORP					
ISSUR	I	2007/07/25	2007/07/25	111183				Jupiter High-Grade CDO VI, Ltd & LLC		KY			F	CORP					
ISSUR	U	2007/07/27	2014/03/07	111255		0001569113		Stone Tower Clo VI Ltd.		KY			F	CORP			T4GYUV5MZNVHSVKJJX43		
ISSUR	I	2007/07/28	2007/07/28	111267				E Trade ABS CDO VI LTD		KY			F	CORP					
ISSUR	U	2007/07/28	2013/11/12	111294	6189	0001376118		American Home Mortgage Investment Trust 2006-3		US	3112		F	CORP					
ISSUR	I	2007/07/06	2007/07/06	110662				Acas Clo 2007-1Ltd		KY			F	CORP					
ISSUR	I	2007/08/03	2007/08/03	111525				DFR Middle Market CLO LTD		KY			F	CORP					
ISSUR	U	2007/08/07	2012/02/17	111622				Pinnacle Peak CDO I LTD		KY			F	CORP					
ISSUR	I	2007/08/07	2007/08/07	111639				Robeco High Grade CDO I LTD		KY			F	CORP					
ISSUR	U	2007/08/07	2010/01/14	111657				Duke Funding XIII Ltd		KY			F	CORP					
ISSUR	U	2007/08/11	2014/03/07	111838		0001490271		Lightpoint CLO 2004-1 LTD		KY			F	CORP					
ISSUR	U	2006/11/17	2015/05/18	104065	6029	0000312070		Barclays Bank PLC	40	GB	3112		F	CORP			213800ABLXP1DPLXNQ90	522110	
ISSUR	I	2007/08/14	2007/08/14	111919				Ansonia CDO 2007-1 LTD		KY			F	CORP					
ISSUR	I	2007/08/16	2007/08/16	112009				Biltmore CDO 2007-1 LTD		KY			F	CORP					
ISSUR	I	2007/08/17	2007/08/17	112043				Libertas Preferred Funding III LTD		KY			F	CORP					
ISSUR	U	2007/08/17	2012/09/18	112046				SPGS SPC Act For Acc Msc07-SRR4 Segregated Portfolio		KY			F	CORP					
ISSUR	U	2013/10/22	2015/12/15	159134	6722			Newcastle CDO IV Corp		US			F	CORP				525910	
ISSUR	U	2007/08/23	2016/03/28	112236				KBC Bank Funding Trust III	8	US			F	CORP					
ISSUR	I	2007/08/24	2007/08/24	112279				Stockton CDO LTD		KY			F	CORP					
ISSUR	U	2004/07/13	2016/07/20	83290				BNP Paribas Fortis Funding.	8	LU			F	CORP			549300J2UEC8CUFW6083		
ISSUR	I	2012/04/10	2012/04/10	149527				Cbre Realty Finance Cdo 2006-1 Ltd		KY			F	CORP					
ISSUR	I	2005/09/16	2005/09/16	94600				Resix Finance Limited		KY			F	CORP					
ISSUR	U	2007/08/27	2015/10/20	112373	8748			Baltic American Enterprise Fund		US			F	CORP				541690	
ISSUR	I	2007/08/30	2007/08/30	112432				Pangaea CLO 2007-1 LTD		KY			F	CORP					
ISSUR	U	2007/08/30	2016/03/28	112468				ACAS Business Loan Trust 2007-1	40	US			F	CORP					
ISSUR	I	2006/01/07	2006/01/07	96836				Tiaa Real Estate CDO 2002-1		KY			F	CORP					
ISSUR	I	2007/09/04	2007/09/04	112607				Ridgeway Court Funding II LTD		KY			F	CORP					
ISSUR	I	2007/09/05	2007/09/05	112639				Brushfield CDO 2007-1 LTD		KY			F	CORP					
ISSUR	I	2007/09/05	2007/09/05	112670				Cairn Mezz ABS CDO III Limited		US			F	CORP					
ISSUR	I	2007/09/07	2007/09/07	112850				C-BASS Mortgage Loan Trust		US			F	CORP					
ISSUR	I	2007/09/07	2007/09/07	112853				COBALT CMBS Commercial Mortgage Trust		US			F	CORP					
ISSUR	U	2007/09/07	2016/03/28	112870				Credit Suisse Commercial Mortgage Trust	46	US			F	CORP					
ISSUR	I	2014/06/12	2014/06/12	164925	6189	0001394459		GSAMP Trust 2007-HE2		US			F	CORP					
ISSUR	U	2007/09/07	2016/03/28	112901	6733			Impac Secured Assets Trust	41	US			F	CORP				523991	
ISSUR	I	2007/09/07	2007/09/07	112917				LB-UBS Commercial Mortgage Trust		US			F	CORP					
ISSUR	U	2014/06/21	2014/06/23	165362	6189	0001389456		Merrill Lynch Mortgage Investors Trust Series 2007-HE2		US			F	CORP					
ISSUR	I	2007/09/07	2007/09/07	112930				ML CFC Commercial Mortgage Trust		US			F	CORP					
ISSUR	U	2007/09/07	2013/11/06	112952	6189	0001327386		Nomura Home Equity Loan Inc		US	3103		F	CORP					
ISSUR	I	2007/09/08	2007/09/08	112970				RASC KS3 Trust		US			F	CORP					
ISSUR	I	2007/09/08	2007/09/08	112972				RAAC SP1 Trust		US			F	CORP					
ISSUR	I	2007/09/08	2007/09/08	112975				RAMP RS2 Trust		US			F	CORP					
ISSUR	I	2007/09/12	2007/09/12	113074				Los Robles CDO LTD		KY			F	CORP					
ISSUR	U	2007/09/17	2010/01/21	113173				Libertas Preferred Funding V, Ltd		KY			F	CORP					
ISSUR	I	2007/09/19	2007/09/19	113202				Aventine Hill CDO I LTD		KY			F	CORP					
ISSUR	I	2007/09/20	2007/09/20	113275				Clifton I CDO Limited		IE			F	CORP					
ISSUR	I	2007/07/18	2007/07/18	110953				Eurosail-UK 2007-3BL PLC		GB			F	CORP			213800YCKG3TNT5E1296		
ISSUR	I	2007/09/29	2007/09/29	113488				Timberwolf I Ltd		US			F	CORP					
ISSUR	U	2007/10/01	2016/03/28	113502				Florida Windstorm Underwriting Association	69	US			F	CORP					
ISSUR	I	2007/10/12	2007/10/12	113914				Ceago Abs Cdo 2007 1 Ltd		KY			F	CORP					
ISSUR	I	2007/10/23	2007/10/23	114118				Adrastea SHG 2007-1 LTD		KY			F	CORP					
ISSUR	I	2007/10/23	2007/10/23	114125				Neo CDO 2007-1 LTD		KY			F	CORP					
ISSUR	U	2010/12/31	2016/03/28	142528				Systems 2004 Asset Trust	40	US			F	CORP					
ISSUR	U	2001/05/05	2013/11/12	38253	3021	0000770949		Reebok International, Ltd.	50	US	3112		F	CORP				316210	
ISSUR	I	2007/11/20	2007/11/20	115407				Centerline 2007-SRR5 LTD		KY			F	CORP					
ISSUR	I	2007/11/21	2007/11/21	115465				Palmer ABS CDO 2007-1 LTD		KY			F	CORP					
ISSUR	I	2007/11/22	2007/11/22	115507				Nautilus RMBS CDO V LTD		KY			F	CORP					
ISSUR	I	2007/11/22	2007/11/22	115505				Bonifacius Limited		KY			F	CORP					
ISSUR	I	2007/11/24	2007/11/24	115600				AMMC VIII Ltd		KY			F	CORP					
ISSUR	U	2001/09/04	2015/11/10	42617	3330	0000049996		Vale Canada Ltd.	96	CA	3112	Inco Ltd.	F	CORP					
ISSUR	U	2005/07/26	2013/11/10	93555	1381	0000798943		Nabors Industries Inc		US	3112		F	CORP				213111	
ISSUR	U	2007/12/01	2014/03/07	115824		0001414844		Preferred Term Securities XXVII Ltd		KY			F	CORP					
ISSUR	U	2001/11/27	2013/11/14	57745	2911	0001163165	10102020	Conoco Phillips	111	US	3112	Conoco Phillips	F	CORP			6VJJ5GQWIRDQ06DUXG89	324110	
ISSUR	I	2007/12/04	2007/12/04	115868				Integral Funding Ltd		KY			F	CORP					
ISSUR	U	2006/03/24	2013/11/06	98445	6770	0000833798		Access Group, Inc.		US	3112		F	CORP					
ISSUR	I	2007/12/07	2007/12/07	115961				Fort Denison Funding Ltd.		KY			F	CORP					
ISSUR	U	2001/05/05	2013/11/07	30198	4813	0000005907		AT&T Corp.	150	US	3112	AT&T	F	CORP					
ISSUR	I	2007/12/17	2007/12/17	116287				Highridge Abs Cdo II Ltd		KY			F	CORP					
ISSUR	I	2007/12/17	2007/12/17	116288				Trapeza CDO VII Ltd-Inc		KY			F	CORP					
ISSUR	I	2007/02/21	2007/02/21	107866				Concord Real Estate Cdo 2006-1 Ltd & Llc		KY			F	CORP					
ISSUR	I	2007/12/26	2007/12/26	116536				TWOLF 2007 - 1A		KY			F	CORP					
ISSUR	I	2007/12/01	2007/12/01	115832				Muir Grove CLO Ltd		KY			F	CORP					
ISSUR	I	2007/12/29	2007/12/29	116703				Babson CLO 2003-I Ltd-Corp		KY			F	CORP					
ISSUR	I	2007/12/10	2007/12/10	116009				Eurosail-NL 2007-2 B.V.		NL			F	CORP			724500VX65TCSYFLOA51		
ISSUR	I	2008/01/07	2008/01/07	116999				Dalton Cdo Ltd		KY			F	CORP					
ISSUR	I	2005/01/22	2005/01/22	88928				Eirles Two Ltd.		IE			F	CORP					
ISSUR	I	2007/10/25	2007/10/25	114205				Duke Funding III Ltd		KY			F	CORP					
ISSUR	U	2007/10/25	2016/07/06	114199				Duke Funding VIII Ltd		KY			F	CORP			549300QIU8O5NMOZJ750		
ISSUR	I	2008/01/12	2008/01/12	117205				Veer Loan Opportunities Fund Ltd		KY			F	CORP					
ISSUR	I	2008/01/14	2008/01/14	117220				Trinity CDO Ltd		KY			F	CORP					
ISSUR	U	2007/03/12	2008/08/21	108340				Madison Park Funding IV Ltd Corp		KY			F	CORP					
ISSUR	U	2008/01/17	2014/06/24	117366		0001497395		Knightsbridge Clo 2007-1 Ltd		KY			F	CORP					
ISSUR	U	2008/01/17	2016/07/06	117436				Ballantyne Re plc		IE			F	CORP			635400SIJGV4YAWB4S58		
ISSUR	U	2008/02/28	2015/10/20	118721	6733			ACAS Business Loan Trust 2007-2		US			F	CORP				523991	
ISSUR	I	2008/03/12	2008/03/12	119047				Kleros Preferred Funding IX Ltd		KY			F	CORP					
ISSUR	I	2005/02/09	2005/02/09	89623				Herald Limited		KY			F	CORP					
ISSUR	I	2008/03/14	2008/03/14	119103				Galaxy X Clo Ltd		KY			F	CORP					
ISSUR	I	2008/03/17	2008/03/17	119126				Babson Clo 2004-II Ltd-Inc		KY			F	CORP					
ISSUR	U	2008/03/15	2013/10/25	119117				Saratoga Investment Corp CLO 2013-1 Ltd.		KY			F	CORP					
ISSUR	U	2008/04/03	2009/09/17	119721				Babson Loan Opportunity CLO Ltd/Inc		KY			F	CORP					
ISSUR	I	2004/04/17	2004/04/17	81564				Westpac Securities Administration Ltd		AU			F	CORP					
ISSUR	I	2008/04/08	2008/04/08	119864				SMHL Global Fund No.5		AU			F	CORP					
ISSUR	I	2012/01/03	2012/01/03	148088				Medallion Trust Series 2004-1G		AU			F	CORP					
ISSUR	I	2008/04/11	2008/04/11	120027				Zohar II 2005-1 Ltd Crop		KY			F	CORP					
ISSUR	I	2013/12/30	2013/12/30	160472				Independence V CDO, Inc.		US			F	CORP	US				
ISSUR	U	2004/04/28	2013/12/30	81772				Independence V CDO, Ltd		KY			F	CORP					
ISSUR	I	2013/12/27	2013/12/27	160412				Camulos Loan Vehicle I, Inc		US			F	CORP					
ISSUR	I	2008/04/12	2008/04/12	120155				Camulos Loan Vehicle I Ltd		KY			F	CORP					
ISSUR	I	2008/04/24	2008/04/24	120573				Cheyne Abs Investments I		IE			F	CORP					
ISSUR	I	2006/11/11	2006/11/11	103761				Ixion PLC.		IE			F	CORP					
ISSUR	I	2008/02/06	2008/02/06	118129				Windermere XIV Cmbs Ltd		IE			F	CORP					
ISSUR	U	2007/08/07	2011/12/16	111652				Windermere XI CMBS Plc		GB			F	CORP					
ISSUR	U	2008/04/25	2009/09/23	120595				Watchtower Clo I Plc/Corp		IE			F	CORP					
ISSUR	U	2009/05/11	2011/12/16	129306				Eurosail 2006-3NC Plc		GB			F	CORP					
ISSUR	I	2008/04/29	2008/04/29	120668				Eurosail-UK 2007 5NP Plc		GB			F	CORP					
ISSUR	U	2008/01/15	2013/08/13	117281				Eurosail UK 2007 5NP Plc		GB			F	CORP					
ISSUR	I	2007/01/13	2007/01/13	106068				Residential Mortgage Securities 20 Plc		GB			F	CORP					
ISSUR	U	2004/04/01	2016/07/06	81191	4900	0001126265		Hydro-Quebec		CA			F	CORP			6THEVG93PYJH84S4D167		
ISSUR	U	2004/10/12	2014/03/07	86363	3661	0001119664		Nortel Networks Limited		CA	3112		F	CORP					
ISSUR	U	2008/05/02	2014/03/07	120798		0001495310		Riverside Park Clo Ltd		KY			F	CORP					
ISSUR	I	2002/07/05	2002/07/05	69461				Independence III Cdo Ltd		KY			F	CORP					
ISSUR	I	2008/05/06	2008/05/06	120919				North Street Referencd Lkd Nt 03-5		KY			F	CORP					
ISSUR	I	2008/05/06	2008/05/06	120920				G-Star 2002-1(Delware) Ltd		KY			F	CORP					
ISSUR	I	2008/05/06	2008/05/06	120958				Eastman Hill Funding I Ltd-Inc		KY			F	CORP					
ISSUR	I	2008/05/06	2008/05/06	120965				Vertical Cdo 2004-1 Ltd-Corp		KY			F	CORP					
ISSUR	I	2008/05/07	2008/05/07	120976				North Street Referenced Linked Notes 2002-3A Limited		KY			F	CORP					
ISSUR	U	2008/05/07	2008/05/14	120980				Duke Funding IV Ltd-Inc		KY			F	CORP					
ISSUR	I	2008/05/07	2008/05/07	120991				Klio Funding Ltd-Corp		KY			F	CORP					
ISSUR	U	2006/11/29	2015/10/12	104641	6799			Nylim Flatiron Clo 2003-1 Ltd Inc		KY			F	CORP				523910	
ISSUR	U	2006/04/22	2008/08/21	99079				Mckinley Funding Ltd Corp		KY			F	CORP					
ISSUR	I	2008/05/08	2008/05/08	121073				Fort Point CDO II Ltd-Corp		KY			F	CORP					
ISSUR	U	2008/05/08	2008/05/14	121104				Brascan Real Estate Cdo 2004-1 Ltd-Corp		KY			F	CORP					
ISSUR	U	2006/12/22	2008/08/21	105430				Kent Funding III Ltd Inc		KY			F	CORP					
ISSUR	I	2008/05/08	2008/05/08	121133				WMC Home Equity Loan Trust		US			F	CORP					
ISSUR	U	2005/07/05	2014/02/27	92795				Abacus 2004-3,Ltd.		KY			F	CORP					
ISSUR	I	2008/05/09	2008/05/09	121139				South Coast Funding VI Ltd-Corp		KY			F	CORP					
ISSUR	I	2008/05/09	2008/05/09	121141				North Street Referenced Linked Notes 2005-7 Limited		KY			F	CORP					
ISSUR	I	2007/12/29	2007/12/29	116692				Four Corners Clo 2005-1 Ltd-Corp		KY			F	CORP					
ISSUR	I	2008/05/09	2008/05/09	121156				Synthetic Residential Asset Hybrid CDO 2004-10 Ltd-Corp		KY			F	CORP					
ISSUR	U	2008/05/09	2014/03/07	121172		0001311906		Callidus Debt Partners CLO Fund III Ltd-Inc		KY			F	CORP					
ISSUR	I	2008/05/10	2008/05/10	121213				First 2004-II Clo Ltd-Corp		KY			F	CORP					
ISSUR	I	2008/05/10	2008/05/10	121216				Hewetts Island Clo II Ltd-Corp		KY			F	CORP					
ISSUR	I	2008/05/12	2008/05/12	121232				Contimortgage Home Equity Loan Trust		US			F	CORP					
ISSUR	I	2008/05/12	2008/05/12	121237				Aca Abs 2005-1 Ltd-Llc		KY			F	CORP					
ISSUR	U	2008/05/12	2014/03/07	121241		0001449943		Ares IX CLO Ltd-Corp		KY			F	CORP					
ISSUR	U	2008/05/07	2014/03/07	120995		0001495302		Hudson Straits Clo 2004 Ltd-Corp		KY			F	CORP					
ISSUR	U	2009/09/28	2014/03/07	132034		0001360707		Callidus Debt Partners CLO Fund IV Ltd/Inc		KY			F	CORP					
ISSUR	U	2004/01/02	2008/08/21	79077				Atrium II Atrium II(Del) Corp		KY			F	CORP					
ISSUR	U	2007/03/12	2014/02/14	108344				Mkp Vela Cbo Ltd		KY			F	CORP					
ISSUR	I	2008/05/13	2008/05/13	121313				N-Star Real Estate CDO II Ltd-Corp		KY			F	CORP					
ISSUR	I	2007/07/18	2007/07/18	110955				Carlyle High Yield Partners X LTD		KY			F	CORP					
ISSUR	U	2006/12/04	2010/02/04	104795				Claris IV Limited.		JE			F	CORP					
ISSUR	I	2008/05/14	2008/05/14	121332				Capmark VII-CRE Delaware Ltd & Corp		KY			F	CORP					
ISSUR	U	2008/05/15	2016/02/09	121387	7389			Blue Bell Funding Ltd-Corp		KY			F	CORP				561990	
ISSUR	I	2008/05/15	2008/05/15	121388				Clydesdale Strategic CLO I Ltd-Inc		KY			F	CORP					
ISSUR	I	2008/05/15	2008/05/15	121391				Klio II Funding Ltd-Corp		KY			F	CORP					
ISSUR	I	2008/05/15	2008/05/15	121404				Alexander Park CDO I Ltd & Llc.		KY			F	CORP					
ISSUR	I	2008/05/15	2008/05/15	121417				Artesia Overseas		KY			F	CORP					
ISSUR	I	2006/05/04	2006/05/04	99364				Magnolia Finance VI Plc		IE			F	CORP					
ISSUR	U	2008/05/17	2013/11/14	121481	6189	0001411991		The National Collegiate Student Loan Trust 2007-4		US			F	CORP					
ISSUR	I	2016/06/01	2016/06/01	183454				Sirius International Group Ltd		US			F	CORP			5493006NDQTDF66CRF40		
ISSUR	U	2009/08/28	2016/10/03	131344	6733	0000838927		Lasalle Bank Midwest NA	8	US			F	CORP				523991	
ISSUR	I	2008/06/06	2008/06/06	121945				Newstar Credit Opportunities Funding II Ltd		KY			F	CORP					
ISSUR	U	2005/03/19	2016/03/09	90675				SLM Student Loan Trust 2003-10	10	US			F	CORP					
ISSUR	I	2008/06/21	2008/06/21	122349				LBSPK 2007-1 SPC		KY			F	CORP					
ISSUR	I	2008/06/23	2008/06/23	122370				AMPSS 2007-4 SPC		KY			F	CORP					
ISSUR	I	2008/06/23	2008/06/23	122372				AMPSS 2007-5 SPC		KY			F	CORP					
ISSUR	U	2005/06/21	2015/09/15	92291	6411			John Hancock Life Ins Co		US			F	CORP				524210	
ISSUR	U	2001/12/19	2016/07/06	58434	6311	0001137774	40301020	Prudential Financial Inc.	74	US	3112		F	CORP			5PRBRS5FEH7NREC8OR45		
ISSUR	U	2006/04/25	2008/08/21	99145				Race Point Clo Ltd Inc		KY			F	CORP					
ISSUR	U	2005/01/29	2016/02/03	89270			40101015	SpareBank 1 SMN		NO	3112		F	CORP			7V6Z97IO7R1SEAO84Q32		
ISSUR	U	2008/07/24	2015/10/27	123769	6733	0001495282		Chelsea Park Clo LTD/LLC		KY			F	CORP				523991	
ISSUR	I	2008/07/25	2008/07/25	123791				Penwood Cdo 2008-1 Ltd		IE			F	CORP					
ISSUR	U	2008/08/14	2014/03/07	124153		0001449950		Ares Enhanced Loan Investment Strategy IR Ltd		KY			F	CORP			549300R3TBULWHCCOZ37		
ISSUR	I	2008/08/14	2008/08/14	124159				Symphony Credit Partners II Ltd-Corp		KY			F	CORP					
ISSUR	I	2008/08/14	2008/08/14	124160				Symphony Credit Partners I Ltd-Corp		KY			F	CORP					
ISSUR	I	2008/08/18	2008/08/18	124204				Symphony Credit Partners III Ltd		KY			F	CORP					
ISSUR	U	2001/05/05	2015/11/24	38224	2731	0000858558		Trusted Media Brands Inc	95	US	3112		F	CORP					
ISSUR	U	2007/01/22	2014/02/12	106854	4841	0001377013	25401025	Time Warner Cable Inc	149	US	3112	Time Warner Cable	F	CORP					
ISSUR	U	2001/05/05	2016/09/05	40819	6798	0000106535	60101080	Weyerhaeuser Co.	20	US	3112		F	CORP				525990	
ISSUR	U	2001/05/05	2013/11/08	37362	6324	0000766456		Pacificare Health Systems, Inc.	58	US	3009		F	CORP					
ISSUR	U	2008/09/02	2016/02/22	124596	9531			Government National Mortgage Association		US			F	CORP				925110	
ISSUR	U	2001/05/05	2015/06/15	40701	2834	0000884629	35202010	Allergan plc	116	IE	3112	Watson Pharma	F	CORP				325412	
ISSUR	U	2001/05/05	2013/11/10	40731	7374	0001009575		HLTH Corp	54	US	3112		F	CORP				518210	
ISSUR	I	2008/09/01	2008/09/01	124581				Arch Point Loan Funding III Ltd		KY			F	CORP					
ISSUR	I	2008/09/01	2008/09/01	124582				Arch Point Loan Funding II Ltd		KY			F	CORP					
ISSUR	I	2008/09/01	2008/09/01	124583				Arch Point Loan Funding IV Ltd		KY			F	CORP					
ISSUR	I	2008/09/03	2008/09/03	124640				Arch Point Loan Funding I Ltd		KY			F	CORP					
ISSUR	I	2008/09/11	2008/09/11	124774				Symphony CLO VI Ltd-Corp		KY			F	CORP					
ISSUR	I	2007/08/03	2007/08/03	111534				Palmer Square 3		IE			F	CORP					
ISSUR	I	2008/09/24	2008/09/24	124947				505 CLO III Ltd		KY			F	CORP					
ISSUR	U	2003/12/05	2013/11/12	78563	6798	0001256536		American Home Mortgage Investment Corp	120	US	3112		F	CORP				525990	
ISSUR	U	2008/09/27	2013/11/10	124990	1311	0001428933		Atlas Energy Operating Company LLC		US	3112		F	CORP				211111	
ISSUR	U	2008/10/02	2015/10/27	125067	6722			CHGO Loan Funding Ltd		KY			F	CORP				525910	
ISSUR	U	2008/02/18	2012/10/19	118488				Tiers Principal Protected Ctfs Tr		US			F	CORP					
ISSUR	U	2001/05/05	2014/02/24	37114	4522	0000073887	10101020	Bristow Group Inc	109	US	3103		F	CORP					
ISSUR	U	2008/11/05	2013/11/14	125534	6189	0001305287		National Collegiate Student Loan Trust 2004-2		US			F	CORP					
ISSUR	U	2008/11/05	2014/03/07	125535	6189	0001317703		The National Collegiate Stud Loan Trust 2005-1		US			F	CORP					
ISSUR	U	2001/05/05	2013/11/10	31912	4813	0001060490		Broadwing Corp.	18	US	3112		F	CORP					
ISSUR	U	2001/05/05	2013/11/08	34007	6021	0000775473		Greater Bay Bancorp	8	US	3112		F	CORP					
ISSUR	U	2004/07/27	2016/07/20	83584	8888	0000821533		Kreditanstalt fuer Wiederaufbau (KfW)	8	DE			F	CORP			549300GDPG70E3MBBU98		
ISSUR	I	2008/12/22	2008/12/22	126264				505 Clo II Ltd		KY			F	CORP					
ISSUR	U	2004/09/17	2015/09/29	85357	7389			Alestra, S. De Rl. De Cv.		MX			F	CORP				561990	
ISSUR	U	2001/05/05	2013/12/13	36324	4911	0001010775		Mirant Corp	159	US	3112		F	CORP			1T0CVCA0N2F5A46RN272		
ISSUR	U	2007/02/21	2013/11/10	107865	2860	0001405041		Momentive Performance Materials Inc.		US	3112		F	CORP			H2OFQI2FJX0T8IHKL414		
ISSUR	U	2007/11/01	2014/03/07	114455	4911	0001335030		TermoEmcali Funding Corp.		MA			F	CORP					
ISSUR	U	2001/05/05	2013/11/07	33760	2040	0000040704	30202030	General Mills, Inc.	49	US	3105	General Mills	F	CORP					
ISSUR	U	2009/01/16	2013/11/13	126665	6189	0001049534		Bombardier Capital Mortgage		US	3112		F	CORP					
ISSUR	I	2009/01/16	2009/01/16	126675				GreenPoint Manufactured Housing Contract		US			F	CORP					
ISSUR	U	2001/05/05	2013/11/14	35716	5211	0000060667	25504030	Lowe`s Cos., Inc.	133	US	3112		F	CORP					
ISSUR	I	2009/01/16	2009/01/16	126686				AFC Mortgage Loan		US			F	CORP					
ISSUR	U	2009/01/16	2016/04/22	126718				CMS Panhandle Holding	160	US			F	CORP					
ISSUR	U	2009/01/16	2013/11/08	126733	4911	0001089472		East Coast Power LLC		US	3112		F	CORP					
ISSUR	U	2009/01/16	2013/11/14	126656	6189	0000808851		Structured Asset Securities Corporation		US	3112		F	CORP					
ISSUR	U	2009/01/03	2013/11/14	126375	6189	0000816512		Vanderbilt Motgage & Finance Inc.		US			F	CORP					
ISSUR	U	2001/05/05	2013/11/14	35389	5311	0000885639	25503010	Kohl`s Corp.	128	US	3101		F	CORP					
ISSUR	U	2005/07/13	2008/08/21	93077				Dryden IV Leveraged Loan CDO Corp		KY			F	CORP					
ISSUR	U	2008/11/14	2016/04/15	125705				Merey Sweeny, L.P	112	US			F	CORP					
ISSUR	U	2009/01/16	2013/11/07	126719	6189	0000792428		GE Capital Mortgage Services Inc.		US	3112		F	CORP					
ISSUR	U	2005/01/22	2016/07/06	88909				Punch Taverns Finance B Ltd.		KY			F	CORP			FF1TYQ7D6D6BB9G1W173		
ISSUR	U	2007/09/07	2013/11/14	112914	6189	0001013611		J.P.Morgan Chase Commercial Mortgage Securities Corp		US			F	CORP					
ISSUR	U	2008/06/12	2013/11/06	122063	4512	0000919897		Northwest Airlines Incorporated		US	3112		F	CORP					
ISSUR	U	2009/01/20	2013/11/10	126847	6199	0000929426		Merit Securities Corporation		US	3112		F	CORP					
ISSUR	U	2001/05/05	2014/05/13	32229	4512	0000027904	20302010	Delta Air Lines, Inc.	2	US	3112		F	CORP			Q2CCMS6R0AS67HJMBN42		
ISSUR	U	2001/10/23	2014/03/07	54340	4813	0001089695		Grupo Iusacell S A De C V	150	MX			F	CORP					
ISSUR	U	2009/01/21	2013/11/10	126868	6189	0000921686		MLCC Mortgage Investors		US	3112		F	CORP					
ISSUR	U	2002/03/05	2016/04/25	63469	4841	0001507934	25401025	Liberty Media Corp.	90	US	3112		F	CORP					
ISSUR	I	2005/01/23	2005/01/23	88937				Pegasus Aviation Lease Securitization II		US			F	CORP					
ISSUR	U	2001/05/05	2016/07/21	36973	4911	0001013871	55105010	NRG Energy Inc.	159	US	3112		F	CORP			5E2UPK5SW04M13XY7I38		
ISSUR	U	2001/02/22	2015/01/05	6642		0000930689	10102040	Transportadora de Gas del Sur	160	AR	3112		F	CORP					
ISSUR	U	2001/06/22	2013/12/18	40949	4813	0000723527		MCI INC		US	3112	Worldcom Group	F	CORP					
ISSUR	U	2004/03/10	2014/03/07	80263	7359	0001072976		Aerco Ltd.		GB			F	CORP					
ISSUR	I	2007/01/18	2007/01/18	106544				Enron Euro Credit Linked Notes Trust		US			F	CORP					
ISSUR	I	2008/05/07	2008/05/07	121049				Varick Structured Asset Fund Ltd		KY			F	CORP					
ISSUR	U	2008/08/30	2015/10/27	124518	4613			Colonial Pipeline Company		US			F	CORP			549300Y8RLCD6IQXIT35	486910	
ISSUR	U	2007/09/28	2013/11/12	113443	4813	0000794987		Qwest Capital Funding Inc		US	3112		F	CORP					
ISSUR	U	2001/05/05	2014/06/24	40857	4922	0000905982	10102040	Williams Cos Inc	109	US	3112		F	CORP				486210	
ISSUR	U	2005/02/26	2016/07/06	90129	4922	0000888228	10102040	Kinder Morgan Energy Partners L.P.	112	US	3112		F	CORP			549300PDHUGWPWGOT525	486210	
ISSUR	U	2008/05/09	2013/12/14	121169	4911	0001023291		Energy Future Holdings Corp.		US	3112		F	CORP					
ISSUR	I	2009/01/16	2009/01/16	126712				Commercial Mortgage Asset Trust		US			F	CORP					
ISSUR	U	2005/06/23	2013/12/12	92420	4911	0000071180		Nevada Power Company		US	3112		F	CORP					
ISSUR	U	2007/11/07	2016/03/28	114699				Yankee Acquisition Corp	62	US			F	CORP					
ISSUR	U	2001/05/05	2013/11/07	33745	3357	0000886035	20104010	General Cable Corp.	35	US	3112		F	CORP			549300CAF6I1C423RT83		
ISSUR	U	2002/06/01	2013/11/06	68258	3841	0001168335		Advanced Medical Optics, Inc.	54	US	3112		F	CORP					
ISSUR	U	2001/12/04	2013/11/12	57996	8062	0001101723		United Surgical Partners International Inc	162	US	3112		F	CORP				622110	
ISSUR	U	2001/05/05	2013/11/13	38953	2631	0000094610		Smurfit-Stone Container Corp.	113	US	3112		F	CORP				322130	
ISSUR	U	2009/01/26	2013/11/10	126978	6189	0001396149		Bear Stearns Asset Backed Securities I Trust 2007-HE4		US	3112		F	CORP					
ISSUR	U	2011/10/07	2015/07/06	146994	6199	0001406508	25502020	Bluestem Group Inc		US	3112		F	CORP					
ISSUR	I	2009/01/20	2009/01/20	126849				Conseco Finance Home Loan Trust		US			F	CORP					
ISSUR	U	2007/10/04	2009/08/31	113693				Crest 2001-1 Ltd/Corp		KY			F	CORP					
ISSUR	U	2003/10/01	2013/11/14	76840	6189	0000856417		Chevy Chase Bank FSB	8	US			F	CORP					
EDI_ENDOFFILE
